( 1 88 ) ( -1 -88 ) ( 2 79 ) ( -2 -79 ) ( 3 80 ) ( -3 -80 ) ( 4 82 ) ( -4 -82 ) ( 5 81 ) ( -5 -81 ) ( 6 83 ) ( -6 -83 ) ( 7 84 ) ( -7 -84 ) ( 8 85 ) ( -8 -85 ) ( 9 86 ) ( -9 -86 ) ( 10 87 ) ( -10 -87 ) ( 11 78 ) ( -11 -78 ) ( 12 44 ) ( -12 -44 ) ( 13 35 ) ( -13 -35 ) ( 14 36 ) ( -14 -36 ) ( 15 38 ) ( -15 -38 ) ( 16 37 ) ( -16 -37 ) ( 17 39 ) ( -17 -39 ) ( 18 40 ) ( -18 -40 ) ( 19 41 ) ( -19 -41 ) ( 20 42 ) ( -20 -42 ) ( 21 43 ) ( -21 -43 ) ( 22 34 ) ( -22 -34 ) ( 23 66 ) ( -23 -66 ) ( 24 57 ) ( -24 -57 ) ( 25 58 ) ( -25 -58 ) ( 26 60 ) ( -26 -60 ) ( 27 59 ) ( -27 -59 ) ( 28 61 ) ( -28 -61 ) ( 29 62 ) ( -29 -62 ) ( 30 63 ) ( -30 -63 ) ( 31 64 ) ( -31 -64 ) ( 32 65 ) ( -32 -65 ) ( 33 56 ) ( -33 -56 ) ( 45 55 ) ( -45 -55 ) ( 48 49 ) ( -48 -49 ) ( 67 99 ) ( -67 -99 ) ( 68 90 ) ( -68 -90 ) ( 69 91 ) ( -69 -91 ) ( 70 93 ) ( -70 -93 ) ( 71 92 ) ( -71 -92 ) ( 72 94 ) ( -72 -94 ) ( 73 95 ) ( -73 -95 ) ( 74 96 ) ( -74 -96 ) ( 75 97 ) ( -75 -97 ) ( 76 98 ) ( -76 -98 ) ( 77 89 ) ( -77 -89 ) ( 100 110 ) ( -100 -110 ) ( 103 104 ) ( -103 -104 ) ( 111 132 ) ( -111 -132 ) ( 112 123 ) ( -112 -123 ) ( 113 124 ) ( -113 -124 ) ( 114 126 ) ( -114 -126 ) ( 115 125 ) ( -115 -125 ) ( 116 127 ) ( -116 -127 ) ( 117 128 ) ( -117 -128 ) ( 118 129 ) ( -118 -129 ) ( 119 130 ) ( -119 -130 ) ( 120 131 ) ( -120 -131 ) ( 121 122 ) ( -121 -122 ) 
( 1 13 ) ( -1 -13 ) ( 2 12 ) ( -2 -12 ) ( 3 14 ) ( -3 -14 ) ( 4 15 ) ( -4 -15 ) ( 5 16 ) ( -5 -16 ) ( 6 17 ) ( -6 -17 ) ( 7 18 ) ( -7 -18 ) ( 8 19 ) ( -8 -19 ) ( 9 20 ) ( -9 -20 ) ( 10 21 ) ( -10 -21 ) ( 11 22 ) ( -11 -22 ) ( 23 24 ) ( -23 -24 ) ( 34 101 ) ( -34 -101 ) ( 35 100 ) ( -35 -100 ) ( 36 102 ) ( -36 -102 ) ( 37 103 ) ( -37 -103 ) ( 38 104 ) ( -38 -104 ) ( 39 105 ) ( -39 -105 ) ( 40 106 ) ( -40 -106 ) ( 41 107 ) ( -41 -107 ) ( 42 108 ) ( -42 -108 ) ( 43 109 ) ( -43 -109 ) ( 44 110 ) ( -44 -110 ) ( 45 46 ) ( -45 -46 ) ( 56 57 ) ( -56 -57 ) ( 67 90 ) ( -67 -90 ) ( 68 89 ) ( -68 -89 ) ( 69 91 ) ( -69 -91 ) ( 70 92 ) ( -70 -92 ) ( 71 93 ) ( -71 -93 ) ( 72 94 ) ( -72 -94 ) ( 73 95 ) ( -73 -95 ) ( 74 96 ) ( -74 -96 ) ( 75 97 ) ( -75 -97 ) ( 76 98 ) ( -76 -98 ) ( 77 99 ) ( -77 -99 ) ( 78 79 ) ( -78 -79 ) ( 111 112 ) ( -111 -112 ) ( 122 123 ) ( -122 -123 ) 
( 2 3 ) ( -2 -3 ) ( 12 34 ) ( -12 -34 ) ( 13 36 ) ( -13 -36 ) ( 14 35 ) ( -14 -35 ) ( 15 37 ) ( -15 -37 ) ( 16 38 ) ( -16 -38 ) ( 17 39 ) ( -17 -39 ) ( 18 40 ) ( -18 -40 ) ( 19 41 ) ( -19 -41 ) ( 20 42 ) ( -20 -42 ) ( 21 43 ) ( -21 -43 ) ( 22 44 ) ( -22 -44 ) ( 23 67 ) ( -23 -67 ) ( 24 69 ) ( -24 -69 ) ( 25 68 ) ( -25 -68 ) ( 26 70 ) ( -26 -70 ) ( 27 71 ) ( -27 -71 ) ( 28 72 ) ( -28 -72 ) ( 29 73 ) ( -29 -73 ) ( 30 74 ) ( -30 -74 ) ( 31 75 ) ( -31 -75 ) ( 32 76 ) ( -32 -76 ) ( 33 77 ) ( -33 -77 ) ( 45 100 ) ( -45 -100 ) ( 46 102 ) ( -46 -102 ) ( 47 101 ) ( -47 -101 ) ( 48 103 ) ( -48 -103 ) ( 49 104 ) ( -49 -104 ) ( 50 105 ) ( -50 -105 ) ( 51 106 ) ( -51 -106 ) ( 52 107 ) ( -52 -107 ) ( 53 108 ) ( -53 -108 ) ( 54 109 ) ( -54 -109 ) ( 55 110 ) ( -55 -110 ) ( 57 58 ) ( -57 -58 ) ( 79 80 ) ( -79 -80 ) ( 89 111 ) ( -89 -111 ) ( 90 113 ) ( -90 -113 ) ( 91 112 ) ( -91 -112 ) ( 92 114 ) ( -92 -114 ) ( 93 115 ) ( -93 -115 ) ( 94 116 ) ( -94 -116 ) ( 95 117 ) ( -95 -117 ) ( 96 118 ) ( -96 -118 ) ( 97 119 ) ( -97 -119 ) ( 98 120 ) ( -98 -120 ) ( 99 121 ) ( -99 -121 ) ( 123 124 ) ( -123 -124 ) 
( 3 7 ) ( -3 -7 ) ( 12 111 ) ( -12 -111 ) ( 13 112 ) ( -13 -112 ) ( 14 117 ) ( -14 -117 ) ( 15 114 ) ( -15 -114 ) ( 16 115 ) ( -16 -115 ) ( 17 116 ) ( -17 -116 ) ( 18 113 ) ( -18 -113 ) ( 19 118 ) ( -19 -118 ) ( 20 119 ) ( -20 -119 ) ( 21 120 ) ( -21 -120 ) ( 22 121 ) ( -22 -121 ) ( 25 29 ) ( -25 -29 ) ( 36 40 ) ( -36 -40 ) ( 47 51 ) ( -47 -51 ) ( 56 67 ) ( -56 -67 ) ( 57 68 ) ( -57 -68 ) ( 58 73 ) ( -58 -73 ) ( 59 70 ) ( -59 -70 ) ( 60 71 ) ( -60 -71 ) ( 61 72 ) ( -61 -72 ) ( 62 69 ) ( -62 -69 ) ( 63 74 ) ( -63 -74 ) ( 64 75 ) ( -64 -75 ) ( 65 76 ) ( -65 -76 ) ( 66 77 ) ( -66 -77 ) ( 80 84 ) ( -80 -84 ) ( 89 100 ) ( -89 -100 ) ( 90 101 ) ( -90 -101 ) ( 91 106 ) ( -91 -106 ) ( 92 103 ) ( -92 -103 ) ( 93 104 ) ( -93 -104 ) ( 94 105 ) ( -94 -105 ) ( 95 102 ) ( -95 -102 ) ( 96 107 ) ( -96 -107 ) ( 97 108 ) ( -97 -108 ) ( 98 109 ) ( -98 -109 ) ( 99 110 ) ( -99 -110 ) ( 124 128 ) ( -124 -128 ) 
( 3 6 ) ( -3 -6 ) ( 12 45 ) ( -12 -45 ) ( 13 46 ) ( -13 -46 ) ( 14 50 ) ( -14 -50 ) ( 15 48 ) ( -15 -48 ) ( 16 49 ) ( -16 -49 ) ( 17 47 ) ( -17 -47 ) ( 18 51 ) ( -18 -51 ) ( 19 52 ) ( -19 -52 ) ( 20 53 ) ( -20 -53 ) ( 21 54 ) ( -21 -54 ) ( 22 55 ) ( -22 -55 ) ( 23 100 ) ( -23 -100 ) ( 24 101 ) ( -24 -101 ) ( 25 105 ) ( -25 -105 ) ( 26 103 ) ( -26 -103 ) ( 27 104 ) ( -27 -104 ) ( 28 102 ) ( -28 -102 ) ( 29 106 ) ( -29 -106 ) ( 30 107 ) ( -30 -107 ) ( 31 108 ) ( -31 -108 ) ( 32 109 ) ( -32 -109 ) ( 33 110 ) ( -33 -110 ) ( 36 39 ) ( -36 -39 ) ( 58 61 ) ( -58 -61 ) ( 69 72 ) ( -69 -72 ) ( 80 83 ) ( -80 -83 ) ( 89 122 ) ( -89 -122 ) ( 90 123 ) ( -90 -123 ) ( 91 127 ) ( -91 -127 ) ( 92 125 ) ( -92 -125 ) ( 93 126 ) ( -93 -126 ) ( 94 124 ) ( -94 -124 ) ( 95 128 ) ( -95 -128 ) ( 96 129 ) ( -96 -129 ) ( 97 130 ) ( -97 -130 ) ( 98 131 ) ( -98 -131 ) ( 99 132 ) ( -99 -132 ) ( 113 116 ) ( -113 -116 ) 
( 3 9 ) ( -3 -9 ) ( 12 23 ) ( -12 -23 ) ( 13 24 ) ( -13 -24 ) ( 14 31 ) ( -14 -31 ) ( 15 26 ) ( -15 -26 ) ( 16 27 ) ( -16 -27 ) ( 17 28 ) ( -17 -28 ) ( 18 29 ) ( -18 -29 ) ( 19 30 ) ( -19 -30 ) ( 20 25 ) ( -20 -25 ) ( 21 32 ) ( -21 -32 ) ( 22 33 ) ( -22 -33 ) ( 36 42 ) ( -36 -42 ) ( 47 53 ) ( -47 -53 ) ( 56 89 ) ( -56 -89 ) ( 57 90 ) ( -57 -90 ) ( 58 97 ) ( -58 -97 ) ( 59 92 ) ( -59 -92 ) ( 60 93 ) ( -60 -93 ) ( 61 94 ) ( -61 -94 ) ( 62 95 ) ( -62 -95 ) ( 63 96 ) ( -63 -96 ) ( 64 91 ) ( -64 -91 ) ( 65 98 ) ( -65 -98 ) ( 66 99 ) ( -66 -99 ) ( 67 100 ) ( -67 -100 ) ( 68 101 ) ( -68 -101 ) ( 69 108 ) ( -69 -108 ) ( 70 103 ) ( -70 -103 ) ( 71 104 ) ( -71 -104 ) ( 72 105 ) ( -72 -105 ) ( 73 106 ) ( -73 -106 ) ( 74 107 ) ( -74 -107 ) ( 75 102 ) ( -75 -102 ) ( 76 109 ) ( -76 -109 ) ( 77 110 ) ( -77 -110 ) ( 80 86 ) ( -80 -86 ) ( 113 119 ) ( -113 -119 ) ( 124 130 ) ( -124 -130 ) 
( 3 4 ) ( -3 -4 ) ( 14 15 ) ( -14 -15 ) ( 23 122 ) ( -23 -122 ) ( 24 123 ) ( -24 -123 ) ( 25 125 ) ( -25 -125 ) ( 26 124 ) ( -26 -124 ) ( 27 126 ) ( -27 -126 ) ( 28 127 ) ( -28 -127 ) ( 29 128 ) ( -29 -128 ) ( 30 129 ) ( -30 -129 ) ( 31 130 ) ( -31 -130 ) ( 32 131 ) ( -32 -131 ) ( 33 132 ) ( -33 -132 ) ( 36 37 ) ( -36 -37 ) ( 47 48 ) ( -47 -48 ) ( 58 59 ) ( -58 -59 ) ( 69 70 ) ( -69 -70 ) ( 80 81 ) ( -80 -81 ) ( 91 92 ) ( -91 -92 ) ( 102 103 ) ( -102 -103 ) ( 113 114 ) ( -113 -114 ) 
( 4 5 ) ( -4 -5 ) ( 15 16 ) ( -15 -16 ) ( 23 89 ) ( -23 -89 ) ( 24 90 ) ( -24 -90 ) ( 25 91 ) ( -25 -91 ) ( 26 93 ) ( -26 -93 ) ( 27 92 ) ( -27 -92 ) ( 28 94 ) ( -28 -94 ) ( 29 95 ) ( -29 -95 ) ( 30 96 ) ( -30 -96 ) ( 31 97 ) ( -31 -97 ) ( 32 98 ) ( -32 -98 ) ( 33 99 ) ( -33 -99 ) ( 37 38 ) ( -37 -38 ) ( 48 49 ) ( -48 -49 ) ( 59 60 ) ( -59 -60 ) ( 70 71 ) ( -70 -71 ) ( 81 82 ) ( -81 -82 ) ( 103 104 ) ( -103 -104 ) ( 114 115 ) ( -114 -115 ) ( 125 126 ) ( -125 -126 ) 
( 5 8 ) ( -5 -8 ) ( 16 19 ) ( -16 -19 ) ( 23 100 ) ( -23 -100 ) ( 24 101 ) ( -24 -101 ) ( 25 102 ) ( -25 -102 ) ( 26 103 ) ( -26 -103 ) ( 27 107 ) ( -27 -107 ) ( 28 105 ) ( -28 -105 ) ( 29 106 ) ( -29 -106 ) ( 30 104 ) ( -30 -104 ) ( 31 108 ) ( -31 -108 ) ( 32 109 ) ( -32 -109 ) ( 33 110 ) ( -33 -110 ) ( 38 41 ) ( -38 -41 ) ( 49 52 ) ( -49 -52 ) ( 60 63 ) ( -60 -63 ) ( 71 74 ) ( -71 -74 ) ( 82 85 ) ( -82 -85 ) ( 93 96 ) ( -93 -96 ) ( 115 118 ) ( -115 -118 ) ( 126 129 ) ( -126 -129 ) 
( 5 10 ) ( -5 -10 ) ( 16 21 ) ( -16 -21 ) ( 23 67 ) ( -23 -67 ) ( 24 68 ) ( -24 -68 ) ( 25 69 ) ( -25 -69 ) ( 26 70 ) ( -26 -70 ) ( 27 76 ) ( -27 -76 ) ( 28 72 ) ( -28 -72 ) ( 29 73 ) ( -29 -73 ) ( 30 74 ) ( -30 -74 ) ( 31 75 ) ( -31 -75 ) ( 32 71 ) ( -32 -71 ) ( 33 77 ) ( -33 -77 ) ( 38 43 ) ( -38 -43 ) ( 49 54 ) ( -49 -54 ) ( 60 65 ) ( -60 -65 ) ( 82 87 ) ( -82 -87 ) ( 93 98 ) ( -93 -98 ) ( 104 109 ) ( -104 -109 ) ( 115 120 ) ( -115 -120 ) ( 126 131 ) ( -126 -131 ) 
rows 12 columns 22
23 -23 24 -24 25 -25 26 -26 27 -27 28 -28 29 -29 30 -30 31 -31 32 -32 33 -33 
67 -67 68 -68 69 -69 70 -70 71 -71 72 -72 73 -73 74 -74 75 -75 76 -76 77 -77 
56 -56 57 -57 58 -58 59 -59 60 -60 61 -61 62 -62 63 -63 64 -64 65 -65 66 -66 
34 -34 35 -35 36 -36 37 -37 38 -38 39 -39 40 -40 41 -41 42 -42 43 -43 44 -44 
100 -100 101 -101 102 -102 103 -103 104 -104 105 -105 106 -106 107 -107 108 -108 109 -109 110 -110 
111 -111 112 -112 113 -113 114 -114 115 -115 116 -116 117 -117 118 -118 119 -119 120 -120 121 -121 
45 -45 46 -46 47 -47 48 -48 49 -49 50 -50 51 -51 52 -52 53 -53 54 -54 55 -55 
122 -122 123 -123 124 -124 125 -125 126 -126 127 -127 128 -128 129 -129 130 -130 131 -131 132 -132 
89 -89 90 -90 91 -91 92 -92 93 -93 94 -94 95 -95 96 -96 97 -97 98 -98 99 -99 
12 -12 13 -13 14 -14 15 -15 16 -16 17 -17 18 -18 19 -19 20 -20 21 -21 22 -22 
78 -78 79 -79 80 -80 81 -81 82 -82 83 -83 84 -84 85 -85 86 -86 87 -87 88 -88 
1 -1 2 -2 3 -3 4 -4 5 -5 6 -6 7 -7 8 -8 9 -9 10 -10 11 -11 
rows 11 columns 24
23 -23 67 -67 56 -56 34 -34 100 -100 111 -111 45 -45 122 -122 89 -89 12 -12 78 -78 1 -1 
24 -24 68 -68 57 -57 35 -35 101 -101 112 -112 46 -46 123 -123 90 -90 13 -13 79 -79 2 -2 
25 -25 69 -69 58 -58 36 -36 102 -102 113 -113 47 -47 124 -124 91 -91 14 -14 80 -80 3 -3 
26 -26 70 -70 59 -59 37 -37 103 -103 114 -114 48 -48 125 -125 92 -92 15 -15 81 -81 4 -4 
27 -27 71 -71 60 -60 38 -38 104 -104 115 -115 49 -49 126 -126 93 -93 16 -16 82 -82 5 -5 
28 -28 72 -72 61 -61 39 -39 105 -105 116 -116 50 -50 127 -127 94 -94 17 -17 83 -83 6 -6 
29 -29 73 -73 62 -62 40 -40 106 -106 117 -117 51 -51 128 -128 95 -95 18 -18 84 -84 7 -7 
30 -30 74 -74 63 -63 41 -41 107 -107 118 -118 52 -52 129 -129 96 -96 19 -19 85 -85 8 -8 
31 -31 75 -75 64 -64 42 -42 108 -108 119 -119 53 -53 130 -130 97 -97 20 -20 86 -86 9 -9 
32 -32 76 -76 65 -65 43 -43 109 -109 120 -120 54 -54 131 -131 98 -98 21 -21 87 -87 10 -10 
33 -33 77 -77 66 -66 44 -44 110 -110 121 -121 55 -55 132 -132 99 -99 22 -22 88 -88 11 -11 
