rows 10 columns 276
1 -1 11 -11 21 -21 31 -31 41 -41 51 -51 61 -61 71 -71 81 -81 91 -91 101 -101 111 -111 121 -121 131 -131 141 -141 151 -151 161 -161 171 -171 181 -181 191 -191 201 -201 211 -211 221 -221 231 -231 241 -241 251 -251 261 -261 271 -271 281 -281 291 -291 301 -301 311 -311 321 -321 331 -331 341 -341 351 -351 361 -361 371 -371 381 -381 391 -391 401 -401 411 -411 421 -421 431 -431 441 -441 451 -451 461 -461 471 -471 481 -481 491 -491 501 -501 511 -511 521 -521 531 -531 541 -541 551 -551 561 -561 571 -571 581 -581 591 -591 601 -601 611 -611 621 -621 631 -631 641 -641 651 -651 661 -661 671 -671 681 -681 691 -691 701 -701 711 -711 721 -721 731 -731 741 -741 751 -751 761 -761 771 -771 781 -781 791 -791 801 -801 811 -811 821 -821 831 -831 841 -841 851 -851 861 -861 871 -871 881 -881 891 -891 901 -901 911 -911 921 -921 931 -931 941 -941 951 -951 961 -961 971 -971 981 -981 991 -991 1001 -1001 1011 -1011 1021 -1021 1031 -1031 1041 -1041 1051 -1051 1061 -1061 1071 -1071 1081 -1081 1091 -1091 1101 -1101 1111 -1111 1121 -1121 1131 -1131 1141 -1141 1151 -1151 1161 -1161 1171 -1171 1181 -1181 1191 -1191 1201 -1201 1211 -1211 1221 -1221 1231 -1231 1241 -1241 1251 -1251 1261 -1261 1271 -1271 1281 -1281 1291 -1291 1301 -1301 1311 -1311 1321 -1321 1331 -1331 1341 -1341 1351 -1351 1361 -1361 1371 -1371 
2 -2 12 -12 22 -22 32 -32 42 -42 52 -52 62 -62 72 -72 82 -82 92 -92 102 -102 112 -112 122 -122 132 -132 142 -142 152 -152 162 -162 172 -172 182 -182 192 -192 202 -202 212 -212 222 -222 232 -232 242 -242 252 -252 262 -262 272 -272 282 -282 292 -292 302 -302 312 -312 322 -322 332 -332 342 -342 352 -352 362 -362 372 -372 382 -382 392 -392 402 -402 412 -412 422 -422 432 -432 442 -442 452 -452 462 -462 472 -472 482 -482 492 -492 502 -502 512 -512 522 -522 532 -532 542 -542 552 -552 562 -562 572 -572 582 -582 592 -592 602 -602 612 -612 622 -622 632 -632 642 -642 652 -652 662 -662 672 -672 682 -682 692 -692 702 -702 712 -712 722 -722 732 -732 742 -742 752 -752 762 -762 772 -772 782 -782 792 -792 802 -802 812 -812 822 -822 832 -832 842 -842 852 -852 862 -862 872 -872 882 -882 892 -892 902 -902 912 -912 922 -922 932 -932 942 -942 952 -952 962 -962 972 -972 982 -982 992 -992 1002 -1002 1012 -1012 1022 -1022 1032 -1032 1042 -1042 1052 -1052 1062 -1062 1072 -1072 1082 -1082 1092 -1092 1102 -1102 1112 -1112 1122 -1122 1132 -1132 1142 -1142 1152 -1152 1162 -1162 1172 -1172 1182 -1182 1192 -1192 1202 -1202 1212 -1212 1222 -1222 1232 -1232 1242 -1242 1252 -1252 1262 -1262 1272 -1272 1282 -1282 1292 -1292 1302 -1302 1312 -1312 1322 -1322 1332 -1332 1342 -1342 1352 -1352 1362 -1362 1372 -1372 
3 -3 13 -13 23 -23 33 -33 43 -43 53 -53 63 -63 73 -73 83 -83 93 -93 103 -103 113 -113 123 -123 133 -133 143 -143 153 -153 163 -163 173 -173 183 -183 193 -193 203 -203 213 -213 223 -223 233 -233 243 -243 253 -253 263 -263 273 -273 283 -283 293 -293 303 -303 313 -313 323 -323 333 -333 343 -343 353 -353 363 -363 373 -373 383 -383 393 -393 403 -403 413 -413 423 -423 433 -433 443 -443 453 -453 463 -463 473 -473 483 -483 493 -493 503 -503 513 -513 523 -523 533 -533 543 -543 553 -553 563 -563 573 -573 583 -583 593 -593 603 -603 613 -613 623 -623 633 -633 643 -643 653 -653 663 -663 673 -673 683 -683 693 -693 703 -703 713 -713 723 -723 733 -733 743 -743 753 -753 763 -763 773 -773 783 -783 793 -793 803 -803 813 -813 823 -823 833 -833 843 -843 853 -853 863 -863 873 -873 883 -883 893 -893 903 -903 913 -913 923 -923 933 -933 943 -943 953 -953 963 -963 973 -973 983 -983 993 -993 1003 -1003 1013 -1013 1023 -1023 1033 -1033 1043 -1043 1053 -1053 1063 -1063 1073 -1073 1083 -1083 1093 -1093 1103 -1103 1113 -1113 1123 -1123 1133 -1133 1143 -1143 1153 -1153 1163 -1163 1173 -1173 1183 -1183 1193 -1193 1203 -1203 1213 -1213 1223 -1223 1233 -1233 1243 -1243 1253 -1253 1263 -1263 1273 -1273 1283 -1283 1293 -1293 1303 -1303 1313 -1313 1323 -1323 1333 -1333 1343 -1343 1353 -1353 1363 -1363 1373 -1373 
4 -4 14 -14 24 -24 34 -34 44 -44 54 -54 64 -64 74 -74 84 -84 94 -94 104 -104 114 -114 124 -124 134 -134 144 -144 154 -154 164 -164 174 -174 184 -184 194 -194 204 -204 214 -214 224 -224 234 -234 244 -244 254 -254 264 -264 274 -274 284 -284 294 -294 304 -304 314 -314 324 -324 334 -334 344 -344 354 -354 364 -364 374 -374 384 -384 394 -394 404 -404 414 -414 424 -424 434 -434 444 -444 454 -454 464 -464 474 -474 484 -484 494 -494 504 -504 514 -514 524 -524 534 -534 544 -544 554 -554 564 -564 574 -574 584 -584 594 -594 604 -604 614 -614 624 -624 634 -634 644 -644 654 -654 664 -664 674 -674 684 -684 694 -694 704 -704 714 -714 724 -724 734 -734 744 -744 754 -754 764 -764 774 -774 784 -784 794 -794 804 -804 814 -814 824 -824 834 -834 844 -844 854 -854 864 -864 874 -874 884 -884 894 -894 904 -904 914 -914 924 -924 934 -934 944 -944 954 -954 964 -964 974 -974 984 -984 994 -994 1004 -1004 1014 -1014 1024 -1024 1034 -1034 1044 -1044 1054 -1054 1064 -1064 1074 -1074 1084 -1084 1094 -1094 1104 -1104 1114 -1114 1124 -1124 1134 -1134 1144 -1144 1154 -1154 1164 -1164 1174 -1174 1184 -1184 1194 -1194 1204 -1204 1214 -1214 1224 -1224 1234 -1234 1244 -1244 1254 -1254 1264 -1264 1274 -1274 1284 -1284 1294 -1294 1304 -1304 1314 -1314 1324 -1324 1334 -1334 1344 -1344 1354 -1354 1364 -1364 1374 -1374 
5 -5 15 -15 25 -25 35 -35 45 -45 55 -55 65 -65 75 -75 85 -85 95 -95 105 -105 115 -115 125 -125 135 -135 145 -145 155 -155 165 -165 175 -175 185 -185 195 -195 205 -205 215 -215 225 -225 235 -235 245 -245 255 -255 265 -265 275 -275 285 -285 295 -295 305 -305 315 -315 325 -325 335 -335 345 -345 355 -355 365 -365 375 -375 385 -385 395 -395 405 -405 415 -415 425 -425 435 -435 445 -445 455 -455 465 -465 475 -475 485 -485 495 -495 505 -505 515 -515 525 -525 535 -535 545 -545 555 -555 565 -565 575 -575 585 -585 595 -595 605 -605 615 -615 625 -625 635 -635 645 -645 655 -655 665 -665 675 -675 685 -685 695 -695 705 -705 715 -715 725 -725 735 -735 745 -745 755 -755 765 -765 775 -775 785 -785 795 -795 805 -805 815 -815 825 -825 835 -835 845 -845 855 -855 865 -865 875 -875 885 -885 895 -895 905 -905 915 -915 925 -925 935 -935 945 -945 955 -955 965 -965 975 -975 985 -985 995 -995 1005 -1005 1015 -1015 1025 -1025 1035 -1035 1045 -1045 1055 -1055 1065 -1065 1075 -1075 1085 -1085 1095 -1095 1105 -1105 1115 -1115 1125 -1125 1135 -1135 1145 -1145 1155 -1155 1165 -1165 1175 -1175 1185 -1185 1195 -1195 1205 -1205 1215 -1215 1225 -1225 1235 -1235 1245 -1245 1255 -1255 1265 -1265 1275 -1275 1285 -1285 1295 -1295 1305 -1305 1315 -1315 1325 -1325 1335 -1335 1345 -1345 1355 -1355 1365 -1365 1375 -1375 
6 -6 16 -16 26 -26 36 -36 46 -46 56 -56 66 -66 76 -76 86 -86 96 -96 106 -106 116 -116 126 -126 136 -136 146 -146 156 -156 166 -166 176 -176 186 -186 196 -196 206 -206 216 -216 226 -226 236 -236 246 -246 256 -256 266 -266 276 -276 286 -286 296 -296 306 -306 316 -316 326 -326 336 -336 346 -346 356 -356 366 -366 376 -376 386 -386 396 -396 406 -406 416 -416 426 -426 436 -436 446 -446 456 -456 466 -466 476 -476 486 -486 496 -496 506 -506 516 -516 526 -526 536 -536 546 -546 556 -556 566 -566 576 -576 586 -586 596 -596 606 -606 616 -616 626 -626 636 -636 646 -646 656 -656 666 -666 676 -676 686 -686 696 -696 706 -706 716 -716 726 -726 736 -736 746 -746 756 -756 766 -766 776 -776 786 -786 796 -796 806 -806 816 -816 826 -826 836 -836 846 -846 856 -856 866 -866 876 -876 886 -886 896 -896 906 -906 916 -916 926 -926 936 -936 946 -946 956 -956 966 -966 976 -976 986 -986 996 -996 1006 -1006 1016 -1016 1026 -1026 1036 -1036 1046 -1046 1056 -1056 1066 -1066 1076 -1076 1086 -1086 1096 -1096 1106 -1106 1116 -1116 1126 -1126 1136 -1136 1146 -1146 1156 -1156 1166 -1166 1176 -1176 1186 -1186 1196 -1196 1206 -1206 1216 -1216 1226 -1226 1236 -1236 1246 -1246 1256 -1256 1266 -1266 1276 -1276 1286 -1286 1296 -1296 1306 -1306 1316 -1316 1326 -1326 1336 -1336 1346 -1346 1356 -1356 1366 -1366 1376 -1376 
7 -7 17 -17 27 -27 37 -37 47 -47 57 -57 67 -67 77 -77 87 -87 97 -97 107 -107 117 -117 127 -127 137 -137 147 -147 157 -157 167 -167 177 -177 187 -187 197 -197 207 -207 217 -217 227 -227 237 -237 247 -247 257 -257 267 -267 277 -277 287 -287 297 -297 307 -307 317 -317 327 -327 337 -337 347 -347 357 -357 367 -367 377 -377 387 -387 397 -397 407 -407 417 -417 427 -427 437 -437 447 -447 457 -457 467 -467 477 -477 487 -487 497 -497 507 -507 517 -517 527 -527 537 -537 547 -547 557 -557 567 -567 577 -577 587 -587 597 -597 607 -607 617 -617 627 -627 637 -637 647 -647 657 -657 667 -667 677 -677 687 -687 697 -697 707 -707 717 -717 727 -727 737 -737 747 -747 757 -757 767 -767 777 -777 787 -787 797 -797 807 -807 817 -817 827 -827 837 -837 847 -847 857 -857 867 -867 877 -877 887 -887 897 -897 907 -907 917 -917 927 -927 937 -937 947 -947 957 -957 967 -967 977 -977 987 -987 997 -997 1007 -1007 1017 -1017 1027 -1027 1037 -1037 1047 -1047 1057 -1057 1067 -1067 1077 -1077 1087 -1087 1097 -1097 1107 -1107 1117 -1117 1127 -1127 1137 -1137 1147 -1147 1157 -1157 1167 -1167 1177 -1177 1187 -1187 1197 -1197 1207 -1207 1217 -1217 1227 -1227 1237 -1237 1247 -1247 1257 -1257 1267 -1267 1277 -1277 1287 -1287 1297 -1297 1307 -1307 1317 -1317 1327 -1327 1337 -1337 1347 -1347 1357 -1357 1367 -1367 1377 -1377 
8 -8 18 -18 28 -28 38 -38 48 -48 58 -58 68 -68 78 -78 88 -88 98 -98 108 -108 118 -118 128 -128 138 -138 148 -148 158 -158 168 -168 178 -178 188 -188 198 -198 208 -208 218 -218 228 -228 238 -238 248 -248 258 -258 268 -268 278 -278 288 -288 298 -298 308 -308 318 -318 328 -328 338 -338 348 -348 358 -358 368 -368 378 -378 388 -388 398 -398 408 -408 418 -418 428 -428 438 -438 448 -448 458 -458 468 -468 478 -478 488 -488 498 -498 508 -508 518 -518 528 -528 538 -538 548 -548 558 -558 568 -568 578 -578 588 -588 598 -598 608 -608 618 -618 628 -628 638 -638 648 -648 658 -658 668 -668 678 -678 688 -688 698 -698 708 -708 718 -718 728 -728 738 -738 748 -748 758 -758 768 -768 778 -778 788 -788 798 -798 808 -808 818 -818 828 -828 838 -838 848 -848 858 -858 868 -868 878 -878 888 -888 898 -898 908 -908 918 -918 928 -928 938 -938 948 -948 958 -958 968 -968 978 -978 988 -988 998 -998 1008 -1008 1018 -1018 1028 -1028 1038 -1038 1048 -1048 1058 -1058 1068 -1068 1078 -1078 1088 -1088 1098 -1098 1108 -1108 1118 -1118 1128 -1128 1138 -1138 1148 -1148 1158 -1158 1168 -1168 1178 -1178 1188 -1188 1198 -1198 1208 -1208 1218 -1218 1228 -1228 1238 -1238 1248 -1248 1258 -1258 1268 -1268 1278 -1278 1288 -1288 1298 -1298 1308 -1308 1318 -1318 1328 -1328 1338 -1338 1348 -1348 1358 -1358 1368 -1368 1378 -1378 
9 -9 19 -19 29 -29 39 -39 49 -49 59 -59 69 -69 79 -79 89 -89 99 -99 109 -109 119 -119 129 -129 139 -139 149 -149 159 -159 169 -169 179 -179 189 -189 199 -199 209 -209 219 -219 229 -229 239 -239 249 -249 259 -259 269 -269 279 -279 289 -289 299 -299 309 -309 319 -319 329 -329 339 -339 349 -349 359 -359 369 -369 379 -379 389 -389 399 -399 409 -409 419 -419 429 -429 439 -439 449 -449 459 -459 469 -469 479 -479 489 -489 499 -499 509 -509 519 -519 529 -529 539 -539 549 -549 559 -559 569 -569 579 -579 589 -589 599 -599 609 -609 619 -619 629 -629 639 -639 649 -649 659 -659 669 -669 679 -679 689 -689 699 -699 709 -709 719 -719 729 -729 739 -739 749 -749 759 -759 769 -769 779 -779 789 -789 799 -799 809 -809 819 -819 829 -829 839 -839 849 -849 859 -859 869 -869 879 -879 889 -889 899 -899 909 -909 919 -919 929 -929 939 -939 949 -949 959 -959 969 -969 979 -979 989 -989 999 -999 1009 -1009 1019 -1019 1029 -1029 1039 -1039 1049 -1049 1059 -1059 1069 -1069 1079 -1079 1089 -1089 1099 -1099 1109 -1109 1119 -1119 1129 -1129 1139 -1139 1149 -1149 1159 -1159 1169 -1169 1179 -1179 1189 -1189 1199 -1199 1209 -1209 1219 -1219 1229 -1229 1239 -1239 1249 -1249 1259 -1259 1269 -1269 1279 -1279 1289 -1289 1299 -1299 1309 -1309 1319 -1319 1329 -1329 1339 -1339 1349 -1349 1359 -1359 1369 -1369 1379 -1379 
10 -10 20 -20 30 -30 40 -40 50 -50 60 -60 70 -70 80 -80 90 -90 100 -100 110 -110 120 -120 130 -130 140 -140 150 -150 160 -160 170 -170 180 -180 190 -190 200 -200 210 -210 220 -220 230 -230 240 -240 250 -250 260 -260 270 -270 280 -280 290 -290 300 -300 310 -310 320 -320 330 -330 340 -340 350 -350 360 -360 370 -370 380 -380 390 -390 400 -400 410 -410 420 -420 430 -430 440 -440 450 -450 460 -460 470 -470 480 -480 490 -490 500 -500 510 -510 520 -520 530 -530 540 -540 550 -550 560 -560 570 -570 580 -580 590 -590 600 -600 610 -610 620 -620 630 -630 640 -640 650 -650 660 -660 670 -670 680 -680 690 -690 700 -700 710 -710 720 -720 730 -730 740 -740 750 -750 760 -760 770 -770 780 -780 790 -790 800 -800 810 -810 820 -820 830 -830 840 -840 850 -850 860 -860 870 -870 880 -880 890 -890 900 -900 910 -910 920 -920 930 -930 940 -940 950 -950 960 -960 970 -970 980 -980 990 -990 1000 -1000 1010 -1010 1020 -1020 1030 -1030 1040 -1040 1050 -1050 1060 -1060 1070 -1070 1080 -1080 1090 -1090 1100 -1100 1110 -1110 1120 -1120 1130 -1130 1140 -1140 1150 -1150 1160 -1160 1170 -1170 1180 -1180 1190 -1190 1200 -1200 1210 -1210 1220 -1220 1230 -1230 1240 -1240 1250 -1250 1260 -1260 1270 -1270 1280 -1280 1290 -1290 1300 -1300 1310 -1310 1320 -1320 1330 -1330 1340 -1340 1350 -1350 1360 -1360 1370 -1370 1380 -1380 
