rows 72 columns 256
1 -1 73 -73 145 -145 217 -217 289 -289 361 -361 433 -433 505 -505 577 -577 649 -649 721 -721 793 -793 865 -865 937 -937 1009 -1009 1081 -1081 1153 -1153 1225 -1225 1297 -1297 1369 -1369 1441 -1441 1513 -1513 1585 -1585 1657 -1657 1729 -1729 1801 -1801 1873 -1873 1945 -1945 2017 -2017 2089 -2089 2161 -2161 2233 -2233 2305 -2305 2377 -2377 2449 -2449 2521 -2521 2593 -2593 2665 -2665 2737 -2737 2809 -2809 2881 -2881 2953 -2953 3025 -3025 3097 -3097 3169 -3169 3241 -3241 3313 -3313 3385 -3385 3457 -3457 3529 -3529 3601 -3601 3673 -3673 3745 -3745 3817 -3817 3889 -3889 3961 -3961 4033 -4033 4105 -4105 4177 -4177 4249 -4249 4321 -4321 4393 -4393 4465 -4465 4537 -4537 4609 -4609 4681 -4681 4753 -4753 4825 -4825 4897 -4897 4969 -4969 5041 -5041 5113 -5113 5185 -5185 5257 -5257 5329 -5329 5401 -5401 5473 -5473 5545 -5545 5617 -5617 5689 -5689 5761 -5761 5833 -5833 5905 -5905 5977 -5977 6049 -6049 6121 -6121 6193 -6193 6265 -6265 6337 -6337 6409 -6409 6481 -6481 6553 -6553 6625 -6625 6697 -6697 6769 -6769 6841 -6841 6913 -6913 6985 -6985 7057 -7057 7129 -7129 7201 -7201 7273 -7273 7345 -7345 7417 -7417 7489 -7489 7561 -7561 7633 -7633 7705 -7705 7777 -7777 7849 -7849 7921 -7921 7993 -7993 8065 -8065 8137 -8137 8209 -8209 8281 -8281 8353 -8353 8425 -8425 8497 -8497 8569 -8569 8641 -8641 8713 -8713 8785 -8785 8857 -8857 8929 -8929 9001 -9001 9073 -9073 9145 -9145 
2 -2 74 -74 146 -146 218 -218 290 -290 362 -362 434 -434 506 -506 578 -578 650 -650 722 -722 794 -794 866 -866 938 -938 1010 -1010 1082 -1082 1154 -1154 1226 -1226 1298 -1298 1370 -1370 1442 -1442 1514 -1514 1586 -1586 1658 -1658 1730 -1730 1802 -1802 1874 -1874 1946 -1946 2018 -2018 2090 -2090 2162 -2162 2234 -2234 2306 -2306 2378 -2378 2450 -2450 2522 -2522 2594 -2594 2666 -2666 2738 -2738 2810 -2810 2882 -2882 2954 -2954 3026 -3026 3098 -3098 3170 -3170 3242 -3242 3314 -3314 3386 -3386 3458 -3458 3530 -3530 3602 -3602 3674 -3674 3746 -3746 3818 -3818 3890 -3890 3962 -3962 4034 -4034 4106 -4106 4178 -4178 4250 -4250 4322 -4322 4394 -4394 4466 -4466 4538 -4538 4610 -4610 4682 -4682 4754 -4754 4826 -4826 4898 -4898 4970 -4970 5042 -5042 5114 -5114 5186 -5186 5258 -5258 5330 -5330 5402 -5402 5474 -5474 5546 -5546 5618 -5618 5690 -5690 5762 -5762 5834 -5834 5906 -5906 5978 -5978 6050 -6050 6122 -6122 6194 -6194 6266 -6266 6338 -6338 6410 -6410 6482 -6482 6554 -6554 6626 -6626 6698 -6698 6770 -6770 6842 -6842 6914 -6914 6986 -6986 7058 -7058 7130 -7130 7202 -7202 7274 -7274 7346 -7346 7418 -7418 7490 -7490 7562 -7562 7634 -7634 7706 -7706 7778 -7778 7850 -7850 7922 -7922 7994 -7994 8066 -8066 8138 -8138 8210 -8210 8282 -8282 8354 -8354 8426 -8426 8498 -8498 8570 -8570 8642 -8642 8714 -8714 8786 -8786 8858 -8858 8930 -8930 9002 -9002 9074 -9074 9146 -9146 
3 -3 75 -75 147 -147 219 -219 291 -291 363 -363 435 -435 507 -507 579 -579 651 -651 723 -723 795 -795 867 -867 939 -939 1011 -1011 1083 -1083 1155 -1155 1227 -1227 1299 -1299 1371 -1371 1443 -1443 1515 -1515 1587 -1587 1659 -1659 1731 -1731 1803 -1803 1875 -1875 1947 -1947 2019 -2019 2091 -2091 2163 -2163 2235 -2235 2307 -2307 2379 -2379 2451 -2451 2523 -2523 2595 -2595 2667 -2667 2739 -2739 2811 -2811 2883 -2883 2955 -2955 3027 -3027 3099 -3099 3171 -3171 3243 -3243 3315 -3315 3387 -3387 3459 -3459 3531 -3531 3603 -3603 3675 -3675 3747 -3747 3819 -3819 3891 -3891 3963 -3963 4035 -4035 4107 -4107 4179 -4179 4251 -4251 4323 -4323 4395 -4395 4467 -4467 4539 -4539 4611 -4611 4683 -4683 4755 -4755 4827 -4827 4899 -4899 4971 -4971 5043 -5043 5115 -5115 5187 -5187 5259 -5259 5331 -5331 5403 -5403 5475 -5475 5547 -5547 5619 -5619 5691 -5691 5763 -5763 5835 -5835 5907 -5907 5979 -5979 6051 -6051 6123 -6123 6195 -6195 6267 -6267 6339 -6339 6411 -6411 6483 -6483 6555 -6555 6627 -6627 6699 -6699 6771 -6771 6843 -6843 6915 -6915 6987 -6987 7059 -7059 7131 -7131 7203 -7203 7275 -7275 7347 -7347 7419 -7419 7491 -7491 7563 -7563 7635 -7635 7707 -7707 7779 -7779 7851 -7851 7923 -7923 7995 -7995 8067 -8067 8139 -8139 8211 -8211 8283 -8283 8355 -8355 8427 -8427 8499 -8499 8571 -8571 8643 -8643 8715 -8715 8787 -8787 8859 -8859 8931 -8931 9003 -9003 9075 -9075 9147 -9147 
4 -4 76 -76 148 -148 220 -220 292 -292 364 -364 436 -436 508 -508 580 -580 652 -652 724 -724 796 -796 868 -868 940 -940 1012 -1012 1084 -1084 1156 -1156 1228 -1228 1300 -1300 1372 -1372 1444 -1444 1516 -1516 1588 -1588 1660 -1660 1732 -1732 1804 -1804 1876 -1876 1948 -1948 2020 -2020 2092 -2092 2164 -2164 2236 -2236 2308 -2308 2380 -2380 2452 -2452 2524 -2524 2596 -2596 2668 -2668 2740 -2740 2812 -2812 2884 -2884 2956 -2956 3028 -3028 3100 -3100 3172 -3172 3244 -3244 3316 -3316 3388 -3388 3460 -3460 3532 -3532 3604 -3604 3676 -3676 3748 -3748 3820 -3820 3892 -3892 3964 -3964 4036 -4036 4108 -4108 4180 -4180 4252 -4252 4324 -4324 4396 -4396 4468 -4468 4540 -4540 4612 -4612 4684 -4684 4756 -4756 4828 -4828 4900 -4900 4972 -4972 5044 -5044 5116 -5116 5188 -5188 5260 -5260 5332 -5332 5404 -5404 5476 -5476 5548 -5548 5620 -5620 5692 -5692 5764 -5764 5836 -5836 5908 -5908 5980 -5980 6052 -6052 6124 -6124 6196 -6196 6268 -6268 6340 -6340 6412 -6412 6484 -6484 6556 -6556 6628 -6628 6700 -6700 6772 -6772 6844 -6844 6916 -6916 6988 -6988 7060 -7060 7132 -7132 7204 -7204 7276 -7276 7348 -7348 7420 -7420 7492 -7492 7564 -7564 7636 -7636 7708 -7708 7780 -7780 7852 -7852 7924 -7924 7996 -7996 8068 -8068 8140 -8140 8212 -8212 8284 -8284 8356 -8356 8428 -8428 8500 -8500 8572 -8572 8644 -8644 8716 -8716 8788 -8788 8860 -8860 8932 -8932 9004 -9004 9076 -9076 9148 -9148 
5 -5 77 -77 149 -149 221 -221 293 -293 365 -365 437 -437 509 -509 581 -581 653 -653 725 -725 797 -797 869 -869 941 -941 1013 -1013 1085 -1085 1157 -1157 1229 -1229 1301 -1301 1373 -1373 1445 -1445 1517 -1517 1589 -1589 1661 -1661 1733 -1733 1805 -1805 1877 -1877 1949 -1949 2021 -2021 2093 -2093 2165 -2165 2237 -2237 2309 -2309 2381 -2381 2453 -2453 2525 -2525 2597 -2597 2669 -2669 2741 -2741 2813 -2813 2885 -2885 2957 -2957 3029 -3029 3101 -3101 3173 -3173 3245 -3245 3317 -3317 3389 -3389 3461 -3461 3533 -3533 3605 -3605 3677 -3677 3749 -3749 3821 -3821 3893 -3893 3965 -3965 4037 -4037 4109 -4109 4181 -4181 4253 -4253 4325 -4325 4397 -4397 4469 -4469 4541 -4541 4613 -4613 4685 -4685 4757 -4757 4829 -4829 4901 -4901 4973 -4973 5045 -5045 5117 -5117 5189 -5189 5261 -5261 5333 -5333 5405 -5405 5477 -5477 5549 -5549 5621 -5621 5693 -5693 5765 -5765 5837 -5837 5909 -5909 5981 -5981 6053 -6053 6125 -6125 6197 -6197 6269 -6269 6341 -6341 6413 -6413 6485 -6485 6557 -6557 6629 -6629 6701 -6701 6773 -6773 6845 -6845 6917 -6917 6989 -6989 7061 -7061 7133 -7133 7205 -7205 7277 -7277 7349 -7349 7421 -7421 7493 -7493 7565 -7565 7637 -7637 7709 -7709 7781 -7781 7853 -7853 7925 -7925 7997 -7997 8069 -8069 8141 -8141 8213 -8213 8285 -8285 8357 -8357 8429 -8429 8501 -8501 8573 -8573 8645 -8645 8717 -8717 8789 -8789 8861 -8861 8933 -8933 9005 -9005 9077 -9077 9149 -9149 
6 -6 78 -78 150 -150 222 -222 294 -294 366 -366 438 -438 510 -510 582 -582 654 -654 726 -726 798 -798 870 -870 942 -942 1014 -1014 1086 -1086 1158 -1158 1230 -1230 1302 -1302 1374 -1374 1446 -1446 1518 -1518 1590 -1590 1662 -1662 1734 -1734 1806 -1806 1878 -1878 1950 -1950 2022 -2022 2094 -2094 2166 -2166 2238 -2238 2310 -2310 2382 -2382 2454 -2454 2526 -2526 2598 -2598 2670 -2670 2742 -2742 2814 -2814 2886 -2886 2958 -2958 3030 -3030 3102 -3102 3174 -3174 3246 -3246 3318 -3318 3390 -3390 3462 -3462 3534 -3534 3606 -3606 3678 -3678 3750 -3750 3822 -3822 3894 -3894 3966 -3966 4038 -4038 4110 -4110 4182 -4182 4254 -4254 4326 -4326 4398 -4398 4470 -4470 4542 -4542 4614 -4614 4686 -4686 4758 -4758 4830 -4830 4902 -4902 4974 -4974 5046 -5046 5118 -5118 5190 -5190 5262 -5262 5334 -5334 5406 -5406 5478 -5478 5550 -5550 5622 -5622 5694 -5694 5766 -5766 5838 -5838 5910 -5910 5982 -5982 6054 -6054 6126 -6126 6198 -6198 6270 -6270 6342 -6342 6414 -6414 6486 -6486 6558 -6558 6630 -6630 6702 -6702 6774 -6774 6846 -6846 6918 -6918 6990 -6990 7062 -7062 7134 -7134 7206 -7206 7278 -7278 7350 -7350 7422 -7422 7494 -7494 7566 -7566 7638 -7638 7710 -7710 7782 -7782 7854 -7854 7926 -7926 7998 -7998 8070 -8070 8142 -8142 8214 -8214 8286 -8286 8358 -8358 8430 -8430 8502 -8502 8574 -8574 8646 -8646 8718 -8718 8790 -8790 8862 -8862 8934 -8934 9006 -9006 9078 -9078 9150 -9150 
7 -7 79 -79 151 -151 223 -223 295 -295 367 -367 439 -439 511 -511 583 -583 655 -655 727 -727 799 -799 871 -871 943 -943 1015 -1015 1087 -1087 1159 -1159 1231 -1231 1303 -1303 1375 -1375 1447 -1447 1519 -1519 1591 -1591 1663 -1663 1735 -1735 1807 -1807 1879 -1879 1951 -1951 2023 -2023 2095 -2095 2167 -2167 2239 -2239 2311 -2311 2383 -2383 2455 -2455 2527 -2527 2599 -2599 2671 -2671 2743 -2743 2815 -2815 2887 -2887 2959 -2959 3031 -3031 3103 -3103 3175 -3175 3247 -3247 3319 -3319 3391 -3391 3463 -3463 3535 -3535 3607 -3607 3679 -3679 3751 -3751 3823 -3823 3895 -3895 3967 -3967 4039 -4039 4111 -4111 4183 -4183 4255 -4255 4327 -4327 4399 -4399 4471 -4471 4543 -4543 4615 -4615 4687 -4687 4759 -4759 4831 -4831 4903 -4903 4975 -4975 5047 -5047 5119 -5119 5191 -5191 5263 -5263 5335 -5335 5407 -5407 5479 -5479 5551 -5551 5623 -5623 5695 -5695 5767 -5767 5839 -5839 5911 -5911 5983 -5983 6055 -6055 6127 -6127 6199 -6199 6271 -6271 6343 -6343 6415 -6415 6487 -6487 6559 -6559 6631 -6631 6703 -6703 6775 -6775 6847 -6847 6919 -6919 6991 -6991 7063 -7063 7135 -7135 7207 -7207 7279 -7279 7351 -7351 7423 -7423 7495 -7495 7567 -7567 7639 -7639 7711 -7711 7783 -7783 7855 -7855 7927 -7927 7999 -7999 8071 -8071 8143 -8143 8215 -8215 8287 -8287 8359 -8359 8431 -8431 8503 -8503 8575 -8575 8647 -8647 8719 -8719 8791 -8791 8863 -8863 8935 -8935 9007 -9007 9079 -9079 9151 -9151 
8 -8 80 -80 152 -152 224 -224 296 -296 368 -368 440 -440 512 -512 584 -584 656 -656 728 -728 800 -800 872 -872 944 -944 1016 -1016 1088 -1088 1160 -1160 1232 -1232 1304 -1304 1376 -1376 1448 -1448 1520 -1520 1592 -1592 1664 -1664 1736 -1736 1808 -1808 1880 -1880 1952 -1952 2024 -2024 2096 -2096 2168 -2168 2240 -2240 2312 -2312 2384 -2384 2456 -2456 2528 -2528 2600 -2600 2672 -2672 2744 -2744 2816 -2816 2888 -2888 2960 -2960 3032 -3032 3104 -3104 3176 -3176 3248 -3248 3320 -3320 3392 -3392 3464 -3464 3536 -3536 3608 -3608 3680 -3680 3752 -3752 3824 -3824 3896 -3896 3968 -3968 4040 -4040 4112 -4112 4184 -4184 4256 -4256 4328 -4328 4400 -4400 4472 -4472 4544 -4544 4616 -4616 4688 -4688 4760 -4760 4832 -4832 4904 -4904 4976 -4976 5048 -5048 5120 -5120 5192 -5192 5264 -5264 5336 -5336 5408 -5408 5480 -5480 5552 -5552 5624 -5624 5696 -5696 5768 -5768 5840 -5840 5912 -5912 5984 -5984 6056 -6056 6128 -6128 6200 -6200 6272 -6272 6344 -6344 6416 -6416 6488 -6488 6560 -6560 6632 -6632 6704 -6704 6776 -6776 6848 -6848 6920 -6920 6992 -6992 7064 -7064 7136 -7136 7208 -7208 7280 -7280 7352 -7352 7424 -7424 7496 -7496 7568 -7568 7640 -7640 7712 -7712 7784 -7784 7856 -7856 7928 -7928 8000 -8000 8072 -8072 8144 -8144 8216 -8216 8288 -8288 8360 -8360 8432 -8432 8504 -8504 8576 -8576 8648 -8648 8720 -8720 8792 -8792 8864 -8864 8936 -8936 9008 -9008 9080 -9080 9152 -9152 
9 -9 81 -81 153 -153 225 -225 297 -297 369 -369 441 -441 513 -513 585 -585 657 -657 729 -729 801 -801 873 -873 945 -945 1017 -1017 1089 -1089 1161 -1161 1233 -1233 1305 -1305 1377 -1377 1449 -1449 1521 -1521 1593 -1593 1665 -1665 1737 -1737 1809 -1809 1881 -1881 1953 -1953 2025 -2025 2097 -2097 2169 -2169 2241 -2241 2313 -2313 2385 -2385 2457 -2457 2529 -2529 2601 -2601 2673 -2673 2745 -2745 2817 -2817 2889 -2889 2961 -2961 3033 -3033 3105 -3105 3177 -3177 3249 -3249 3321 -3321 3393 -3393 3465 -3465 3537 -3537 3609 -3609 3681 -3681 3753 -3753 3825 -3825 3897 -3897 3969 -3969 4041 -4041 4113 -4113 4185 -4185 4257 -4257 4329 -4329 4401 -4401 4473 -4473 4545 -4545 4617 -4617 4689 -4689 4761 -4761 4833 -4833 4905 -4905 4977 -4977 5049 -5049 5121 -5121 5193 -5193 5265 -5265 5337 -5337 5409 -5409 5481 -5481 5553 -5553 5625 -5625 5697 -5697 5769 -5769 5841 -5841 5913 -5913 5985 -5985 6057 -6057 6129 -6129 6201 -6201 6273 -6273 6345 -6345 6417 -6417 6489 -6489 6561 -6561 6633 -6633 6705 -6705 6777 -6777 6849 -6849 6921 -6921 6993 -6993 7065 -7065 7137 -7137 7209 -7209 7281 -7281 7353 -7353 7425 -7425 7497 -7497 7569 -7569 7641 -7641 7713 -7713 7785 -7785 7857 -7857 7929 -7929 8001 -8001 8073 -8073 8145 -8145 8217 -8217 8289 -8289 8361 -8361 8433 -8433 8505 -8505 8577 -8577 8649 -8649 8721 -8721 8793 -8793 8865 -8865 8937 -8937 9009 -9009 9081 -9081 9153 -9153 
10 -10 82 -82 154 -154 226 -226 298 -298 370 -370 442 -442 514 -514 586 -586 658 -658 730 -730 802 -802 874 -874 946 -946 1018 -1018 1090 -1090 1162 -1162 1234 -1234 1306 -1306 1378 -1378 1450 -1450 1522 -1522 1594 -1594 1666 -1666 1738 -1738 1810 -1810 1882 -1882 1954 -1954 2026 -2026 2098 -2098 2170 -2170 2242 -2242 2314 -2314 2386 -2386 2458 -2458 2530 -2530 2602 -2602 2674 -2674 2746 -2746 2818 -2818 2890 -2890 2962 -2962 3034 -3034 3106 -3106 3178 -3178 3250 -3250 3322 -3322 3394 -3394 3466 -3466 3538 -3538 3610 -3610 3682 -3682 3754 -3754 3826 -3826 3898 -3898 3970 -3970 4042 -4042 4114 -4114 4186 -4186 4258 -4258 4330 -4330 4402 -4402 4474 -4474 4546 -4546 4618 -4618 4690 -4690 4762 -4762 4834 -4834 4906 -4906 4978 -4978 5050 -5050 5122 -5122 5194 -5194 5266 -5266 5338 -5338 5410 -5410 5482 -5482 5554 -5554 5626 -5626 5698 -5698 5770 -5770 5842 -5842 5914 -5914 5986 -5986 6058 -6058 6130 -6130 6202 -6202 6274 -6274 6346 -6346 6418 -6418 6490 -6490 6562 -6562 6634 -6634 6706 -6706 6778 -6778 6850 -6850 6922 -6922 6994 -6994 7066 -7066 7138 -7138 7210 -7210 7282 -7282 7354 -7354 7426 -7426 7498 -7498 7570 -7570 7642 -7642 7714 -7714 7786 -7786 7858 -7858 7930 -7930 8002 -8002 8074 -8074 8146 -8146 8218 -8218 8290 -8290 8362 -8362 8434 -8434 8506 -8506 8578 -8578 8650 -8650 8722 -8722 8794 -8794 8866 -8866 8938 -8938 9010 -9010 9082 -9082 9154 -9154 
11 -11 83 -83 155 -155 227 -227 299 -299 371 -371 443 -443 515 -515 587 -587 659 -659 731 -731 803 -803 875 -875 947 -947 1019 -1019 1091 -1091 1163 -1163 1235 -1235 1307 -1307 1379 -1379 1451 -1451 1523 -1523 1595 -1595 1667 -1667 1739 -1739 1811 -1811 1883 -1883 1955 -1955 2027 -2027 2099 -2099 2171 -2171 2243 -2243 2315 -2315 2387 -2387 2459 -2459 2531 -2531 2603 -2603 2675 -2675 2747 -2747 2819 -2819 2891 -2891 2963 -2963 3035 -3035 3107 -3107 3179 -3179 3251 -3251 3323 -3323 3395 -3395 3467 -3467 3539 -3539 3611 -3611 3683 -3683 3755 -3755 3827 -3827 3899 -3899 3971 -3971 4043 -4043 4115 -4115 4187 -4187 4259 -4259 4331 -4331 4403 -4403 4475 -4475 4547 -4547 4619 -4619 4691 -4691 4763 -4763 4835 -4835 4907 -4907 4979 -4979 5051 -5051 5123 -5123 5195 -5195 5267 -5267 5339 -5339 5411 -5411 5483 -5483 5555 -5555 5627 -5627 5699 -5699 5771 -5771 5843 -5843 5915 -5915 5987 -5987 6059 -6059 6131 -6131 6203 -6203 6275 -6275 6347 -6347 6419 -6419 6491 -6491 6563 -6563 6635 -6635 6707 -6707 6779 -6779 6851 -6851 6923 -6923 6995 -6995 7067 -7067 7139 -7139 7211 -7211 7283 -7283 7355 -7355 7427 -7427 7499 -7499 7571 -7571 7643 -7643 7715 -7715 7787 -7787 7859 -7859 7931 -7931 8003 -8003 8075 -8075 8147 -8147 8219 -8219 8291 -8291 8363 -8363 8435 -8435 8507 -8507 8579 -8579 8651 -8651 8723 -8723 8795 -8795 8867 -8867 8939 -8939 9011 -9011 9083 -9083 9155 -9155 
12 -12 84 -84 156 -156 228 -228 300 -300 372 -372 444 -444 516 -516 588 -588 660 -660 732 -732 804 -804 876 -876 948 -948 1020 -1020 1092 -1092 1164 -1164 1236 -1236 1308 -1308 1380 -1380 1452 -1452 1524 -1524 1596 -1596 1668 -1668 1740 -1740 1812 -1812 1884 -1884 1956 -1956 2028 -2028 2100 -2100 2172 -2172 2244 -2244 2316 -2316 2388 -2388 2460 -2460 2532 -2532 2604 -2604 2676 -2676 2748 -2748 2820 -2820 2892 -2892 2964 -2964 3036 -3036 3108 -3108 3180 -3180 3252 -3252 3324 -3324 3396 -3396 3468 -3468 3540 -3540 3612 -3612 3684 -3684 3756 -3756 3828 -3828 3900 -3900 3972 -3972 4044 -4044 4116 -4116 4188 -4188 4260 -4260 4332 -4332 4404 -4404 4476 -4476 4548 -4548 4620 -4620 4692 -4692 4764 -4764 4836 -4836 4908 -4908 4980 -4980 5052 -5052 5124 -5124 5196 -5196 5268 -5268 5340 -5340 5412 -5412 5484 -5484 5556 -5556 5628 -5628 5700 -5700 5772 -5772 5844 -5844 5916 -5916 5988 -5988 6060 -6060 6132 -6132 6204 -6204 6276 -6276 6348 -6348 6420 -6420 6492 -6492 6564 -6564 6636 -6636 6708 -6708 6780 -6780 6852 -6852 6924 -6924 6996 -6996 7068 -7068 7140 -7140 7212 -7212 7284 -7284 7356 -7356 7428 -7428 7500 -7500 7572 -7572 7644 -7644 7716 -7716 7788 -7788 7860 -7860 7932 -7932 8004 -8004 8076 -8076 8148 -8148 8220 -8220 8292 -8292 8364 -8364 8436 -8436 8508 -8508 8580 -8580 8652 -8652 8724 -8724 8796 -8796 8868 -8868 8940 -8940 9012 -9012 9084 -9084 9156 -9156 
13 -13 85 -85 157 -157 229 -229 301 -301 373 -373 445 -445 517 -517 589 -589 661 -661 733 -733 805 -805 877 -877 949 -949 1021 -1021 1093 -1093 1165 -1165 1237 -1237 1309 -1309 1381 -1381 1453 -1453 1525 -1525 1597 -1597 1669 -1669 1741 -1741 1813 -1813 1885 -1885 1957 -1957 2029 -2029 2101 -2101 2173 -2173 2245 -2245 2317 -2317 2389 -2389 2461 -2461 2533 -2533 2605 -2605 2677 -2677 2749 -2749 2821 -2821 2893 -2893 2965 -2965 3037 -3037 3109 -3109 3181 -3181 3253 -3253 3325 -3325 3397 -3397 3469 -3469 3541 -3541 3613 -3613 3685 -3685 3757 -3757 3829 -3829 3901 -3901 3973 -3973 4045 -4045 4117 -4117 4189 -4189 4261 -4261 4333 -4333 4405 -4405 4477 -4477 4549 -4549 4621 -4621 4693 -4693 4765 -4765 4837 -4837 4909 -4909 4981 -4981 5053 -5053 5125 -5125 5197 -5197 5269 -5269 5341 -5341 5413 -5413 5485 -5485 5557 -5557 5629 -5629 5701 -5701 5773 -5773 5845 -5845 5917 -5917 5989 -5989 6061 -6061 6133 -6133 6205 -6205 6277 -6277 6349 -6349 6421 -6421 6493 -6493 6565 -6565 6637 -6637 6709 -6709 6781 -6781 6853 -6853 6925 -6925 6997 -6997 7069 -7069 7141 -7141 7213 -7213 7285 -7285 7357 -7357 7429 -7429 7501 -7501 7573 -7573 7645 -7645 7717 -7717 7789 -7789 7861 -7861 7933 -7933 8005 -8005 8077 -8077 8149 -8149 8221 -8221 8293 -8293 8365 -8365 8437 -8437 8509 -8509 8581 -8581 8653 -8653 8725 -8725 8797 -8797 8869 -8869 8941 -8941 9013 -9013 9085 -9085 9157 -9157 
14 -14 86 -86 158 -158 230 -230 302 -302 374 -374 446 -446 518 -518 590 -590 662 -662 734 -734 806 -806 878 -878 950 -950 1022 -1022 1094 -1094 1166 -1166 1238 -1238 1310 -1310 1382 -1382 1454 -1454 1526 -1526 1598 -1598 1670 -1670 1742 -1742 1814 -1814 1886 -1886 1958 -1958 2030 -2030 2102 -2102 2174 -2174 2246 -2246 2318 -2318 2390 -2390 2462 -2462 2534 -2534 2606 -2606 2678 -2678 2750 -2750 2822 -2822 2894 -2894 2966 -2966 3038 -3038 3110 -3110 3182 -3182 3254 -3254 3326 -3326 3398 -3398 3470 -3470 3542 -3542 3614 -3614 3686 -3686 3758 -3758 3830 -3830 3902 -3902 3974 -3974 4046 -4046 4118 -4118 4190 -4190 4262 -4262 4334 -4334 4406 -4406 4478 -4478 4550 -4550 4622 -4622 4694 -4694 4766 -4766 4838 -4838 4910 -4910 4982 -4982 5054 -5054 5126 -5126 5198 -5198 5270 -5270 5342 -5342 5414 -5414 5486 -5486 5558 -5558 5630 -5630 5702 -5702 5774 -5774 5846 -5846 5918 -5918 5990 -5990 6062 -6062 6134 -6134 6206 -6206 6278 -6278 6350 -6350 6422 -6422 6494 -6494 6566 -6566 6638 -6638 6710 -6710 6782 -6782 6854 -6854 6926 -6926 6998 -6998 7070 -7070 7142 -7142 7214 -7214 7286 -7286 7358 -7358 7430 -7430 7502 -7502 7574 -7574 7646 -7646 7718 -7718 7790 -7790 7862 -7862 7934 -7934 8006 -8006 8078 -8078 8150 -8150 8222 -8222 8294 -8294 8366 -8366 8438 -8438 8510 -8510 8582 -8582 8654 -8654 8726 -8726 8798 -8798 8870 -8870 8942 -8942 9014 -9014 9086 -9086 9158 -9158 
15 -15 87 -87 159 -159 231 -231 303 -303 375 -375 447 -447 519 -519 591 -591 663 -663 735 -735 807 -807 879 -879 951 -951 1023 -1023 1095 -1095 1167 -1167 1239 -1239 1311 -1311 1383 -1383 1455 -1455 1527 -1527 1599 -1599 1671 -1671 1743 -1743 1815 -1815 1887 -1887 1959 -1959 2031 -2031 2103 -2103 2175 -2175 2247 -2247 2319 -2319 2391 -2391 2463 -2463 2535 -2535 2607 -2607 2679 -2679 2751 -2751 2823 -2823 2895 -2895 2967 -2967 3039 -3039 3111 -3111 3183 -3183 3255 -3255 3327 -3327 3399 -3399 3471 -3471 3543 -3543 3615 -3615 3687 -3687 3759 -3759 3831 -3831 3903 -3903 3975 -3975 4047 -4047 4119 -4119 4191 -4191 4263 -4263 4335 -4335 4407 -4407 4479 -4479 4551 -4551 4623 -4623 4695 -4695 4767 -4767 4839 -4839 4911 -4911 4983 -4983 5055 -5055 5127 -5127 5199 -5199 5271 -5271 5343 -5343 5415 -5415 5487 -5487 5559 -5559 5631 -5631 5703 -5703 5775 -5775 5847 -5847 5919 -5919 5991 -5991 6063 -6063 6135 -6135 6207 -6207 6279 -6279 6351 -6351 6423 -6423 6495 -6495 6567 -6567 6639 -6639 6711 -6711 6783 -6783 6855 -6855 6927 -6927 6999 -6999 7071 -7071 7143 -7143 7215 -7215 7287 -7287 7359 -7359 7431 -7431 7503 -7503 7575 -7575 7647 -7647 7719 -7719 7791 -7791 7863 -7863 7935 -7935 8007 -8007 8079 -8079 8151 -8151 8223 -8223 8295 -8295 8367 -8367 8439 -8439 8511 -8511 8583 -8583 8655 -8655 8727 -8727 8799 -8799 8871 -8871 8943 -8943 9015 -9015 9087 -9087 9159 -9159 
16 -16 88 -88 160 -160 232 -232 304 -304 376 -376 448 -448 520 -520 592 -592 664 -664 736 -736 808 -808 880 -880 952 -952 1024 -1024 1096 -1096 1168 -1168 1240 -1240 1312 -1312 1384 -1384 1456 -1456 1528 -1528 1600 -1600 1672 -1672 1744 -1744 1816 -1816 1888 -1888 1960 -1960 2032 -2032 2104 -2104 2176 -2176 2248 -2248 2320 -2320 2392 -2392 2464 -2464 2536 -2536 2608 -2608 2680 -2680 2752 -2752 2824 -2824 2896 -2896 2968 -2968 3040 -3040 3112 -3112 3184 -3184 3256 -3256 3328 -3328 3400 -3400 3472 -3472 3544 -3544 3616 -3616 3688 -3688 3760 -3760 3832 -3832 3904 -3904 3976 -3976 4048 -4048 4120 -4120 4192 -4192 4264 -4264 4336 -4336 4408 -4408 4480 -4480 4552 -4552 4624 -4624 4696 -4696 4768 -4768 4840 -4840 4912 -4912 4984 -4984 5056 -5056 5128 -5128 5200 -5200 5272 -5272 5344 -5344 5416 -5416 5488 -5488 5560 -5560 5632 -5632 5704 -5704 5776 -5776 5848 -5848 5920 -5920 5992 -5992 6064 -6064 6136 -6136 6208 -6208 6280 -6280 6352 -6352 6424 -6424 6496 -6496 6568 -6568 6640 -6640 6712 -6712 6784 -6784 6856 -6856 6928 -6928 7000 -7000 7072 -7072 7144 -7144 7216 -7216 7288 -7288 7360 -7360 7432 -7432 7504 -7504 7576 -7576 7648 -7648 7720 -7720 7792 -7792 7864 -7864 7936 -7936 8008 -8008 8080 -8080 8152 -8152 8224 -8224 8296 -8296 8368 -8368 8440 -8440 8512 -8512 8584 -8584 8656 -8656 8728 -8728 8800 -8800 8872 -8872 8944 -8944 9016 -9016 9088 -9088 9160 -9160 
17 -17 89 -89 161 -161 233 -233 305 -305 377 -377 449 -449 521 -521 593 -593 665 -665 737 -737 809 -809 881 -881 953 -953 1025 -1025 1097 -1097 1169 -1169 1241 -1241 1313 -1313 1385 -1385 1457 -1457 1529 -1529 1601 -1601 1673 -1673 1745 -1745 1817 -1817 1889 -1889 1961 -1961 2033 -2033 2105 -2105 2177 -2177 2249 -2249 2321 -2321 2393 -2393 2465 -2465 2537 -2537 2609 -2609 2681 -2681 2753 -2753 2825 -2825 2897 -2897 2969 -2969 3041 -3041 3113 -3113 3185 -3185 3257 -3257 3329 -3329 3401 -3401 3473 -3473 3545 -3545 3617 -3617 3689 -3689 3761 -3761 3833 -3833 3905 -3905 3977 -3977 4049 -4049 4121 -4121 4193 -4193 4265 -4265 4337 -4337 4409 -4409 4481 -4481 4553 -4553 4625 -4625 4697 -4697 4769 -4769 4841 -4841 4913 -4913 4985 -4985 5057 -5057 5129 -5129 5201 -5201 5273 -5273 5345 -5345 5417 -5417 5489 -5489 5561 -5561 5633 -5633 5705 -5705 5777 -5777 5849 -5849 5921 -5921 5993 -5993 6065 -6065 6137 -6137 6209 -6209 6281 -6281 6353 -6353 6425 -6425 6497 -6497 6569 -6569 6641 -6641 6713 -6713 6785 -6785 6857 -6857 6929 -6929 7001 -7001 7073 -7073 7145 -7145 7217 -7217 7289 -7289 7361 -7361 7433 -7433 7505 -7505 7577 -7577 7649 -7649 7721 -7721 7793 -7793 7865 -7865 7937 -7937 8009 -8009 8081 -8081 8153 -8153 8225 -8225 8297 -8297 8369 -8369 8441 -8441 8513 -8513 8585 -8585 8657 -8657 8729 -8729 8801 -8801 8873 -8873 8945 -8945 9017 -9017 9089 -9089 9161 -9161 
18 -18 90 -90 162 -162 234 -234 306 -306 378 -378 450 -450 522 -522 594 -594 666 -666 738 -738 810 -810 882 -882 954 -954 1026 -1026 1098 -1098 1170 -1170 1242 -1242 1314 -1314 1386 -1386 1458 -1458 1530 -1530 1602 -1602 1674 -1674 1746 -1746 1818 -1818 1890 -1890 1962 -1962 2034 -2034 2106 -2106 2178 -2178 2250 -2250 2322 -2322 2394 -2394 2466 -2466 2538 -2538 2610 -2610 2682 -2682 2754 -2754 2826 -2826 2898 -2898 2970 -2970 3042 -3042 3114 -3114 3186 -3186 3258 -3258 3330 -3330 3402 -3402 3474 -3474 3546 -3546 3618 -3618 3690 -3690 3762 -3762 3834 -3834 3906 -3906 3978 -3978 4050 -4050 4122 -4122 4194 -4194 4266 -4266 4338 -4338 4410 -4410 4482 -4482 4554 -4554 4626 -4626 4698 -4698 4770 -4770 4842 -4842 4914 -4914 4986 -4986 5058 -5058 5130 -5130 5202 -5202 5274 -5274 5346 -5346 5418 -5418 5490 -5490 5562 -5562 5634 -5634 5706 -5706 5778 -5778 5850 -5850 5922 -5922 5994 -5994 6066 -6066 6138 -6138 6210 -6210 6282 -6282 6354 -6354 6426 -6426 6498 -6498 6570 -6570 6642 -6642 6714 -6714 6786 -6786 6858 -6858 6930 -6930 7002 -7002 7074 -7074 7146 -7146 7218 -7218 7290 -7290 7362 -7362 7434 -7434 7506 -7506 7578 -7578 7650 -7650 7722 -7722 7794 -7794 7866 -7866 7938 -7938 8010 -8010 8082 -8082 8154 -8154 8226 -8226 8298 -8298 8370 -8370 8442 -8442 8514 -8514 8586 -8586 8658 -8658 8730 -8730 8802 -8802 8874 -8874 8946 -8946 9018 -9018 9090 -9090 9162 -9162 
19 -19 91 -91 163 -163 235 -235 307 -307 379 -379 451 -451 523 -523 595 -595 667 -667 739 -739 811 -811 883 -883 955 -955 1027 -1027 1099 -1099 1171 -1171 1243 -1243 1315 -1315 1387 -1387 1459 -1459 1531 -1531 1603 -1603 1675 -1675 1747 -1747 1819 -1819 1891 -1891 1963 -1963 2035 -2035 2107 -2107 2179 -2179 2251 -2251 2323 -2323 2395 -2395 2467 -2467 2539 -2539 2611 -2611 2683 -2683 2755 -2755 2827 -2827 2899 -2899 2971 -2971 3043 -3043 3115 -3115 3187 -3187 3259 -3259 3331 -3331 3403 -3403 3475 -3475 3547 -3547 3619 -3619 3691 -3691 3763 -3763 3835 -3835 3907 -3907 3979 -3979 4051 -4051 4123 -4123 4195 -4195 4267 -4267 4339 -4339 4411 -4411 4483 -4483 4555 -4555 4627 -4627 4699 -4699 4771 -4771 4843 -4843 4915 -4915 4987 -4987 5059 -5059 5131 -5131 5203 -5203 5275 -5275 5347 -5347 5419 -5419 5491 -5491 5563 -5563 5635 -5635 5707 -5707 5779 -5779 5851 -5851 5923 -5923 5995 -5995 6067 -6067 6139 -6139 6211 -6211 6283 -6283 6355 -6355 6427 -6427 6499 -6499 6571 -6571 6643 -6643 6715 -6715 6787 -6787 6859 -6859 6931 -6931 7003 -7003 7075 -7075 7147 -7147 7219 -7219 7291 -7291 7363 -7363 7435 -7435 7507 -7507 7579 -7579 7651 -7651 7723 -7723 7795 -7795 7867 -7867 7939 -7939 8011 -8011 8083 -8083 8155 -8155 8227 -8227 8299 -8299 8371 -8371 8443 -8443 8515 -8515 8587 -8587 8659 -8659 8731 -8731 8803 -8803 8875 -8875 8947 -8947 9019 -9019 9091 -9091 9163 -9163 
20 -20 92 -92 164 -164 236 -236 308 -308 380 -380 452 -452 524 -524 596 -596 668 -668 740 -740 812 -812 884 -884 956 -956 1028 -1028 1100 -1100 1172 -1172 1244 -1244 1316 -1316 1388 -1388 1460 -1460 1532 -1532 1604 -1604 1676 -1676 1748 -1748 1820 -1820 1892 -1892 1964 -1964 2036 -2036 2108 -2108 2180 -2180 2252 -2252 2324 -2324 2396 -2396 2468 -2468 2540 -2540 2612 -2612 2684 -2684 2756 -2756 2828 -2828 2900 -2900 2972 -2972 3044 -3044 3116 -3116 3188 -3188 3260 -3260 3332 -3332 3404 -3404 3476 -3476 3548 -3548 3620 -3620 3692 -3692 3764 -3764 3836 -3836 3908 -3908 3980 -3980 4052 -4052 4124 -4124 4196 -4196 4268 -4268 4340 -4340 4412 -4412 4484 -4484 4556 -4556 4628 -4628 4700 -4700 4772 -4772 4844 -4844 4916 -4916 4988 -4988 5060 -5060 5132 -5132 5204 -5204 5276 -5276 5348 -5348 5420 -5420 5492 -5492 5564 -5564 5636 -5636 5708 -5708 5780 -5780 5852 -5852 5924 -5924 5996 -5996 6068 -6068 6140 -6140 6212 -6212 6284 -6284 6356 -6356 6428 -6428 6500 -6500 6572 -6572 6644 -6644 6716 -6716 6788 -6788 6860 -6860 6932 -6932 7004 -7004 7076 -7076 7148 -7148 7220 -7220 7292 -7292 7364 -7364 7436 -7436 7508 -7508 7580 -7580 7652 -7652 7724 -7724 7796 -7796 7868 -7868 7940 -7940 8012 -8012 8084 -8084 8156 -8156 8228 -8228 8300 -8300 8372 -8372 8444 -8444 8516 -8516 8588 -8588 8660 -8660 8732 -8732 8804 -8804 8876 -8876 8948 -8948 9020 -9020 9092 -9092 9164 -9164 
21 -21 93 -93 165 -165 237 -237 309 -309 381 -381 453 -453 525 -525 597 -597 669 -669 741 -741 813 -813 885 -885 957 -957 1029 -1029 1101 -1101 1173 -1173 1245 -1245 1317 -1317 1389 -1389 1461 -1461 1533 -1533 1605 -1605 1677 -1677 1749 -1749 1821 -1821 1893 -1893 1965 -1965 2037 -2037 2109 -2109 2181 -2181 2253 -2253 2325 -2325 2397 -2397 2469 -2469 2541 -2541 2613 -2613 2685 -2685 2757 -2757 2829 -2829 2901 -2901 2973 -2973 3045 -3045 3117 -3117 3189 -3189 3261 -3261 3333 -3333 3405 -3405 3477 -3477 3549 -3549 3621 -3621 3693 -3693 3765 -3765 3837 -3837 3909 -3909 3981 -3981 4053 -4053 4125 -4125 4197 -4197 4269 -4269 4341 -4341 4413 -4413 4485 -4485 4557 -4557 4629 -4629 4701 -4701 4773 -4773 4845 -4845 4917 -4917 4989 -4989 5061 -5061 5133 -5133 5205 -5205 5277 -5277 5349 -5349 5421 -5421 5493 -5493 5565 -5565 5637 -5637 5709 -5709 5781 -5781 5853 -5853 5925 -5925 5997 -5997 6069 -6069 6141 -6141 6213 -6213 6285 -6285 6357 -6357 6429 -6429 6501 -6501 6573 -6573 6645 -6645 6717 -6717 6789 -6789 6861 -6861 6933 -6933 7005 -7005 7077 -7077 7149 -7149 7221 -7221 7293 -7293 7365 -7365 7437 -7437 7509 -7509 7581 -7581 7653 -7653 7725 -7725 7797 -7797 7869 -7869 7941 -7941 8013 -8013 8085 -8085 8157 -8157 8229 -8229 8301 -8301 8373 -8373 8445 -8445 8517 -8517 8589 -8589 8661 -8661 8733 -8733 8805 -8805 8877 -8877 8949 -8949 9021 -9021 9093 -9093 9165 -9165 
22 -22 94 -94 166 -166 238 -238 310 -310 382 -382 454 -454 526 -526 598 -598 670 -670 742 -742 814 -814 886 -886 958 -958 1030 -1030 1102 -1102 1174 -1174 1246 -1246 1318 -1318 1390 -1390 1462 -1462 1534 -1534 1606 -1606 1678 -1678 1750 -1750 1822 -1822 1894 -1894 1966 -1966 2038 -2038 2110 -2110 2182 -2182 2254 -2254 2326 -2326 2398 -2398 2470 -2470 2542 -2542 2614 -2614 2686 -2686 2758 -2758 2830 -2830 2902 -2902 2974 -2974 3046 -3046 3118 -3118 3190 -3190 3262 -3262 3334 -3334 3406 -3406 3478 -3478 3550 -3550 3622 -3622 3694 -3694 3766 -3766 3838 -3838 3910 -3910 3982 -3982 4054 -4054 4126 -4126 4198 -4198 4270 -4270 4342 -4342 4414 -4414 4486 -4486 4558 -4558 4630 -4630 4702 -4702 4774 -4774 4846 -4846 4918 -4918 4990 -4990 5062 -5062 5134 -5134 5206 -5206 5278 -5278 5350 -5350 5422 -5422 5494 -5494 5566 -5566 5638 -5638 5710 -5710 5782 -5782 5854 -5854 5926 -5926 5998 -5998 6070 -6070 6142 -6142 6214 -6214 6286 -6286 6358 -6358 6430 -6430 6502 -6502 6574 -6574 6646 -6646 6718 -6718 6790 -6790 6862 -6862 6934 -6934 7006 -7006 7078 -7078 7150 -7150 7222 -7222 7294 -7294 7366 -7366 7438 -7438 7510 -7510 7582 -7582 7654 -7654 7726 -7726 7798 -7798 7870 -7870 7942 -7942 8014 -8014 8086 -8086 8158 -8158 8230 -8230 8302 -8302 8374 -8374 8446 -8446 8518 -8518 8590 -8590 8662 -8662 8734 -8734 8806 -8806 8878 -8878 8950 -8950 9022 -9022 9094 -9094 9166 -9166 
23 -23 95 -95 167 -167 239 -239 311 -311 383 -383 455 -455 527 -527 599 -599 671 -671 743 -743 815 -815 887 -887 959 -959 1031 -1031 1103 -1103 1175 -1175 1247 -1247 1319 -1319 1391 -1391 1463 -1463 1535 -1535 1607 -1607 1679 -1679 1751 -1751 1823 -1823 1895 -1895 1967 -1967 2039 -2039 2111 -2111 2183 -2183 2255 -2255 2327 -2327 2399 -2399 2471 -2471 2543 -2543 2615 -2615 2687 -2687 2759 -2759 2831 -2831 2903 -2903 2975 -2975 3047 -3047 3119 -3119 3191 -3191 3263 -3263 3335 -3335 3407 -3407 3479 -3479 3551 -3551 3623 -3623 3695 -3695 3767 -3767 3839 -3839 3911 -3911 3983 -3983 4055 -4055 4127 -4127 4199 -4199 4271 -4271 4343 -4343 4415 -4415 4487 -4487 4559 -4559 4631 -4631 4703 -4703 4775 -4775 4847 -4847 4919 -4919 4991 -4991 5063 -5063 5135 -5135 5207 -5207 5279 -5279 5351 -5351 5423 -5423 5495 -5495 5567 -5567 5639 -5639 5711 -5711 5783 -5783 5855 -5855 5927 -5927 5999 -5999 6071 -6071 6143 -6143 6215 -6215 6287 -6287 6359 -6359 6431 -6431 6503 -6503 6575 -6575 6647 -6647 6719 -6719 6791 -6791 6863 -6863 6935 -6935 7007 -7007 7079 -7079 7151 -7151 7223 -7223 7295 -7295 7367 -7367 7439 -7439 7511 -7511 7583 -7583 7655 -7655 7727 -7727 7799 -7799 7871 -7871 7943 -7943 8015 -8015 8087 -8087 8159 -8159 8231 -8231 8303 -8303 8375 -8375 8447 -8447 8519 -8519 8591 -8591 8663 -8663 8735 -8735 8807 -8807 8879 -8879 8951 -8951 9023 -9023 9095 -9095 9167 -9167 
24 -24 96 -96 168 -168 240 -240 312 -312 384 -384 456 -456 528 -528 600 -600 672 -672 744 -744 816 -816 888 -888 960 -960 1032 -1032 1104 -1104 1176 -1176 1248 -1248 1320 -1320 1392 -1392 1464 -1464 1536 -1536 1608 -1608 1680 -1680 1752 -1752 1824 -1824 1896 -1896 1968 -1968 2040 -2040 2112 -2112 2184 -2184 2256 -2256 2328 -2328 2400 -2400 2472 -2472 2544 -2544 2616 -2616 2688 -2688 2760 -2760 2832 -2832 2904 -2904 2976 -2976 3048 -3048 3120 -3120 3192 -3192 3264 -3264 3336 -3336 3408 -3408 3480 -3480 3552 -3552 3624 -3624 3696 -3696 3768 -3768 3840 -3840 3912 -3912 3984 -3984 4056 -4056 4128 -4128 4200 -4200 4272 -4272 4344 -4344 4416 -4416 4488 -4488 4560 -4560 4632 -4632 4704 -4704 4776 -4776 4848 -4848 4920 -4920 4992 -4992 5064 -5064 5136 -5136 5208 -5208 5280 -5280 5352 -5352 5424 -5424 5496 -5496 5568 -5568 5640 -5640 5712 -5712 5784 -5784 5856 -5856 5928 -5928 6000 -6000 6072 -6072 6144 -6144 6216 -6216 6288 -6288 6360 -6360 6432 -6432 6504 -6504 6576 -6576 6648 -6648 6720 -6720 6792 -6792 6864 -6864 6936 -6936 7008 -7008 7080 -7080 7152 -7152 7224 -7224 7296 -7296 7368 -7368 7440 -7440 7512 -7512 7584 -7584 7656 -7656 7728 -7728 7800 -7800 7872 -7872 7944 -7944 8016 -8016 8088 -8088 8160 -8160 8232 -8232 8304 -8304 8376 -8376 8448 -8448 8520 -8520 8592 -8592 8664 -8664 8736 -8736 8808 -8808 8880 -8880 8952 -8952 9024 -9024 9096 -9096 9168 -9168 
25 -25 97 -97 169 -169 241 -241 313 -313 385 -385 457 -457 529 -529 601 -601 673 -673 745 -745 817 -817 889 -889 961 -961 1033 -1033 1105 -1105 1177 -1177 1249 -1249 1321 -1321 1393 -1393 1465 -1465 1537 -1537 1609 -1609 1681 -1681 1753 -1753 1825 -1825 1897 -1897 1969 -1969 2041 -2041 2113 -2113 2185 -2185 2257 -2257 2329 -2329 2401 -2401 2473 -2473 2545 -2545 2617 -2617 2689 -2689 2761 -2761 2833 -2833 2905 -2905 2977 -2977 3049 -3049 3121 -3121 3193 -3193 3265 -3265 3337 -3337 3409 -3409 3481 -3481 3553 -3553 3625 -3625 3697 -3697 3769 -3769 3841 -3841 3913 -3913 3985 -3985 4057 -4057 4129 -4129 4201 -4201 4273 -4273 4345 -4345 4417 -4417 4489 -4489 4561 -4561 4633 -4633 4705 -4705 4777 -4777 4849 -4849 4921 -4921 4993 -4993 5065 -5065 5137 -5137 5209 -5209 5281 -5281 5353 -5353 5425 -5425 5497 -5497 5569 -5569 5641 -5641 5713 -5713 5785 -5785 5857 -5857 5929 -5929 6001 -6001 6073 -6073 6145 -6145 6217 -6217 6289 -6289 6361 -6361 6433 -6433 6505 -6505 6577 -6577 6649 -6649 6721 -6721 6793 -6793 6865 -6865 6937 -6937 7009 -7009 7081 -7081 7153 -7153 7225 -7225 7297 -7297 7369 -7369 7441 -7441 7513 -7513 7585 -7585 7657 -7657 7729 -7729 7801 -7801 7873 -7873 7945 -7945 8017 -8017 8089 -8089 8161 -8161 8233 -8233 8305 -8305 8377 -8377 8449 -8449 8521 -8521 8593 -8593 8665 -8665 8737 -8737 8809 -8809 8881 -8881 8953 -8953 9025 -9025 9097 -9097 9169 -9169 
26 -26 98 -98 170 -170 242 -242 314 -314 386 -386 458 -458 530 -530 602 -602 674 -674 746 -746 818 -818 890 -890 962 -962 1034 -1034 1106 -1106 1178 -1178 1250 -1250 1322 -1322 1394 -1394 1466 -1466 1538 -1538 1610 -1610 1682 -1682 1754 -1754 1826 -1826 1898 -1898 1970 -1970 2042 -2042 2114 -2114 2186 -2186 2258 -2258 2330 -2330 2402 -2402 2474 -2474 2546 -2546 2618 -2618 2690 -2690 2762 -2762 2834 -2834 2906 -2906 2978 -2978 3050 -3050 3122 -3122 3194 -3194 3266 -3266 3338 -3338 3410 -3410 3482 -3482 3554 -3554 3626 -3626 3698 -3698 3770 -3770 3842 -3842 3914 -3914 3986 -3986 4058 -4058 4130 -4130 4202 -4202 4274 -4274 4346 -4346 4418 -4418 4490 -4490 4562 -4562 4634 -4634 4706 -4706 4778 -4778 4850 -4850 4922 -4922 4994 -4994 5066 -5066 5138 -5138 5210 -5210 5282 -5282 5354 -5354 5426 -5426 5498 -5498 5570 -5570 5642 -5642 5714 -5714 5786 -5786 5858 -5858 5930 -5930 6002 -6002 6074 -6074 6146 -6146 6218 -6218 6290 -6290 6362 -6362 6434 -6434 6506 -6506 6578 -6578 6650 -6650 6722 -6722 6794 -6794 6866 -6866 6938 -6938 7010 -7010 7082 -7082 7154 -7154 7226 -7226 7298 -7298 7370 -7370 7442 -7442 7514 -7514 7586 -7586 7658 -7658 7730 -7730 7802 -7802 7874 -7874 7946 -7946 8018 -8018 8090 -8090 8162 -8162 8234 -8234 8306 -8306 8378 -8378 8450 -8450 8522 -8522 8594 -8594 8666 -8666 8738 -8738 8810 -8810 8882 -8882 8954 -8954 9026 -9026 9098 -9098 9170 -9170 
27 -27 99 -99 171 -171 243 -243 315 -315 387 -387 459 -459 531 -531 603 -603 675 -675 747 -747 819 -819 891 -891 963 -963 1035 -1035 1107 -1107 1179 -1179 1251 -1251 1323 -1323 1395 -1395 1467 -1467 1539 -1539 1611 -1611 1683 -1683 1755 -1755 1827 -1827 1899 -1899 1971 -1971 2043 -2043 2115 -2115 2187 -2187 2259 -2259 2331 -2331 2403 -2403 2475 -2475 2547 -2547 2619 -2619 2691 -2691 2763 -2763 2835 -2835 2907 -2907 2979 -2979 3051 -3051 3123 -3123 3195 -3195 3267 -3267 3339 -3339 3411 -3411 3483 -3483 3555 -3555 3627 -3627 3699 -3699 3771 -3771 3843 -3843 3915 -3915 3987 -3987 4059 -4059 4131 -4131 4203 -4203 4275 -4275 4347 -4347 4419 -4419 4491 -4491 4563 -4563 4635 -4635 4707 -4707 4779 -4779 4851 -4851 4923 -4923 4995 -4995 5067 -5067 5139 -5139 5211 -5211 5283 -5283 5355 -5355 5427 -5427 5499 -5499 5571 -5571 5643 -5643 5715 -5715 5787 -5787 5859 -5859 5931 -5931 6003 -6003 6075 -6075 6147 -6147 6219 -6219 6291 -6291 6363 -6363 6435 -6435 6507 -6507 6579 -6579 6651 -6651 6723 -6723 6795 -6795 6867 -6867 6939 -6939 7011 -7011 7083 -7083 7155 -7155 7227 -7227 7299 -7299 7371 -7371 7443 -7443 7515 -7515 7587 -7587 7659 -7659 7731 -7731 7803 -7803 7875 -7875 7947 -7947 8019 -8019 8091 -8091 8163 -8163 8235 -8235 8307 -8307 8379 -8379 8451 -8451 8523 -8523 8595 -8595 8667 -8667 8739 -8739 8811 -8811 8883 -8883 8955 -8955 9027 -9027 9099 -9099 9171 -9171 
28 -28 100 -100 172 -172 244 -244 316 -316 388 -388 460 -460 532 -532 604 -604 676 -676 748 -748 820 -820 892 -892 964 -964 1036 -1036 1108 -1108 1180 -1180 1252 -1252 1324 -1324 1396 -1396 1468 -1468 1540 -1540 1612 -1612 1684 -1684 1756 -1756 1828 -1828 1900 -1900 1972 -1972 2044 -2044 2116 -2116 2188 -2188 2260 -2260 2332 -2332 2404 -2404 2476 -2476 2548 -2548 2620 -2620 2692 -2692 2764 -2764 2836 -2836 2908 -2908 2980 -2980 3052 -3052 3124 -3124 3196 -3196 3268 -3268 3340 -3340 3412 -3412 3484 -3484 3556 -3556 3628 -3628 3700 -3700 3772 -3772 3844 -3844 3916 -3916 3988 -3988 4060 -4060 4132 -4132 4204 -4204 4276 -4276 4348 -4348 4420 -4420 4492 -4492 4564 -4564 4636 -4636 4708 -4708 4780 -4780 4852 -4852 4924 -4924 4996 -4996 5068 -5068 5140 -5140 5212 -5212 5284 -5284 5356 -5356 5428 -5428 5500 -5500 5572 -5572 5644 -5644 5716 -5716 5788 -5788 5860 -5860 5932 -5932 6004 -6004 6076 -6076 6148 -6148 6220 -6220 6292 -6292 6364 -6364 6436 -6436 6508 -6508 6580 -6580 6652 -6652 6724 -6724 6796 -6796 6868 -6868 6940 -6940 7012 -7012 7084 -7084 7156 -7156 7228 -7228 7300 -7300 7372 -7372 7444 -7444 7516 -7516 7588 -7588 7660 -7660 7732 -7732 7804 -7804 7876 -7876 7948 -7948 8020 -8020 8092 -8092 8164 -8164 8236 -8236 8308 -8308 8380 -8380 8452 -8452 8524 -8524 8596 -8596 8668 -8668 8740 -8740 8812 -8812 8884 -8884 8956 -8956 9028 -9028 9100 -9100 9172 -9172 
29 -29 101 -101 173 -173 245 -245 317 -317 389 -389 461 -461 533 -533 605 -605 677 -677 749 -749 821 -821 893 -893 965 -965 1037 -1037 1109 -1109 1181 -1181 1253 -1253 1325 -1325 1397 -1397 1469 -1469 1541 -1541 1613 -1613 1685 -1685 1757 -1757 1829 -1829 1901 -1901 1973 -1973 2045 -2045 2117 -2117 2189 -2189 2261 -2261 2333 -2333 2405 -2405 2477 -2477 2549 -2549 2621 -2621 2693 -2693 2765 -2765 2837 -2837 2909 -2909 2981 -2981 3053 -3053 3125 -3125 3197 -3197 3269 -3269 3341 -3341 3413 -3413 3485 -3485 3557 -3557 3629 -3629 3701 -3701 3773 -3773 3845 -3845 3917 -3917 3989 -3989 4061 -4061 4133 -4133 4205 -4205 4277 -4277 4349 -4349 4421 -4421 4493 -4493 4565 -4565 4637 -4637 4709 -4709 4781 -4781 4853 -4853 4925 -4925 4997 -4997 5069 -5069 5141 -5141 5213 -5213 5285 -5285 5357 -5357 5429 -5429 5501 -5501 5573 -5573 5645 -5645 5717 -5717 5789 -5789 5861 -5861 5933 -5933 6005 -6005 6077 -6077 6149 -6149 6221 -6221 6293 -6293 6365 -6365 6437 -6437 6509 -6509 6581 -6581 6653 -6653 6725 -6725 6797 -6797 6869 -6869 6941 -6941 7013 -7013 7085 -7085 7157 -7157 7229 -7229 7301 -7301 7373 -7373 7445 -7445 7517 -7517 7589 -7589 7661 -7661 7733 -7733 7805 -7805 7877 -7877 7949 -7949 8021 -8021 8093 -8093 8165 -8165 8237 -8237 8309 -8309 8381 -8381 8453 -8453 8525 -8525 8597 -8597 8669 -8669 8741 -8741 8813 -8813 8885 -8885 8957 -8957 9029 -9029 9101 -9101 9173 -9173 
30 -30 102 -102 174 -174 246 -246 318 -318 390 -390 462 -462 534 -534 606 -606 678 -678 750 -750 822 -822 894 -894 966 -966 1038 -1038 1110 -1110 1182 -1182 1254 -1254 1326 -1326 1398 -1398 1470 -1470 1542 -1542 1614 -1614 1686 -1686 1758 -1758 1830 -1830 1902 -1902 1974 -1974 2046 -2046 2118 -2118 2190 -2190 2262 -2262 2334 -2334 2406 -2406 2478 -2478 2550 -2550 2622 -2622 2694 -2694 2766 -2766 2838 -2838 2910 -2910 2982 -2982 3054 -3054 3126 -3126 3198 -3198 3270 -3270 3342 -3342 3414 -3414 3486 -3486 3558 -3558 3630 -3630 3702 -3702 3774 -3774 3846 -3846 3918 -3918 3990 -3990 4062 -4062 4134 -4134 4206 -4206 4278 -4278 4350 -4350 4422 -4422 4494 -4494 4566 -4566 4638 -4638 4710 -4710 4782 -4782 4854 -4854 4926 -4926 4998 -4998 5070 -5070 5142 -5142 5214 -5214 5286 -5286 5358 -5358 5430 -5430 5502 -5502 5574 -5574 5646 -5646 5718 -5718 5790 -5790 5862 -5862 5934 -5934 6006 -6006 6078 -6078 6150 -6150 6222 -6222 6294 -6294 6366 -6366 6438 -6438 6510 -6510 6582 -6582 6654 -6654 6726 -6726 6798 -6798 6870 -6870 6942 -6942 7014 -7014 7086 -7086 7158 -7158 7230 -7230 7302 -7302 7374 -7374 7446 -7446 7518 -7518 7590 -7590 7662 -7662 7734 -7734 7806 -7806 7878 -7878 7950 -7950 8022 -8022 8094 -8094 8166 -8166 8238 -8238 8310 -8310 8382 -8382 8454 -8454 8526 -8526 8598 -8598 8670 -8670 8742 -8742 8814 -8814 8886 -8886 8958 -8958 9030 -9030 9102 -9102 9174 -9174 
31 -31 103 -103 175 -175 247 -247 319 -319 391 -391 463 -463 535 -535 607 -607 679 -679 751 -751 823 -823 895 -895 967 -967 1039 -1039 1111 -1111 1183 -1183 1255 -1255 1327 -1327 1399 -1399 1471 -1471 1543 -1543 1615 -1615 1687 -1687 1759 -1759 1831 -1831 1903 -1903 1975 -1975 2047 -2047 2119 -2119 2191 -2191 2263 -2263 2335 -2335 2407 -2407 2479 -2479 2551 -2551 2623 -2623 2695 -2695 2767 -2767 2839 -2839 2911 -2911 2983 -2983 3055 -3055 3127 -3127 3199 -3199 3271 -3271 3343 -3343 3415 -3415 3487 -3487 3559 -3559 3631 -3631 3703 -3703 3775 -3775 3847 -3847 3919 -3919 3991 -3991 4063 -4063 4135 -4135 4207 -4207 4279 -4279 4351 -4351 4423 -4423 4495 -4495 4567 -4567 4639 -4639 4711 -4711 4783 -4783 4855 -4855 4927 -4927 4999 -4999 5071 -5071 5143 -5143 5215 -5215 5287 -5287 5359 -5359 5431 -5431 5503 -5503 5575 -5575 5647 -5647 5719 -5719 5791 -5791 5863 -5863 5935 -5935 6007 -6007 6079 -6079 6151 -6151 6223 -6223 6295 -6295 6367 -6367 6439 -6439 6511 -6511 6583 -6583 6655 -6655 6727 -6727 6799 -6799 6871 -6871 6943 -6943 7015 -7015 7087 -7087 7159 -7159 7231 -7231 7303 -7303 7375 -7375 7447 -7447 7519 -7519 7591 -7591 7663 -7663 7735 -7735 7807 -7807 7879 -7879 7951 -7951 8023 -8023 8095 -8095 8167 -8167 8239 -8239 8311 -8311 8383 -8383 8455 -8455 8527 -8527 8599 -8599 8671 -8671 8743 -8743 8815 -8815 8887 -8887 8959 -8959 9031 -9031 9103 -9103 9175 -9175 
32 -32 104 -104 176 -176 248 -248 320 -320 392 -392 464 -464 536 -536 608 -608 680 -680 752 -752 824 -824 896 -896 968 -968 1040 -1040 1112 -1112 1184 -1184 1256 -1256 1328 -1328 1400 -1400 1472 -1472 1544 -1544 1616 -1616 1688 -1688 1760 -1760 1832 -1832 1904 -1904 1976 -1976 2048 -2048 2120 -2120 2192 -2192 2264 -2264 2336 -2336 2408 -2408 2480 -2480 2552 -2552 2624 -2624 2696 -2696 2768 -2768 2840 -2840 2912 -2912 2984 -2984 3056 -3056 3128 -3128 3200 -3200 3272 -3272 3344 -3344 3416 -3416 3488 -3488 3560 -3560 3632 -3632 3704 -3704 3776 -3776 3848 -3848 3920 -3920 3992 -3992 4064 -4064 4136 -4136 4208 -4208 4280 -4280 4352 -4352 4424 -4424 4496 -4496 4568 -4568 4640 -4640 4712 -4712 4784 -4784 4856 -4856 4928 -4928 5000 -5000 5072 -5072 5144 -5144 5216 -5216 5288 -5288 5360 -5360 5432 -5432 5504 -5504 5576 -5576 5648 -5648 5720 -5720 5792 -5792 5864 -5864 5936 -5936 6008 -6008 6080 -6080 6152 -6152 6224 -6224 6296 -6296 6368 -6368 6440 -6440 6512 -6512 6584 -6584 6656 -6656 6728 -6728 6800 -6800 6872 -6872 6944 -6944 7016 -7016 7088 -7088 7160 -7160 7232 -7232 7304 -7304 7376 -7376 7448 -7448 7520 -7520 7592 -7592 7664 -7664 7736 -7736 7808 -7808 7880 -7880 7952 -7952 8024 -8024 8096 -8096 8168 -8168 8240 -8240 8312 -8312 8384 -8384 8456 -8456 8528 -8528 8600 -8600 8672 -8672 8744 -8744 8816 -8816 8888 -8888 8960 -8960 9032 -9032 9104 -9104 9176 -9176 
33 -33 105 -105 177 -177 249 -249 321 -321 393 -393 465 -465 537 -537 609 -609 681 -681 753 -753 825 -825 897 -897 969 -969 1041 -1041 1113 -1113 1185 -1185 1257 -1257 1329 -1329 1401 -1401 1473 -1473 1545 -1545 1617 -1617 1689 -1689 1761 -1761 1833 -1833 1905 -1905 1977 -1977 2049 -2049 2121 -2121 2193 -2193 2265 -2265 2337 -2337 2409 -2409 2481 -2481 2553 -2553 2625 -2625 2697 -2697 2769 -2769 2841 -2841 2913 -2913 2985 -2985 3057 -3057 3129 -3129 3201 -3201 3273 -3273 3345 -3345 3417 -3417 3489 -3489 3561 -3561 3633 -3633 3705 -3705 3777 -3777 3849 -3849 3921 -3921 3993 -3993 4065 -4065 4137 -4137 4209 -4209 4281 -4281 4353 -4353 4425 -4425 4497 -4497 4569 -4569 4641 -4641 4713 -4713 4785 -4785 4857 -4857 4929 -4929 5001 -5001 5073 -5073 5145 -5145 5217 -5217 5289 -5289 5361 -5361 5433 -5433 5505 -5505 5577 -5577 5649 -5649 5721 -5721 5793 -5793 5865 -5865 5937 -5937 6009 -6009 6081 -6081 6153 -6153 6225 -6225 6297 -6297 6369 -6369 6441 -6441 6513 -6513 6585 -6585 6657 -6657 6729 -6729 6801 -6801 6873 -6873 6945 -6945 7017 -7017 7089 -7089 7161 -7161 7233 -7233 7305 -7305 7377 -7377 7449 -7449 7521 -7521 7593 -7593 7665 -7665 7737 -7737 7809 -7809 7881 -7881 7953 -7953 8025 -8025 8097 -8097 8169 -8169 8241 -8241 8313 -8313 8385 -8385 8457 -8457 8529 -8529 8601 -8601 8673 -8673 8745 -8745 8817 -8817 8889 -8889 8961 -8961 9033 -9033 9105 -9105 9177 -9177 
34 -34 106 -106 178 -178 250 -250 322 -322 394 -394 466 -466 538 -538 610 -610 682 -682 754 -754 826 -826 898 -898 970 -970 1042 -1042 1114 -1114 1186 -1186 1258 -1258 1330 -1330 1402 -1402 1474 -1474 1546 -1546 1618 -1618 1690 -1690 1762 -1762 1834 -1834 1906 -1906 1978 -1978 2050 -2050 2122 -2122 2194 -2194 2266 -2266 2338 -2338 2410 -2410 2482 -2482 2554 -2554 2626 -2626 2698 -2698 2770 -2770 2842 -2842 2914 -2914 2986 -2986 3058 -3058 3130 -3130 3202 -3202 3274 -3274 3346 -3346 3418 -3418 3490 -3490 3562 -3562 3634 -3634 3706 -3706 3778 -3778 3850 -3850 3922 -3922 3994 -3994 4066 -4066 4138 -4138 4210 -4210 4282 -4282 4354 -4354 4426 -4426 4498 -4498 4570 -4570 4642 -4642 4714 -4714 4786 -4786 4858 -4858 4930 -4930 5002 -5002 5074 -5074 5146 -5146 5218 -5218 5290 -5290 5362 -5362 5434 -5434 5506 -5506 5578 -5578 5650 -5650 5722 -5722 5794 -5794 5866 -5866 5938 -5938 6010 -6010 6082 -6082 6154 -6154 6226 -6226 6298 -6298 6370 -6370 6442 -6442 6514 -6514 6586 -6586 6658 -6658 6730 -6730 6802 -6802 6874 -6874 6946 -6946 7018 -7018 7090 -7090 7162 -7162 7234 -7234 7306 -7306 7378 -7378 7450 -7450 7522 -7522 7594 -7594 7666 -7666 7738 -7738 7810 -7810 7882 -7882 7954 -7954 8026 -8026 8098 -8098 8170 -8170 8242 -8242 8314 -8314 8386 -8386 8458 -8458 8530 -8530 8602 -8602 8674 -8674 8746 -8746 8818 -8818 8890 -8890 8962 -8962 9034 -9034 9106 -9106 9178 -9178 
35 -35 107 -107 179 -179 251 -251 323 -323 395 -395 467 -467 539 -539 611 -611 683 -683 755 -755 827 -827 899 -899 971 -971 1043 -1043 1115 -1115 1187 -1187 1259 -1259 1331 -1331 1403 -1403 1475 -1475 1547 -1547 1619 -1619 1691 -1691 1763 -1763 1835 -1835 1907 -1907 1979 -1979 2051 -2051 2123 -2123 2195 -2195 2267 -2267 2339 -2339 2411 -2411 2483 -2483 2555 -2555 2627 -2627 2699 -2699 2771 -2771 2843 -2843 2915 -2915 2987 -2987 3059 -3059 3131 -3131 3203 -3203 3275 -3275 3347 -3347 3419 -3419 3491 -3491 3563 -3563 3635 -3635 3707 -3707 3779 -3779 3851 -3851 3923 -3923 3995 -3995 4067 -4067 4139 -4139 4211 -4211 4283 -4283 4355 -4355 4427 -4427 4499 -4499 4571 -4571 4643 -4643 4715 -4715 4787 -4787 4859 -4859 4931 -4931 5003 -5003 5075 -5075 5147 -5147 5219 -5219 5291 -5291 5363 -5363 5435 -5435 5507 -5507 5579 -5579 5651 -5651 5723 -5723 5795 -5795 5867 -5867 5939 -5939 6011 -6011 6083 -6083 6155 -6155 6227 -6227 6299 -6299 6371 -6371 6443 -6443 6515 -6515 6587 -6587 6659 -6659 6731 -6731 6803 -6803 6875 -6875 6947 -6947 7019 -7019 7091 -7091 7163 -7163 7235 -7235 7307 -7307 7379 -7379 7451 -7451 7523 -7523 7595 -7595 7667 -7667 7739 -7739 7811 -7811 7883 -7883 7955 -7955 8027 -8027 8099 -8099 8171 -8171 8243 -8243 8315 -8315 8387 -8387 8459 -8459 8531 -8531 8603 -8603 8675 -8675 8747 -8747 8819 -8819 8891 -8891 8963 -8963 9035 -9035 9107 -9107 9179 -9179 
36 -36 108 -108 180 -180 252 -252 324 -324 396 -396 468 -468 540 -540 612 -612 684 -684 756 -756 828 -828 900 -900 972 -972 1044 -1044 1116 -1116 1188 -1188 1260 -1260 1332 -1332 1404 -1404 1476 -1476 1548 -1548 1620 -1620 1692 -1692 1764 -1764 1836 -1836 1908 -1908 1980 -1980 2052 -2052 2124 -2124 2196 -2196 2268 -2268 2340 -2340 2412 -2412 2484 -2484 2556 -2556 2628 -2628 2700 -2700 2772 -2772 2844 -2844 2916 -2916 2988 -2988 3060 -3060 3132 -3132 3204 -3204 3276 -3276 3348 -3348 3420 -3420 3492 -3492 3564 -3564 3636 -3636 3708 -3708 3780 -3780 3852 -3852 3924 -3924 3996 -3996 4068 -4068 4140 -4140 4212 -4212 4284 -4284 4356 -4356 4428 -4428 4500 -4500 4572 -4572 4644 -4644 4716 -4716 4788 -4788 4860 -4860 4932 -4932 5004 -5004 5076 -5076 5148 -5148 5220 -5220 5292 -5292 5364 -5364 5436 -5436 5508 -5508 5580 -5580 5652 -5652 5724 -5724 5796 -5796 5868 -5868 5940 -5940 6012 -6012 6084 -6084 6156 -6156 6228 -6228 6300 -6300 6372 -6372 6444 -6444 6516 -6516 6588 -6588 6660 -6660 6732 -6732 6804 -6804 6876 -6876 6948 -6948 7020 -7020 7092 -7092 7164 -7164 7236 -7236 7308 -7308 7380 -7380 7452 -7452 7524 -7524 7596 -7596 7668 -7668 7740 -7740 7812 -7812 7884 -7884 7956 -7956 8028 -8028 8100 -8100 8172 -8172 8244 -8244 8316 -8316 8388 -8388 8460 -8460 8532 -8532 8604 -8604 8676 -8676 8748 -8748 8820 -8820 8892 -8892 8964 -8964 9036 -9036 9108 -9108 9180 -9180 
37 -37 109 -109 181 -181 253 -253 325 -325 397 -397 469 -469 541 -541 613 -613 685 -685 757 -757 829 -829 901 -901 973 -973 1045 -1045 1117 -1117 1189 -1189 1261 -1261 1333 -1333 1405 -1405 1477 -1477 1549 -1549 1621 -1621 1693 -1693 1765 -1765 1837 -1837 1909 -1909 1981 -1981 2053 -2053 2125 -2125 2197 -2197 2269 -2269 2341 -2341 2413 -2413 2485 -2485 2557 -2557 2629 -2629 2701 -2701 2773 -2773 2845 -2845 2917 -2917 2989 -2989 3061 -3061 3133 -3133 3205 -3205 3277 -3277 3349 -3349 3421 -3421 3493 -3493 3565 -3565 3637 -3637 3709 -3709 3781 -3781 3853 -3853 3925 -3925 3997 -3997 4069 -4069 4141 -4141 4213 -4213 4285 -4285 4357 -4357 4429 -4429 4501 -4501 4573 -4573 4645 -4645 4717 -4717 4789 -4789 4861 -4861 4933 -4933 5005 -5005 5077 -5077 5149 -5149 5221 -5221 5293 -5293 5365 -5365 5437 -5437 5509 -5509 5581 -5581 5653 -5653 5725 -5725 5797 -5797 5869 -5869 5941 -5941 6013 -6013 6085 -6085 6157 -6157 6229 -6229 6301 -6301 6373 -6373 6445 -6445 6517 -6517 6589 -6589 6661 -6661 6733 -6733 6805 -6805 6877 -6877 6949 -6949 7021 -7021 7093 -7093 7165 -7165 7237 -7237 7309 -7309 7381 -7381 7453 -7453 7525 -7525 7597 -7597 7669 -7669 7741 -7741 7813 -7813 7885 -7885 7957 -7957 8029 -8029 8101 -8101 8173 -8173 8245 -8245 8317 -8317 8389 -8389 8461 -8461 8533 -8533 8605 -8605 8677 -8677 8749 -8749 8821 -8821 8893 -8893 8965 -8965 9037 -9037 9109 -9109 9181 -9181 
38 -38 110 -110 182 -182 254 -254 326 -326 398 -398 470 -470 542 -542 614 -614 686 -686 758 -758 830 -830 902 -902 974 -974 1046 -1046 1118 -1118 1190 -1190 1262 -1262 1334 -1334 1406 -1406 1478 -1478 1550 -1550 1622 -1622 1694 -1694 1766 -1766 1838 -1838 1910 -1910 1982 -1982 2054 -2054 2126 -2126 2198 -2198 2270 -2270 2342 -2342 2414 -2414 2486 -2486 2558 -2558 2630 -2630 2702 -2702 2774 -2774 2846 -2846 2918 -2918 2990 -2990 3062 -3062 3134 -3134 3206 -3206 3278 -3278 3350 -3350 3422 -3422 3494 -3494 3566 -3566 3638 -3638 3710 -3710 3782 -3782 3854 -3854 3926 -3926 3998 -3998 4070 -4070 4142 -4142 4214 -4214 4286 -4286 4358 -4358 4430 -4430 4502 -4502 4574 -4574 4646 -4646 4718 -4718 4790 -4790 4862 -4862 4934 -4934 5006 -5006 5078 -5078 5150 -5150 5222 -5222 5294 -5294 5366 -5366 5438 -5438 5510 -5510 5582 -5582 5654 -5654 5726 -5726 5798 -5798 5870 -5870 5942 -5942 6014 -6014 6086 -6086 6158 -6158 6230 -6230 6302 -6302 6374 -6374 6446 -6446 6518 -6518 6590 -6590 6662 -6662 6734 -6734 6806 -6806 6878 -6878 6950 -6950 7022 -7022 7094 -7094 7166 -7166 7238 -7238 7310 -7310 7382 -7382 7454 -7454 7526 -7526 7598 -7598 7670 -7670 7742 -7742 7814 -7814 7886 -7886 7958 -7958 8030 -8030 8102 -8102 8174 -8174 8246 -8246 8318 -8318 8390 -8390 8462 -8462 8534 -8534 8606 -8606 8678 -8678 8750 -8750 8822 -8822 8894 -8894 8966 -8966 9038 -9038 9110 -9110 9182 -9182 
39 -39 111 -111 183 -183 255 -255 327 -327 399 -399 471 -471 543 -543 615 -615 687 -687 759 -759 831 -831 903 -903 975 -975 1047 -1047 1119 -1119 1191 -1191 1263 -1263 1335 -1335 1407 -1407 1479 -1479 1551 -1551 1623 -1623 1695 -1695 1767 -1767 1839 -1839 1911 -1911 1983 -1983 2055 -2055 2127 -2127 2199 -2199 2271 -2271 2343 -2343 2415 -2415 2487 -2487 2559 -2559 2631 -2631 2703 -2703 2775 -2775 2847 -2847 2919 -2919 2991 -2991 3063 -3063 3135 -3135 3207 -3207 3279 -3279 3351 -3351 3423 -3423 3495 -3495 3567 -3567 3639 -3639 3711 -3711 3783 -3783 3855 -3855 3927 -3927 3999 -3999 4071 -4071 4143 -4143 4215 -4215 4287 -4287 4359 -4359 4431 -4431 4503 -4503 4575 -4575 4647 -4647 4719 -4719 4791 -4791 4863 -4863 4935 -4935 5007 -5007 5079 -5079 5151 -5151 5223 -5223 5295 -5295 5367 -5367 5439 -5439 5511 -5511 5583 -5583 5655 -5655 5727 -5727 5799 -5799 5871 -5871 5943 -5943 6015 -6015 6087 -6087 6159 -6159 6231 -6231 6303 -6303 6375 -6375 6447 -6447 6519 -6519 6591 -6591 6663 -6663 6735 -6735 6807 -6807 6879 -6879 6951 -6951 7023 -7023 7095 -7095 7167 -7167 7239 -7239 7311 -7311 7383 -7383 7455 -7455 7527 -7527 7599 -7599 7671 -7671 7743 -7743 7815 -7815 7887 -7887 7959 -7959 8031 -8031 8103 -8103 8175 -8175 8247 -8247 8319 -8319 8391 -8391 8463 -8463 8535 -8535 8607 -8607 8679 -8679 8751 -8751 8823 -8823 8895 -8895 8967 -8967 9039 -9039 9111 -9111 9183 -9183 
40 -40 112 -112 184 -184 256 -256 328 -328 400 -400 472 -472 544 -544 616 -616 688 -688 760 -760 832 -832 904 -904 976 -976 1048 -1048 1120 -1120 1192 -1192 1264 -1264 1336 -1336 1408 -1408 1480 -1480 1552 -1552 1624 -1624 1696 -1696 1768 -1768 1840 -1840 1912 -1912 1984 -1984 2056 -2056 2128 -2128 2200 -2200 2272 -2272 2344 -2344 2416 -2416 2488 -2488 2560 -2560 2632 -2632 2704 -2704 2776 -2776 2848 -2848 2920 -2920 2992 -2992 3064 -3064 3136 -3136 3208 -3208 3280 -3280 3352 -3352 3424 -3424 3496 -3496 3568 -3568 3640 -3640 3712 -3712 3784 -3784 3856 -3856 3928 -3928 4000 -4000 4072 -4072 4144 -4144 4216 -4216 4288 -4288 4360 -4360 4432 -4432 4504 -4504 4576 -4576 4648 -4648 4720 -4720 4792 -4792 4864 -4864 4936 -4936 5008 -5008 5080 -5080 5152 -5152 5224 -5224 5296 -5296 5368 -5368 5440 -5440 5512 -5512 5584 -5584 5656 -5656 5728 -5728 5800 -5800 5872 -5872 5944 -5944 6016 -6016 6088 -6088 6160 -6160 6232 -6232 6304 -6304 6376 -6376 6448 -6448 6520 -6520 6592 -6592 6664 -6664 6736 -6736 6808 -6808 6880 -6880 6952 -6952 7024 -7024 7096 -7096 7168 -7168 7240 -7240 7312 -7312 7384 -7384 7456 -7456 7528 -7528 7600 -7600 7672 -7672 7744 -7744 7816 -7816 7888 -7888 7960 -7960 8032 -8032 8104 -8104 8176 -8176 8248 -8248 8320 -8320 8392 -8392 8464 -8464 8536 -8536 8608 -8608 8680 -8680 8752 -8752 8824 -8824 8896 -8896 8968 -8968 9040 -9040 9112 -9112 9184 -9184 
41 -41 113 -113 185 -185 257 -257 329 -329 401 -401 473 -473 545 -545 617 -617 689 -689 761 -761 833 -833 905 -905 977 -977 1049 -1049 1121 -1121 1193 -1193 1265 -1265 1337 -1337 1409 -1409 1481 -1481 1553 -1553 1625 -1625 1697 -1697 1769 -1769 1841 -1841 1913 -1913 1985 -1985 2057 -2057 2129 -2129 2201 -2201 2273 -2273 2345 -2345 2417 -2417 2489 -2489 2561 -2561 2633 -2633 2705 -2705 2777 -2777 2849 -2849 2921 -2921 2993 -2993 3065 -3065 3137 -3137 3209 -3209 3281 -3281 3353 -3353 3425 -3425 3497 -3497 3569 -3569 3641 -3641 3713 -3713 3785 -3785 3857 -3857 3929 -3929 4001 -4001 4073 -4073 4145 -4145 4217 -4217 4289 -4289 4361 -4361 4433 -4433 4505 -4505 4577 -4577 4649 -4649 4721 -4721 4793 -4793 4865 -4865 4937 -4937 5009 -5009 5081 -5081 5153 -5153 5225 -5225 5297 -5297 5369 -5369 5441 -5441 5513 -5513 5585 -5585 5657 -5657 5729 -5729 5801 -5801 5873 -5873 5945 -5945 6017 -6017 6089 -6089 6161 -6161 6233 -6233 6305 -6305 6377 -6377 6449 -6449 6521 -6521 6593 -6593 6665 -6665 6737 -6737 6809 -6809 6881 -6881 6953 -6953 7025 -7025 7097 -7097 7169 -7169 7241 -7241 7313 -7313 7385 -7385 7457 -7457 7529 -7529 7601 -7601 7673 -7673 7745 -7745 7817 -7817 7889 -7889 7961 -7961 8033 -8033 8105 -8105 8177 -8177 8249 -8249 8321 -8321 8393 -8393 8465 -8465 8537 -8537 8609 -8609 8681 -8681 8753 -8753 8825 -8825 8897 -8897 8969 -8969 9041 -9041 9113 -9113 9185 -9185 
42 -42 114 -114 186 -186 258 -258 330 -330 402 -402 474 -474 546 -546 618 -618 690 -690 762 -762 834 -834 906 -906 978 -978 1050 -1050 1122 -1122 1194 -1194 1266 -1266 1338 -1338 1410 -1410 1482 -1482 1554 -1554 1626 -1626 1698 -1698 1770 -1770 1842 -1842 1914 -1914 1986 -1986 2058 -2058 2130 -2130 2202 -2202 2274 -2274 2346 -2346 2418 -2418 2490 -2490 2562 -2562 2634 -2634 2706 -2706 2778 -2778 2850 -2850 2922 -2922 2994 -2994 3066 -3066 3138 -3138 3210 -3210 3282 -3282 3354 -3354 3426 -3426 3498 -3498 3570 -3570 3642 -3642 3714 -3714 3786 -3786 3858 -3858 3930 -3930 4002 -4002 4074 -4074 4146 -4146 4218 -4218 4290 -4290 4362 -4362 4434 -4434 4506 -4506 4578 -4578 4650 -4650 4722 -4722 4794 -4794 4866 -4866 4938 -4938 5010 -5010 5082 -5082 5154 -5154 5226 -5226 5298 -5298 5370 -5370 5442 -5442 5514 -5514 5586 -5586 5658 -5658 5730 -5730 5802 -5802 5874 -5874 5946 -5946 6018 -6018 6090 -6090 6162 -6162 6234 -6234 6306 -6306 6378 -6378 6450 -6450 6522 -6522 6594 -6594 6666 -6666 6738 -6738 6810 -6810 6882 -6882 6954 -6954 7026 -7026 7098 -7098 7170 -7170 7242 -7242 7314 -7314 7386 -7386 7458 -7458 7530 -7530 7602 -7602 7674 -7674 7746 -7746 7818 -7818 7890 -7890 7962 -7962 8034 -8034 8106 -8106 8178 -8178 8250 -8250 8322 -8322 8394 -8394 8466 -8466 8538 -8538 8610 -8610 8682 -8682 8754 -8754 8826 -8826 8898 -8898 8970 -8970 9042 -9042 9114 -9114 9186 -9186 
43 -43 115 -115 187 -187 259 -259 331 -331 403 -403 475 -475 547 -547 619 -619 691 -691 763 -763 835 -835 907 -907 979 -979 1051 -1051 1123 -1123 1195 -1195 1267 -1267 1339 -1339 1411 -1411 1483 -1483 1555 -1555 1627 -1627 1699 -1699 1771 -1771 1843 -1843 1915 -1915 1987 -1987 2059 -2059 2131 -2131 2203 -2203 2275 -2275 2347 -2347 2419 -2419 2491 -2491 2563 -2563 2635 -2635 2707 -2707 2779 -2779 2851 -2851 2923 -2923 2995 -2995 3067 -3067 3139 -3139 3211 -3211 3283 -3283 3355 -3355 3427 -3427 3499 -3499 3571 -3571 3643 -3643 3715 -3715 3787 -3787 3859 -3859 3931 -3931 4003 -4003 4075 -4075 4147 -4147 4219 -4219 4291 -4291 4363 -4363 4435 -4435 4507 -4507 4579 -4579 4651 -4651 4723 -4723 4795 -4795 4867 -4867 4939 -4939 5011 -5011 5083 -5083 5155 -5155 5227 -5227 5299 -5299 5371 -5371 5443 -5443 5515 -5515 5587 -5587 5659 -5659 5731 -5731 5803 -5803 5875 -5875 5947 -5947 6019 -6019 6091 -6091 6163 -6163 6235 -6235 6307 -6307 6379 -6379 6451 -6451 6523 -6523 6595 -6595 6667 -6667 6739 -6739 6811 -6811 6883 -6883 6955 -6955 7027 -7027 7099 -7099 7171 -7171 7243 -7243 7315 -7315 7387 -7387 7459 -7459 7531 -7531 7603 -7603 7675 -7675 7747 -7747 7819 -7819 7891 -7891 7963 -7963 8035 -8035 8107 -8107 8179 -8179 8251 -8251 8323 -8323 8395 -8395 8467 -8467 8539 -8539 8611 -8611 8683 -8683 8755 -8755 8827 -8827 8899 -8899 8971 -8971 9043 -9043 9115 -9115 9187 -9187 
44 -44 116 -116 188 -188 260 -260 332 -332 404 -404 476 -476 548 -548 620 -620 692 -692 764 -764 836 -836 908 -908 980 -980 1052 -1052 1124 -1124 1196 -1196 1268 -1268 1340 -1340 1412 -1412 1484 -1484 1556 -1556 1628 -1628 1700 -1700 1772 -1772 1844 -1844 1916 -1916 1988 -1988 2060 -2060 2132 -2132 2204 -2204 2276 -2276 2348 -2348 2420 -2420 2492 -2492 2564 -2564 2636 -2636 2708 -2708 2780 -2780 2852 -2852 2924 -2924 2996 -2996 3068 -3068 3140 -3140 3212 -3212 3284 -3284 3356 -3356 3428 -3428 3500 -3500 3572 -3572 3644 -3644 3716 -3716 3788 -3788 3860 -3860 3932 -3932 4004 -4004 4076 -4076 4148 -4148 4220 -4220 4292 -4292 4364 -4364 4436 -4436 4508 -4508 4580 -4580 4652 -4652 4724 -4724 4796 -4796 4868 -4868 4940 -4940 5012 -5012 5084 -5084 5156 -5156 5228 -5228 5300 -5300 5372 -5372 5444 -5444 5516 -5516 5588 -5588 5660 -5660 5732 -5732 5804 -5804 5876 -5876 5948 -5948 6020 -6020 6092 -6092 6164 -6164 6236 -6236 6308 -6308 6380 -6380 6452 -6452 6524 -6524 6596 -6596 6668 -6668 6740 -6740 6812 -6812 6884 -6884 6956 -6956 7028 -7028 7100 -7100 7172 -7172 7244 -7244 7316 -7316 7388 -7388 7460 -7460 7532 -7532 7604 -7604 7676 -7676 7748 -7748 7820 -7820 7892 -7892 7964 -7964 8036 -8036 8108 -8108 8180 -8180 8252 -8252 8324 -8324 8396 -8396 8468 -8468 8540 -8540 8612 -8612 8684 -8684 8756 -8756 8828 -8828 8900 -8900 8972 -8972 9044 -9044 9116 -9116 9188 -9188 
45 -45 117 -117 189 -189 261 -261 333 -333 405 -405 477 -477 549 -549 621 -621 693 -693 765 -765 837 -837 909 -909 981 -981 1053 -1053 1125 -1125 1197 -1197 1269 -1269 1341 -1341 1413 -1413 1485 -1485 1557 -1557 1629 -1629 1701 -1701 1773 -1773 1845 -1845 1917 -1917 1989 -1989 2061 -2061 2133 -2133 2205 -2205 2277 -2277 2349 -2349 2421 -2421 2493 -2493 2565 -2565 2637 -2637 2709 -2709 2781 -2781 2853 -2853 2925 -2925 2997 -2997 3069 -3069 3141 -3141 3213 -3213 3285 -3285 3357 -3357 3429 -3429 3501 -3501 3573 -3573 3645 -3645 3717 -3717 3789 -3789 3861 -3861 3933 -3933 4005 -4005 4077 -4077 4149 -4149 4221 -4221 4293 -4293 4365 -4365 4437 -4437 4509 -4509 4581 -4581 4653 -4653 4725 -4725 4797 -4797 4869 -4869 4941 -4941 5013 -5013 5085 -5085 5157 -5157 5229 -5229 5301 -5301 5373 -5373 5445 -5445 5517 -5517 5589 -5589 5661 -5661 5733 -5733 5805 -5805 5877 -5877 5949 -5949 6021 -6021 6093 -6093 6165 -6165 6237 -6237 6309 -6309 6381 -6381 6453 -6453 6525 -6525 6597 -6597 6669 -6669 6741 -6741 6813 -6813 6885 -6885 6957 -6957 7029 -7029 7101 -7101 7173 -7173 7245 -7245 7317 -7317 7389 -7389 7461 -7461 7533 -7533 7605 -7605 7677 -7677 7749 -7749 7821 -7821 7893 -7893 7965 -7965 8037 -8037 8109 -8109 8181 -8181 8253 -8253 8325 -8325 8397 -8397 8469 -8469 8541 -8541 8613 -8613 8685 -8685 8757 -8757 8829 -8829 8901 -8901 8973 -8973 9045 -9045 9117 -9117 9189 -9189 
46 -46 118 -118 190 -190 262 -262 334 -334 406 -406 478 -478 550 -550 622 -622 694 -694 766 -766 838 -838 910 -910 982 -982 1054 -1054 1126 -1126 1198 -1198 1270 -1270 1342 -1342 1414 -1414 1486 -1486 1558 -1558 1630 -1630 1702 -1702 1774 -1774 1846 -1846 1918 -1918 1990 -1990 2062 -2062 2134 -2134 2206 -2206 2278 -2278 2350 -2350 2422 -2422 2494 -2494 2566 -2566 2638 -2638 2710 -2710 2782 -2782 2854 -2854 2926 -2926 2998 -2998 3070 -3070 3142 -3142 3214 -3214 3286 -3286 3358 -3358 3430 -3430 3502 -3502 3574 -3574 3646 -3646 3718 -3718 3790 -3790 3862 -3862 3934 -3934 4006 -4006 4078 -4078 4150 -4150 4222 -4222 4294 -4294 4366 -4366 4438 -4438 4510 -4510 4582 -4582 4654 -4654 4726 -4726 4798 -4798 4870 -4870 4942 -4942 5014 -5014 5086 -5086 5158 -5158 5230 -5230 5302 -5302 5374 -5374 5446 -5446 5518 -5518 5590 -5590 5662 -5662 5734 -5734 5806 -5806 5878 -5878 5950 -5950 6022 -6022 6094 -6094 6166 -6166 6238 -6238 6310 -6310 6382 -6382 6454 -6454 6526 -6526 6598 -6598 6670 -6670 6742 -6742 6814 -6814 6886 -6886 6958 -6958 7030 -7030 7102 -7102 7174 -7174 7246 -7246 7318 -7318 7390 -7390 7462 -7462 7534 -7534 7606 -7606 7678 -7678 7750 -7750 7822 -7822 7894 -7894 7966 -7966 8038 -8038 8110 -8110 8182 -8182 8254 -8254 8326 -8326 8398 -8398 8470 -8470 8542 -8542 8614 -8614 8686 -8686 8758 -8758 8830 -8830 8902 -8902 8974 -8974 9046 -9046 9118 -9118 9190 -9190 
47 -47 119 -119 191 -191 263 -263 335 -335 407 -407 479 -479 551 -551 623 -623 695 -695 767 -767 839 -839 911 -911 983 -983 1055 -1055 1127 -1127 1199 -1199 1271 -1271 1343 -1343 1415 -1415 1487 -1487 1559 -1559 1631 -1631 1703 -1703 1775 -1775 1847 -1847 1919 -1919 1991 -1991 2063 -2063 2135 -2135 2207 -2207 2279 -2279 2351 -2351 2423 -2423 2495 -2495 2567 -2567 2639 -2639 2711 -2711 2783 -2783 2855 -2855 2927 -2927 2999 -2999 3071 -3071 3143 -3143 3215 -3215 3287 -3287 3359 -3359 3431 -3431 3503 -3503 3575 -3575 3647 -3647 3719 -3719 3791 -3791 3863 -3863 3935 -3935 4007 -4007 4079 -4079 4151 -4151 4223 -4223 4295 -4295 4367 -4367 4439 -4439 4511 -4511 4583 -4583 4655 -4655 4727 -4727 4799 -4799 4871 -4871 4943 -4943 5015 -5015 5087 -5087 5159 -5159 5231 -5231 5303 -5303 5375 -5375 5447 -5447 5519 -5519 5591 -5591 5663 -5663 5735 -5735 5807 -5807 5879 -5879 5951 -5951 6023 -6023 6095 -6095 6167 -6167 6239 -6239 6311 -6311 6383 -6383 6455 -6455 6527 -6527 6599 -6599 6671 -6671 6743 -6743 6815 -6815 6887 -6887 6959 -6959 7031 -7031 7103 -7103 7175 -7175 7247 -7247 7319 -7319 7391 -7391 7463 -7463 7535 -7535 7607 -7607 7679 -7679 7751 -7751 7823 -7823 7895 -7895 7967 -7967 8039 -8039 8111 -8111 8183 -8183 8255 -8255 8327 -8327 8399 -8399 8471 -8471 8543 -8543 8615 -8615 8687 -8687 8759 -8759 8831 -8831 8903 -8903 8975 -8975 9047 -9047 9119 -9119 9191 -9191 
48 -48 120 -120 192 -192 264 -264 336 -336 408 -408 480 -480 552 -552 624 -624 696 -696 768 -768 840 -840 912 -912 984 -984 1056 -1056 1128 -1128 1200 -1200 1272 -1272 1344 -1344 1416 -1416 1488 -1488 1560 -1560 1632 -1632 1704 -1704 1776 -1776 1848 -1848 1920 -1920 1992 -1992 2064 -2064 2136 -2136 2208 -2208 2280 -2280 2352 -2352 2424 -2424 2496 -2496 2568 -2568 2640 -2640 2712 -2712 2784 -2784 2856 -2856 2928 -2928 3000 -3000 3072 -3072 3144 -3144 3216 -3216 3288 -3288 3360 -3360 3432 -3432 3504 -3504 3576 -3576 3648 -3648 3720 -3720 3792 -3792 3864 -3864 3936 -3936 4008 -4008 4080 -4080 4152 -4152 4224 -4224 4296 -4296 4368 -4368 4440 -4440 4512 -4512 4584 -4584 4656 -4656 4728 -4728 4800 -4800 4872 -4872 4944 -4944 5016 -5016 5088 -5088 5160 -5160 5232 -5232 5304 -5304 5376 -5376 5448 -5448 5520 -5520 5592 -5592 5664 -5664 5736 -5736 5808 -5808 5880 -5880 5952 -5952 6024 -6024 6096 -6096 6168 -6168 6240 -6240 6312 -6312 6384 -6384 6456 -6456 6528 -6528 6600 -6600 6672 -6672 6744 -6744 6816 -6816 6888 -6888 6960 -6960 7032 -7032 7104 -7104 7176 -7176 7248 -7248 7320 -7320 7392 -7392 7464 -7464 7536 -7536 7608 -7608 7680 -7680 7752 -7752 7824 -7824 7896 -7896 7968 -7968 8040 -8040 8112 -8112 8184 -8184 8256 -8256 8328 -8328 8400 -8400 8472 -8472 8544 -8544 8616 -8616 8688 -8688 8760 -8760 8832 -8832 8904 -8904 8976 -8976 9048 -9048 9120 -9120 9192 -9192 
49 -49 121 -121 193 -193 265 -265 337 -337 409 -409 481 -481 553 -553 625 -625 697 -697 769 -769 841 -841 913 -913 985 -985 1057 -1057 1129 -1129 1201 -1201 1273 -1273 1345 -1345 1417 -1417 1489 -1489 1561 -1561 1633 -1633 1705 -1705 1777 -1777 1849 -1849 1921 -1921 1993 -1993 2065 -2065 2137 -2137 2209 -2209 2281 -2281 2353 -2353 2425 -2425 2497 -2497 2569 -2569 2641 -2641 2713 -2713 2785 -2785 2857 -2857 2929 -2929 3001 -3001 3073 -3073 3145 -3145 3217 -3217 3289 -3289 3361 -3361 3433 -3433 3505 -3505 3577 -3577 3649 -3649 3721 -3721 3793 -3793 3865 -3865 3937 -3937 4009 -4009 4081 -4081 4153 -4153 4225 -4225 4297 -4297 4369 -4369 4441 -4441 4513 -4513 4585 -4585 4657 -4657 4729 -4729 4801 -4801 4873 -4873 4945 -4945 5017 -5017 5089 -5089 5161 -5161 5233 -5233 5305 -5305 5377 -5377 5449 -5449 5521 -5521 5593 -5593 5665 -5665 5737 -5737 5809 -5809 5881 -5881 5953 -5953 6025 -6025 6097 -6097 6169 -6169 6241 -6241 6313 -6313 6385 -6385 6457 -6457 6529 -6529 6601 -6601 6673 -6673 6745 -6745 6817 -6817 6889 -6889 6961 -6961 7033 -7033 7105 -7105 7177 -7177 7249 -7249 7321 -7321 7393 -7393 7465 -7465 7537 -7537 7609 -7609 7681 -7681 7753 -7753 7825 -7825 7897 -7897 7969 -7969 8041 -8041 8113 -8113 8185 -8185 8257 -8257 8329 -8329 8401 -8401 8473 -8473 8545 -8545 8617 -8617 8689 -8689 8761 -8761 8833 -8833 8905 -8905 8977 -8977 9049 -9049 9121 -9121 9193 -9193 
50 -50 122 -122 194 -194 266 -266 338 -338 410 -410 482 -482 554 -554 626 -626 698 -698 770 -770 842 -842 914 -914 986 -986 1058 -1058 1130 -1130 1202 -1202 1274 -1274 1346 -1346 1418 -1418 1490 -1490 1562 -1562 1634 -1634 1706 -1706 1778 -1778 1850 -1850 1922 -1922 1994 -1994 2066 -2066 2138 -2138 2210 -2210 2282 -2282 2354 -2354 2426 -2426 2498 -2498 2570 -2570 2642 -2642 2714 -2714 2786 -2786 2858 -2858 2930 -2930 3002 -3002 3074 -3074 3146 -3146 3218 -3218 3290 -3290 3362 -3362 3434 -3434 3506 -3506 3578 -3578 3650 -3650 3722 -3722 3794 -3794 3866 -3866 3938 -3938 4010 -4010 4082 -4082 4154 -4154 4226 -4226 4298 -4298 4370 -4370 4442 -4442 4514 -4514 4586 -4586 4658 -4658 4730 -4730 4802 -4802 4874 -4874 4946 -4946 5018 -5018 5090 -5090 5162 -5162 5234 -5234 5306 -5306 5378 -5378 5450 -5450 5522 -5522 5594 -5594 5666 -5666 5738 -5738 5810 -5810 5882 -5882 5954 -5954 6026 -6026 6098 -6098 6170 -6170 6242 -6242 6314 -6314 6386 -6386 6458 -6458 6530 -6530 6602 -6602 6674 -6674 6746 -6746 6818 -6818 6890 -6890 6962 -6962 7034 -7034 7106 -7106 7178 -7178 7250 -7250 7322 -7322 7394 -7394 7466 -7466 7538 -7538 7610 -7610 7682 -7682 7754 -7754 7826 -7826 7898 -7898 7970 -7970 8042 -8042 8114 -8114 8186 -8186 8258 -8258 8330 -8330 8402 -8402 8474 -8474 8546 -8546 8618 -8618 8690 -8690 8762 -8762 8834 -8834 8906 -8906 8978 -8978 9050 -9050 9122 -9122 9194 -9194 
51 -51 123 -123 195 -195 267 -267 339 -339 411 -411 483 -483 555 -555 627 -627 699 -699 771 -771 843 -843 915 -915 987 -987 1059 -1059 1131 -1131 1203 -1203 1275 -1275 1347 -1347 1419 -1419 1491 -1491 1563 -1563 1635 -1635 1707 -1707 1779 -1779 1851 -1851 1923 -1923 1995 -1995 2067 -2067 2139 -2139 2211 -2211 2283 -2283 2355 -2355 2427 -2427 2499 -2499 2571 -2571 2643 -2643 2715 -2715 2787 -2787 2859 -2859 2931 -2931 3003 -3003 3075 -3075 3147 -3147 3219 -3219 3291 -3291 3363 -3363 3435 -3435 3507 -3507 3579 -3579 3651 -3651 3723 -3723 3795 -3795 3867 -3867 3939 -3939 4011 -4011 4083 -4083 4155 -4155 4227 -4227 4299 -4299 4371 -4371 4443 -4443 4515 -4515 4587 -4587 4659 -4659 4731 -4731 4803 -4803 4875 -4875 4947 -4947 5019 -5019 5091 -5091 5163 -5163 5235 -5235 5307 -5307 5379 -5379 5451 -5451 5523 -5523 5595 -5595 5667 -5667 5739 -5739 5811 -5811 5883 -5883 5955 -5955 6027 -6027 6099 -6099 6171 -6171 6243 -6243 6315 -6315 6387 -6387 6459 -6459 6531 -6531 6603 -6603 6675 -6675 6747 -6747 6819 -6819 6891 -6891 6963 -6963 7035 -7035 7107 -7107 7179 -7179 7251 -7251 7323 -7323 7395 -7395 7467 -7467 7539 -7539 7611 -7611 7683 -7683 7755 -7755 7827 -7827 7899 -7899 7971 -7971 8043 -8043 8115 -8115 8187 -8187 8259 -8259 8331 -8331 8403 -8403 8475 -8475 8547 -8547 8619 -8619 8691 -8691 8763 -8763 8835 -8835 8907 -8907 8979 -8979 9051 -9051 9123 -9123 9195 -9195 
52 -52 124 -124 196 -196 268 -268 340 -340 412 -412 484 -484 556 -556 628 -628 700 -700 772 -772 844 -844 916 -916 988 -988 1060 -1060 1132 -1132 1204 -1204 1276 -1276 1348 -1348 1420 -1420 1492 -1492 1564 -1564 1636 -1636 1708 -1708 1780 -1780 1852 -1852 1924 -1924 1996 -1996 2068 -2068 2140 -2140 2212 -2212 2284 -2284 2356 -2356 2428 -2428 2500 -2500 2572 -2572 2644 -2644 2716 -2716 2788 -2788 2860 -2860 2932 -2932 3004 -3004 3076 -3076 3148 -3148 3220 -3220 3292 -3292 3364 -3364 3436 -3436 3508 -3508 3580 -3580 3652 -3652 3724 -3724 3796 -3796 3868 -3868 3940 -3940 4012 -4012 4084 -4084 4156 -4156 4228 -4228 4300 -4300 4372 -4372 4444 -4444 4516 -4516 4588 -4588 4660 -4660 4732 -4732 4804 -4804 4876 -4876 4948 -4948 5020 -5020 5092 -5092 5164 -5164 5236 -5236 5308 -5308 5380 -5380 5452 -5452 5524 -5524 5596 -5596 5668 -5668 5740 -5740 5812 -5812 5884 -5884 5956 -5956 6028 -6028 6100 -6100 6172 -6172 6244 -6244 6316 -6316 6388 -6388 6460 -6460 6532 -6532 6604 -6604 6676 -6676 6748 -6748 6820 -6820 6892 -6892 6964 -6964 7036 -7036 7108 -7108 7180 -7180 7252 -7252 7324 -7324 7396 -7396 7468 -7468 7540 -7540 7612 -7612 7684 -7684 7756 -7756 7828 -7828 7900 -7900 7972 -7972 8044 -8044 8116 -8116 8188 -8188 8260 -8260 8332 -8332 8404 -8404 8476 -8476 8548 -8548 8620 -8620 8692 -8692 8764 -8764 8836 -8836 8908 -8908 8980 -8980 9052 -9052 9124 -9124 9196 -9196 
53 -53 125 -125 197 -197 269 -269 341 -341 413 -413 485 -485 557 -557 629 -629 701 -701 773 -773 845 -845 917 -917 989 -989 1061 -1061 1133 -1133 1205 -1205 1277 -1277 1349 -1349 1421 -1421 1493 -1493 1565 -1565 1637 -1637 1709 -1709 1781 -1781 1853 -1853 1925 -1925 1997 -1997 2069 -2069 2141 -2141 2213 -2213 2285 -2285 2357 -2357 2429 -2429 2501 -2501 2573 -2573 2645 -2645 2717 -2717 2789 -2789 2861 -2861 2933 -2933 3005 -3005 3077 -3077 3149 -3149 3221 -3221 3293 -3293 3365 -3365 3437 -3437 3509 -3509 3581 -3581 3653 -3653 3725 -3725 3797 -3797 3869 -3869 3941 -3941 4013 -4013 4085 -4085 4157 -4157 4229 -4229 4301 -4301 4373 -4373 4445 -4445 4517 -4517 4589 -4589 4661 -4661 4733 -4733 4805 -4805 4877 -4877 4949 -4949 5021 -5021 5093 -5093 5165 -5165 5237 -5237 5309 -5309 5381 -5381 5453 -5453 5525 -5525 5597 -5597 5669 -5669 5741 -5741 5813 -5813 5885 -5885 5957 -5957 6029 -6029 6101 -6101 6173 -6173 6245 -6245 6317 -6317 6389 -6389 6461 -6461 6533 -6533 6605 -6605 6677 -6677 6749 -6749 6821 -6821 6893 -6893 6965 -6965 7037 -7037 7109 -7109 7181 -7181 7253 -7253 7325 -7325 7397 -7397 7469 -7469 7541 -7541 7613 -7613 7685 -7685 7757 -7757 7829 -7829 7901 -7901 7973 -7973 8045 -8045 8117 -8117 8189 -8189 8261 -8261 8333 -8333 8405 -8405 8477 -8477 8549 -8549 8621 -8621 8693 -8693 8765 -8765 8837 -8837 8909 -8909 8981 -8981 9053 -9053 9125 -9125 9197 -9197 
54 -54 126 -126 198 -198 270 -270 342 -342 414 -414 486 -486 558 -558 630 -630 702 -702 774 -774 846 -846 918 -918 990 -990 1062 -1062 1134 -1134 1206 -1206 1278 -1278 1350 -1350 1422 -1422 1494 -1494 1566 -1566 1638 -1638 1710 -1710 1782 -1782 1854 -1854 1926 -1926 1998 -1998 2070 -2070 2142 -2142 2214 -2214 2286 -2286 2358 -2358 2430 -2430 2502 -2502 2574 -2574 2646 -2646 2718 -2718 2790 -2790 2862 -2862 2934 -2934 3006 -3006 3078 -3078 3150 -3150 3222 -3222 3294 -3294 3366 -3366 3438 -3438 3510 -3510 3582 -3582 3654 -3654 3726 -3726 3798 -3798 3870 -3870 3942 -3942 4014 -4014 4086 -4086 4158 -4158 4230 -4230 4302 -4302 4374 -4374 4446 -4446 4518 -4518 4590 -4590 4662 -4662 4734 -4734 4806 -4806 4878 -4878 4950 -4950 5022 -5022 5094 -5094 5166 -5166 5238 -5238 5310 -5310 5382 -5382 5454 -5454 5526 -5526 5598 -5598 5670 -5670 5742 -5742 5814 -5814 5886 -5886 5958 -5958 6030 -6030 6102 -6102 6174 -6174 6246 -6246 6318 -6318 6390 -6390 6462 -6462 6534 -6534 6606 -6606 6678 -6678 6750 -6750 6822 -6822 6894 -6894 6966 -6966 7038 -7038 7110 -7110 7182 -7182 7254 -7254 7326 -7326 7398 -7398 7470 -7470 7542 -7542 7614 -7614 7686 -7686 7758 -7758 7830 -7830 7902 -7902 7974 -7974 8046 -8046 8118 -8118 8190 -8190 8262 -8262 8334 -8334 8406 -8406 8478 -8478 8550 -8550 8622 -8622 8694 -8694 8766 -8766 8838 -8838 8910 -8910 8982 -8982 9054 -9054 9126 -9126 9198 -9198 
55 -55 127 -127 199 -199 271 -271 343 -343 415 -415 487 -487 559 -559 631 -631 703 -703 775 -775 847 -847 919 -919 991 -991 1063 -1063 1135 -1135 1207 -1207 1279 -1279 1351 -1351 1423 -1423 1495 -1495 1567 -1567 1639 -1639 1711 -1711 1783 -1783 1855 -1855 1927 -1927 1999 -1999 2071 -2071 2143 -2143 2215 -2215 2287 -2287 2359 -2359 2431 -2431 2503 -2503 2575 -2575 2647 -2647 2719 -2719 2791 -2791 2863 -2863 2935 -2935 3007 -3007 3079 -3079 3151 -3151 3223 -3223 3295 -3295 3367 -3367 3439 -3439 3511 -3511 3583 -3583 3655 -3655 3727 -3727 3799 -3799 3871 -3871 3943 -3943 4015 -4015 4087 -4087 4159 -4159 4231 -4231 4303 -4303 4375 -4375 4447 -4447 4519 -4519 4591 -4591 4663 -4663 4735 -4735 4807 -4807 4879 -4879 4951 -4951 5023 -5023 5095 -5095 5167 -5167 5239 -5239 5311 -5311 5383 -5383 5455 -5455 5527 -5527 5599 -5599 5671 -5671 5743 -5743 5815 -5815 5887 -5887 5959 -5959 6031 -6031 6103 -6103 6175 -6175 6247 -6247 6319 -6319 6391 -6391 6463 -6463 6535 -6535 6607 -6607 6679 -6679 6751 -6751 6823 -6823 6895 -6895 6967 -6967 7039 -7039 7111 -7111 7183 -7183 7255 -7255 7327 -7327 7399 -7399 7471 -7471 7543 -7543 7615 -7615 7687 -7687 7759 -7759 7831 -7831 7903 -7903 7975 -7975 8047 -8047 8119 -8119 8191 -8191 8263 -8263 8335 -8335 8407 -8407 8479 -8479 8551 -8551 8623 -8623 8695 -8695 8767 -8767 8839 -8839 8911 -8911 8983 -8983 9055 -9055 9127 -9127 9199 -9199 
56 -56 128 -128 200 -200 272 -272 344 -344 416 -416 488 -488 560 -560 632 -632 704 -704 776 -776 848 -848 920 -920 992 -992 1064 -1064 1136 -1136 1208 -1208 1280 -1280 1352 -1352 1424 -1424 1496 -1496 1568 -1568 1640 -1640 1712 -1712 1784 -1784 1856 -1856 1928 -1928 2000 -2000 2072 -2072 2144 -2144 2216 -2216 2288 -2288 2360 -2360 2432 -2432 2504 -2504 2576 -2576 2648 -2648 2720 -2720 2792 -2792 2864 -2864 2936 -2936 3008 -3008 3080 -3080 3152 -3152 3224 -3224 3296 -3296 3368 -3368 3440 -3440 3512 -3512 3584 -3584 3656 -3656 3728 -3728 3800 -3800 3872 -3872 3944 -3944 4016 -4016 4088 -4088 4160 -4160 4232 -4232 4304 -4304 4376 -4376 4448 -4448 4520 -4520 4592 -4592 4664 -4664 4736 -4736 4808 -4808 4880 -4880 4952 -4952 5024 -5024 5096 -5096 5168 -5168 5240 -5240 5312 -5312 5384 -5384 5456 -5456 5528 -5528 5600 -5600 5672 -5672 5744 -5744 5816 -5816 5888 -5888 5960 -5960 6032 -6032 6104 -6104 6176 -6176 6248 -6248 6320 -6320 6392 -6392 6464 -6464 6536 -6536 6608 -6608 6680 -6680 6752 -6752 6824 -6824 6896 -6896 6968 -6968 7040 -7040 7112 -7112 7184 -7184 7256 -7256 7328 -7328 7400 -7400 7472 -7472 7544 -7544 7616 -7616 7688 -7688 7760 -7760 7832 -7832 7904 -7904 7976 -7976 8048 -8048 8120 -8120 8192 -8192 8264 -8264 8336 -8336 8408 -8408 8480 -8480 8552 -8552 8624 -8624 8696 -8696 8768 -8768 8840 -8840 8912 -8912 8984 -8984 9056 -9056 9128 -9128 9200 -9200 
57 -57 129 -129 201 -201 273 -273 345 -345 417 -417 489 -489 561 -561 633 -633 705 -705 777 -777 849 -849 921 -921 993 -993 1065 -1065 1137 -1137 1209 -1209 1281 -1281 1353 -1353 1425 -1425 1497 -1497 1569 -1569 1641 -1641 1713 -1713 1785 -1785 1857 -1857 1929 -1929 2001 -2001 2073 -2073 2145 -2145 2217 -2217 2289 -2289 2361 -2361 2433 -2433 2505 -2505 2577 -2577 2649 -2649 2721 -2721 2793 -2793 2865 -2865 2937 -2937 3009 -3009 3081 -3081 3153 -3153 3225 -3225 3297 -3297 3369 -3369 3441 -3441 3513 -3513 3585 -3585 3657 -3657 3729 -3729 3801 -3801 3873 -3873 3945 -3945 4017 -4017 4089 -4089 4161 -4161 4233 -4233 4305 -4305 4377 -4377 4449 -4449 4521 -4521 4593 -4593 4665 -4665 4737 -4737 4809 -4809 4881 -4881 4953 -4953 5025 -5025 5097 -5097 5169 -5169 5241 -5241 5313 -5313 5385 -5385 5457 -5457 5529 -5529 5601 -5601 5673 -5673 5745 -5745 5817 -5817 5889 -5889 5961 -5961 6033 -6033 6105 -6105 6177 -6177 6249 -6249 6321 -6321 6393 -6393 6465 -6465 6537 -6537 6609 -6609 6681 -6681 6753 -6753 6825 -6825 6897 -6897 6969 -6969 7041 -7041 7113 -7113 7185 -7185 7257 -7257 7329 -7329 7401 -7401 7473 -7473 7545 -7545 7617 -7617 7689 -7689 7761 -7761 7833 -7833 7905 -7905 7977 -7977 8049 -8049 8121 -8121 8193 -8193 8265 -8265 8337 -8337 8409 -8409 8481 -8481 8553 -8553 8625 -8625 8697 -8697 8769 -8769 8841 -8841 8913 -8913 8985 -8985 9057 -9057 9129 -9129 9201 -9201 
58 -58 130 -130 202 -202 274 -274 346 -346 418 -418 490 -490 562 -562 634 -634 706 -706 778 -778 850 -850 922 -922 994 -994 1066 -1066 1138 -1138 1210 -1210 1282 -1282 1354 -1354 1426 -1426 1498 -1498 1570 -1570 1642 -1642 1714 -1714 1786 -1786 1858 -1858 1930 -1930 2002 -2002 2074 -2074 2146 -2146 2218 -2218 2290 -2290 2362 -2362 2434 -2434 2506 -2506 2578 -2578 2650 -2650 2722 -2722 2794 -2794 2866 -2866 2938 -2938 3010 -3010 3082 -3082 3154 -3154 3226 -3226 3298 -3298 3370 -3370 3442 -3442 3514 -3514 3586 -3586 3658 -3658 3730 -3730 3802 -3802 3874 -3874 3946 -3946 4018 -4018 4090 -4090 4162 -4162 4234 -4234 4306 -4306 4378 -4378 4450 -4450 4522 -4522 4594 -4594 4666 -4666 4738 -4738 4810 -4810 4882 -4882 4954 -4954 5026 -5026 5098 -5098 5170 -5170 5242 -5242 5314 -5314 5386 -5386 5458 -5458 5530 -5530 5602 -5602 5674 -5674 5746 -5746 5818 -5818 5890 -5890 5962 -5962 6034 -6034 6106 -6106 6178 -6178 6250 -6250 6322 -6322 6394 -6394 6466 -6466 6538 -6538 6610 -6610 6682 -6682 6754 -6754 6826 -6826 6898 -6898 6970 -6970 7042 -7042 7114 -7114 7186 -7186 7258 -7258 7330 -7330 7402 -7402 7474 -7474 7546 -7546 7618 -7618 7690 -7690 7762 -7762 7834 -7834 7906 -7906 7978 -7978 8050 -8050 8122 -8122 8194 -8194 8266 -8266 8338 -8338 8410 -8410 8482 -8482 8554 -8554 8626 -8626 8698 -8698 8770 -8770 8842 -8842 8914 -8914 8986 -8986 9058 -9058 9130 -9130 9202 -9202 
59 -59 131 -131 203 -203 275 -275 347 -347 419 -419 491 -491 563 -563 635 -635 707 -707 779 -779 851 -851 923 -923 995 -995 1067 -1067 1139 -1139 1211 -1211 1283 -1283 1355 -1355 1427 -1427 1499 -1499 1571 -1571 1643 -1643 1715 -1715 1787 -1787 1859 -1859 1931 -1931 2003 -2003 2075 -2075 2147 -2147 2219 -2219 2291 -2291 2363 -2363 2435 -2435 2507 -2507 2579 -2579 2651 -2651 2723 -2723 2795 -2795 2867 -2867 2939 -2939 3011 -3011 3083 -3083 3155 -3155 3227 -3227 3299 -3299 3371 -3371 3443 -3443 3515 -3515 3587 -3587 3659 -3659 3731 -3731 3803 -3803 3875 -3875 3947 -3947 4019 -4019 4091 -4091 4163 -4163 4235 -4235 4307 -4307 4379 -4379 4451 -4451 4523 -4523 4595 -4595 4667 -4667 4739 -4739 4811 -4811 4883 -4883 4955 -4955 5027 -5027 5099 -5099 5171 -5171 5243 -5243 5315 -5315 5387 -5387 5459 -5459 5531 -5531 5603 -5603 5675 -5675 5747 -5747 5819 -5819 5891 -5891 5963 -5963 6035 -6035 6107 -6107 6179 -6179 6251 -6251 6323 -6323 6395 -6395 6467 -6467 6539 -6539 6611 -6611 6683 -6683 6755 -6755 6827 -6827 6899 -6899 6971 -6971 7043 -7043 7115 -7115 7187 -7187 7259 -7259 7331 -7331 7403 -7403 7475 -7475 7547 -7547 7619 -7619 7691 -7691 7763 -7763 7835 -7835 7907 -7907 7979 -7979 8051 -8051 8123 -8123 8195 -8195 8267 -8267 8339 -8339 8411 -8411 8483 -8483 8555 -8555 8627 -8627 8699 -8699 8771 -8771 8843 -8843 8915 -8915 8987 -8987 9059 -9059 9131 -9131 9203 -9203 
60 -60 132 -132 204 -204 276 -276 348 -348 420 -420 492 -492 564 -564 636 -636 708 -708 780 -780 852 -852 924 -924 996 -996 1068 -1068 1140 -1140 1212 -1212 1284 -1284 1356 -1356 1428 -1428 1500 -1500 1572 -1572 1644 -1644 1716 -1716 1788 -1788 1860 -1860 1932 -1932 2004 -2004 2076 -2076 2148 -2148 2220 -2220 2292 -2292 2364 -2364 2436 -2436 2508 -2508 2580 -2580 2652 -2652 2724 -2724 2796 -2796 2868 -2868 2940 -2940 3012 -3012 3084 -3084 3156 -3156 3228 -3228 3300 -3300 3372 -3372 3444 -3444 3516 -3516 3588 -3588 3660 -3660 3732 -3732 3804 -3804 3876 -3876 3948 -3948 4020 -4020 4092 -4092 4164 -4164 4236 -4236 4308 -4308 4380 -4380 4452 -4452 4524 -4524 4596 -4596 4668 -4668 4740 -4740 4812 -4812 4884 -4884 4956 -4956 5028 -5028 5100 -5100 5172 -5172 5244 -5244 5316 -5316 5388 -5388 5460 -5460 5532 -5532 5604 -5604 5676 -5676 5748 -5748 5820 -5820 5892 -5892 5964 -5964 6036 -6036 6108 -6108 6180 -6180 6252 -6252 6324 -6324 6396 -6396 6468 -6468 6540 -6540 6612 -6612 6684 -6684 6756 -6756 6828 -6828 6900 -6900 6972 -6972 7044 -7044 7116 -7116 7188 -7188 7260 -7260 7332 -7332 7404 -7404 7476 -7476 7548 -7548 7620 -7620 7692 -7692 7764 -7764 7836 -7836 7908 -7908 7980 -7980 8052 -8052 8124 -8124 8196 -8196 8268 -8268 8340 -8340 8412 -8412 8484 -8484 8556 -8556 8628 -8628 8700 -8700 8772 -8772 8844 -8844 8916 -8916 8988 -8988 9060 -9060 9132 -9132 9204 -9204 
61 -61 133 -133 205 -205 277 -277 349 -349 421 -421 493 -493 565 -565 637 -637 709 -709 781 -781 853 -853 925 -925 997 -997 1069 -1069 1141 -1141 1213 -1213 1285 -1285 1357 -1357 1429 -1429 1501 -1501 1573 -1573 1645 -1645 1717 -1717 1789 -1789 1861 -1861 1933 -1933 2005 -2005 2077 -2077 2149 -2149 2221 -2221 2293 -2293 2365 -2365 2437 -2437 2509 -2509 2581 -2581 2653 -2653 2725 -2725 2797 -2797 2869 -2869 2941 -2941 3013 -3013 3085 -3085 3157 -3157 3229 -3229 3301 -3301 3373 -3373 3445 -3445 3517 -3517 3589 -3589 3661 -3661 3733 -3733 3805 -3805 3877 -3877 3949 -3949 4021 -4021 4093 -4093 4165 -4165 4237 -4237 4309 -4309 4381 -4381 4453 -4453 4525 -4525 4597 -4597 4669 -4669 4741 -4741 4813 -4813 4885 -4885 4957 -4957 5029 -5029 5101 -5101 5173 -5173 5245 -5245 5317 -5317 5389 -5389 5461 -5461 5533 -5533 5605 -5605 5677 -5677 5749 -5749 5821 -5821 5893 -5893 5965 -5965 6037 -6037 6109 -6109 6181 -6181 6253 -6253 6325 -6325 6397 -6397 6469 -6469 6541 -6541 6613 -6613 6685 -6685 6757 -6757 6829 -6829 6901 -6901 6973 -6973 7045 -7045 7117 -7117 7189 -7189 7261 -7261 7333 -7333 7405 -7405 7477 -7477 7549 -7549 7621 -7621 7693 -7693 7765 -7765 7837 -7837 7909 -7909 7981 -7981 8053 -8053 8125 -8125 8197 -8197 8269 -8269 8341 -8341 8413 -8413 8485 -8485 8557 -8557 8629 -8629 8701 -8701 8773 -8773 8845 -8845 8917 -8917 8989 -8989 9061 -9061 9133 -9133 9205 -9205 
62 -62 134 -134 206 -206 278 -278 350 -350 422 -422 494 -494 566 -566 638 -638 710 -710 782 -782 854 -854 926 -926 998 -998 1070 -1070 1142 -1142 1214 -1214 1286 -1286 1358 -1358 1430 -1430 1502 -1502 1574 -1574 1646 -1646 1718 -1718 1790 -1790 1862 -1862 1934 -1934 2006 -2006 2078 -2078 2150 -2150 2222 -2222 2294 -2294 2366 -2366 2438 -2438 2510 -2510 2582 -2582 2654 -2654 2726 -2726 2798 -2798 2870 -2870 2942 -2942 3014 -3014 3086 -3086 3158 -3158 3230 -3230 3302 -3302 3374 -3374 3446 -3446 3518 -3518 3590 -3590 3662 -3662 3734 -3734 3806 -3806 3878 -3878 3950 -3950 4022 -4022 4094 -4094 4166 -4166 4238 -4238 4310 -4310 4382 -4382 4454 -4454 4526 -4526 4598 -4598 4670 -4670 4742 -4742 4814 -4814 4886 -4886 4958 -4958 5030 -5030 5102 -5102 5174 -5174 5246 -5246 5318 -5318 5390 -5390 5462 -5462 5534 -5534 5606 -5606 5678 -5678 5750 -5750 5822 -5822 5894 -5894 5966 -5966 6038 -6038 6110 -6110 6182 -6182 6254 -6254 6326 -6326 6398 -6398 6470 -6470 6542 -6542 6614 -6614 6686 -6686 6758 -6758 6830 -6830 6902 -6902 6974 -6974 7046 -7046 7118 -7118 7190 -7190 7262 -7262 7334 -7334 7406 -7406 7478 -7478 7550 -7550 7622 -7622 7694 -7694 7766 -7766 7838 -7838 7910 -7910 7982 -7982 8054 -8054 8126 -8126 8198 -8198 8270 -8270 8342 -8342 8414 -8414 8486 -8486 8558 -8558 8630 -8630 8702 -8702 8774 -8774 8846 -8846 8918 -8918 8990 -8990 9062 -9062 9134 -9134 9206 -9206 
63 -63 135 -135 207 -207 279 -279 351 -351 423 -423 495 -495 567 -567 639 -639 711 -711 783 -783 855 -855 927 -927 999 -999 1071 -1071 1143 -1143 1215 -1215 1287 -1287 1359 -1359 1431 -1431 1503 -1503 1575 -1575 1647 -1647 1719 -1719 1791 -1791 1863 -1863 1935 -1935 2007 -2007 2079 -2079 2151 -2151 2223 -2223 2295 -2295 2367 -2367 2439 -2439 2511 -2511 2583 -2583 2655 -2655 2727 -2727 2799 -2799 2871 -2871 2943 -2943 3015 -3015 3087 -3087 3159 -3159 3231 -3231 3303 -3303 3375 -3375 3447 -3447 3519 -3519 3591 -3591 3663 -3663 3735 -3735 3807 -3807 3879 -3879 3951 -3951 4023 -4023 4095 -4095 4167 -4167 4239 -4239 4311 -4311 4383 -4383 4455 -4455 4527 -4527 4599 -4599 4671 -4671 4743 -4743 4815 -4815 4887 -4887 4959 -4959 5031 -5031 5103 -5103 5175 -5175 5247 -5247 5319 -5319 5391 -5391 5463 -5463 5535 -5535 5607 -5607 5679 -5679 5751 -5751 5823 -5823 5895 -5895 5967 -5967 6039 -6039 6111 -6111 6183 -6183 6255 -6255 6327 -6327 6399 -6399 6471 -6471 6543 -6543 6615 -6615 6687 -6687 6759 -6759 6831 -6831 6903 -6903 6975 -6975 7047 -7047 7119 -7119 7191 -7191 7263 -7263 7335 -7335 7407 -7407 7479 -7479 7551 -7551 7623 -7623 7695 -7695 7767 -7767 7839 -7839 7911 -7911 7983 -7983 8055 -8055 8127 -8127 8199 -8199 8271 -8271 8343 -8343 8415 -8415 8487 -8487 8559 -8559 8631 -8631 8703 -8703 8775 -8775 8847 -8847 8919 -8919 8991 -8991 9063 -9063 9135 -9135 9207 -9207 
64 -64 136 -136 208 -208 280 -280 352 -352 424 -424 496 -496 568 -568 640 -640 712 -712 784 -784 856 -856 928 -928 1000 -1000 1072 -1072 1144 -1144 1216 -1216 1288 -1288 1360 -1360 1432 -1432 1504 -1504 1576 -1576 1648 -1648 1720 -1720 1792 -1792 1864 -1864 1936 -1936 2008 -2008 2080 -2080 2152 -2152 2224 -2224 2296 -2296 2368 -2368 2440 -2440 2512 -2512 2584 -2584 2656 -2656 2728 -2728 2800 -2800 2872 -2872 2944 -2944 3016 -3016 3088 -3088 3160 -3160 3232 -3232 3304 -3304 3376 -3376 3448 -3448 3520 -3520 3592 -3592 3664 -3664 3736 -3736 3808 -3808 3880 -3880 3952 -3952 4024 -4024 4096 -4096 4168 -4168 4240 -4240 4312 -4312 4384 -4384 4456 -4456 4528 -4528 4600 -4600 4672 -4672 4744 -4744 4816 -4816 4888 -4888 4960 -4960 5032 -5032 5104 -5104 5176 -5176 5248 -5248 5320 -5320 5392 -5392 5464 -5464 5536 -5536 5608 -5608 5680 -5680 5752 -5752 5824 -5824 5896 -5896 5968 -5968 6040 -6040 6112 -6112 6184 -6184 6256 -6256 6328 -6328 6400 -6400 6472 -6472 6544 -6544 6616 -6616 6688 -6688 6760 -6760 6832 -6832 6904 -6904 6976 -6976 7048 -7048 7120 -7120 7192 -7192 7264 -7264 7336 -7336 7408 -7408 7480 -7480 7552 -7552 7624 -7624 7696 -7696 7768 -7768 7840 -7840 7912 -7912 7984 -7984 8056 -8056 8128 -8128 8200 -8200 8272 -8272 8344 -8344 8416 -8416 8488 -8488 8560 -8560 8632 -8632 8704 -8704 8776 -8776 8848 -8848 8920 -8920 8992 -8992 9064 -9064 9136 -9136 9208 -9208 
65 -65 137 -137 209 -209 281 -281 353 -353 425 -425 497 -497 569 -569 641 -641 713 -713 785 -785 857 -857 929 -929 1001 -1001 1073 -1073 1145 -1145 1217 -1217 1289 -1289 1361 -1361 1433 -1433 1505 -1505 1577 -1577 1649 -1649 1721 -1721 1793 -1793 1865 -1865 1937 -1937 2009 -2009 2081 -2081 2153 -2153 2225 -2225 2297 -2297 2369 -2369 2441 -2441 2513 -2513 2585 -2585 2657 -2657 2729 -2729 2801 -2801 2873 -2873 2945 -2945 3017 -3017 3089 -3089 3161 -3161 3233 -3233 3305 -3305 3377 -3377 3449 -3449 3521 -3521 3593 -3593 3665 -3665 3737 -3737 3809 -3809 3881 -3881 3953 -3953 4025 -4025 4097 -4097 4169 -4169 4241 -4241 4313 -4313 4385 -4385 4457 -4457 4529 -4529 4601 -4601 4673 -4673 4745 -4745 4817 -4817 4889 -4889 4961 -4961 5033 -5033 5105 -5105 5177 -5177 5249 -5249 5321 -5321 5393 -5393 5465 -5465 5537 -5537 5609 -5609 5681 -5681 5753 -5753 5825 -5825 5897 -5897 5969 -5969 6041 -6041 6113 -6113 6185 -6185 6257 -6257 6329 -6329 6401 -6401 6473 -6473 6545 -6545 6617 -6617 6689 -6689 6761 -6761 6833 -6833 6905 -6905 6977 -6977 7049 -7049 7121 -7121 7193 -7193 7265 -7265 7337 -7337 7409 -7409 7481 -7481 7553 -7553 7625 -7625 7697 -7697 7769 -7769 7841 -7841 7913 -7913 7985 -7985 8057 -8057 8129 -8129 8201 -8201 8273 -8273 8345 -8345 8417 -8417 8489 -8489 8561 -8561 8633 -8633 8705 -8705 8777 -8777 8849 -8849 8921 -8921 8993 -8993 9065 -9065 9137 -9137 9209 -9209 
66 -66 138 -138 210 -210 282 -282 354 -354 426 -426 498 -498 570 -570 642 -642 714 -714 786 -786 858 -858 930 -930 1002 -1002 1074 -1074 1146 -1146 1218 -1218 1290 -1290 1362 -1362 1434 -1434 1506 -1506 1578 -1578 1650 -1650 1722 -1722 1794 -1794 1866 -1866 1938 -1938 2010 -2010 2082 -2082 2154 -2154 2226 -2226 2298 -2298 2370 -2370 2442 -2442 2514 -2514 2586 -2586 2658 -2658 2730 -2730 2802 -2802 2874 -2874 2946 -2946 3018 -3018 3090 -3090 3162 -3162 3234 -3234 3306 -3306 3378 -3378 3450 -3450 3522 -3522 3594 -3594 3666 -3666 3738 -3738 3810 -3810 3882 -3882 3954 -3954 4026 -4026 4098 -4098 4170 -4170 4242 -4242 4314 -4314 4386 -4386 4458 -4458 4530 -4530 4602 -4602 4674 -4674 4746 -4746 4818 -4818 4890 -4890 4962 -4962 5034 -5034 5106 -5106 5178 -5178 5250 -5250 5322 -5322 5394 -5394 5466 -5466 5538 -5538 5610 -5610 5682 -5682 5754 -5754 5826 -5826 5898 -5898 5970 -5970 6042 -6042 6114 -6114 6186 -6186 6258 -6258 6330 -6330 6402 -6402 6474 -6474 6546 -6546 6618 -6618 6690 -6690 6762 -6762 6834 -6834 6906 -6906 6978 -6978 7050 -7050 7122 -7122 7194 -7194 7266 -7266 7338 -7338 7410 -7410 7482 -7482 7554 -7554 7626 -7626 7698 -7698 7770 -7770 7842 -7842 7914 -7914 7986 -7986 8058 -8058 8130 -8130 8202 -8202 8274 -8274 8346 -8346 8418 -8418 8490 -8490 8562 -8562 8634 -8634 8706 -8706 8778 -8778 8850 -8850 8922 -8922 8994 -8994 9066 -9066 9138 -9138 9210 -9210 
67 -67 139 -139 211 -211 283 -283 355 -355 427 -427 499 -499 571 -571 643 -643 715 -715 787 -787 859 -859 931 -931 1003 -1003 1075 -1075 1147 -1147 1219 -1219 1291 -1291 1363 -1363 1435 -1435 1507 -1507 1579 -1579 1651 -1651 1723 -1723 1795 -1795 1867 -1867 1939 -1939 2011 -2011 2083 -2083 2155 -2155 2227 -2227 2299 -2299 2371 -2371 2443 -2443 2515 -2515 2587 -2587 2659 -2659 2731 -2731 2803 -2803 2875 -2875 2947 -2947 3019 -3019 3091 -3091 3163 -3163 3235 -3235 3307 -3307 3379 -3379 3451 -3451 3523 -3523 3595 -3595 3667 -3667 3739 -3739 3811 -3811 3883 -3883 3955 -3955 4027 -4027 4099 -4099 4171 -4171 4243 -4243 4315 -4315 4387 -4387 4459 -4459 4531 -4531 4603 -4603 4675 -4675 4747 -4747 4819 -4819 4891 -4891 4963 -4963 5035 -5035 5107 -5107 5179 -5179 5251 -5251 5323 -5323 5395 -5395 5467 -5467 5539 -5539 5611 -5611 5683 -5683 5755 -5755 5827 -5827 5899 -5899 5971 -5971 6043 -6043 6115 -6115 6187 -6187 6259 -6259 6331 -6331 6403 -6403 6475 -6475 6547 -6547 6619 -6619 6691 -6691 6763 -6763 6835 -6835 6907 -6907 6979 -6979 7051 -7051 7123 -7123 7195 -7195 7267 -7267 7339 -7339 7411 -7411 7483 -7483 7555 -7555 7627 -7627 7699 -7699 7771 -7771 7843 -7843 7915 -7915 7987 -7987 8059 -8059 8131 -8131 8203 -8203 8275 -8275 8347 -8347 8419 -8419 8491 -8491 8563 -8563 8635 -8635 8707 -8707 8779 -8779 8851 -8851 8923 -8923 8995 -8995 9067 -9067 9139 -9139 9211 -9211 
68 -68 140 -140 212 -212 284 -284 356 -356 428 -428 500 -500 572 -572 644 -644 716 -716 788 -788 860 -860 932 -932 1004 -1004 1076 -1076 1148 -1148 1220 -1220 1292 -1292 1364 -1364 1436 -1436 1508 -1508 1580 -1580 1652 -1652 1724 -1724 1796 -1796 1868 -1868 1940 -1940 2012 -2012 2084 -2084 2156 -2156 2228 -2228 2300 -2300 2372 -2372 2444 -2444 2516 -2516 2588 -2588 2660 -2660 2732 -2732 2804 -2804 2876 -2876 2948 -2948 3020 -3020 3092 -3092 3164 -3164 3236 -3236 3308 -3308 3380 -3380 3452 -3452 3524 -3524 3596 -3596 3668 -3668 3740 -3740 3812 -3812 3884 -3884 3956 -3956 4028 -4028 4100 -4100 4172 -4172 4244 -4244 4316 -4316 4388 -4388 4460 -4460 4532 -4532 4604 -4604 4676 -4676 4748 -4748 4820 -4820 4892 -4892 4964 -4964 5036 -5036 5108 -5108 5180 -5180 5252 -5252 5324 -5324 5396 -5396 5468 -5468 5540 -5540 5612 -5612 5684 -5684 5756 -5756 5828 -5828 5900 -5900 5972 -5972 6044 -6044 6116 -6116 6188 -6188 6260 -6260 6332 -6332 6404 -6404 6476 -6476 6548 -6548 6620 -6620 6692 -6692 6764 -6764 6836 -6836 6908 -6908 6980 -6980 7052 -7052 7124 -7124 7196 -7196 7268 -7268 7340 -7340 7412 -7412 7484 -7484 7556 -7556 7628 -7628 7700 -7700 7772 -7772 7844 -7844 7916 -7916 7988 -7988 8060 -8060 8132 -8132 8204 -8204 8276 -8276 8348 -8348 8420 -8420 8492 -8492 8564 -8564 8636 -8636 8708 -8708 8780 -8780 8852 -8852 8924 -8924 8996 -8996 9068 -9068 9140 -9140 9212 -9212 
69 -69 141 -141 213 -213 285 -285 357 -357 429 -429 501 -501 573 -573 645 -645 717 -717 789 -789 861 -861 933 -933 1005 -1005 1077 -1077 1149 -1149 1221 -1221 1293 -1293 1365 -1365 1437 -1437 1509 -1509 1581 -1581 1653 -1653 1725 -1725 1797 -1797 1869 -1869 1941 -1941 2013 -2013 2085 -2085 2157 -2157 2229 -2229 2301 -2301 2373 -2373 2445 -2445 2517 -2517 2589 -2589 2661 -2661 2733 -2733 2805 -2805 2877 -2877 2949 -2949 3021 -3021 3093 -3093 3165 -3165 3237 -3237 3309 -3309 3381 -3381 3453 -3453 3525 -3525 3597 -3597 3669 -3669 3741 -3741 3813 -3813 3885 -3885 3957 -3957 4029 -4029 4101 -4101 4173 -4173 4245 -4245 4317 -4317 4389 -4389 4461 -4461 4533 -4533 4605 -4605 4677 -4677 4749 -4749 4821 -4821 4893 -4893 4965 -4965 5037 -5037 5109 -5109 5181 -5181 5253 -5253 5325 -5325 5397 -5397 5469 -5469 5541 -5541 5613 -5613 5685 -5685 5757 -5757 5829 -5829 5901 -5901 5973 -5973 6045 -6045 6117 -6117 6189 -6189 6261 -6261 6333 -6333 6405 -6405 6477 -6477 6549 -6549 6621 -6621 6693 -6693 6765 -6765 6837 -6837 6909 -6909 6981 -6981 7053 -7053 7125 -7125 7197 -7197 7269 -7269 7341 -7341 7413 -7413 7485 -7485 7557 -7557 7629 -7629 7701 -7701 7773 -7773 7845 -7845 7917 -7917 7989 -7989 8061 -8061 8133 -8133 8205 -8205 8277 -8277 8349 -8349 8421 -8421 8493 -8493 8565 -8565 8637 -8637 8709 -8709 8781 -8781 8853 -8853 8925 -8925 8997 -8997 9069 -9069 9141 -9141 9213 -9213 
70 -70 142 -142 214 -214 286 -286 358 -358 430 -430 502 -502 574 -574 646 -646 718 -718 790 -790 862 -862 934 -934 1006 -1006 1078 -1078 1150 -1150 1222 -1222 1294 -1294 1366 -1366 1438 -1438 1510 -1510 1582 -1582 1654 -1654 1726 -1726 1798 -1798 1870 -1870 1942 -1942 2014 -2014 2086 -2086 2158 -2158 2230 -2230 2302 -2302 2374 -2374 2446 -2446 2518 -2518 2590 -2590 2662 -2662 2734 -2734 2806 -2806 2878 -2878 2950 -2950 3022 -3022 3094 -3094 3166 -3166 3238 -3238 3310 -3310 3382 -3382 3454 -3454 3526 -3526 3598 -3598 3670 -3670 3742 -3742 3814 -3814 3886 -3886 3958 -3958 4030 -4030 4102 -4102 4174 -4174 4246 -4246 4318 -4318 4390 -4390 4462 -4462 4534 -4534 4606 -4606 4678 -4678 4750 -4750 4822 -4822 4894 -4894 4966 -4966 5038 -5038 5110 -5110 5182 -5182 5254 -5254 5326 -5326 5398 -5398 5470 -5470 5542 -5542 5614 -5614 5686 -5686 5758 -5758 5830 -5830 5902 -5902 5974 -5974 6046 -6046 6118 -6118 6190 -6190 6262 -6262 6334 -6334 6406 -6406 6478 -6478 6550 -6550 6622 -6622 6694 -6694 6766 -6766 6838 -6838 6910 -6910 6982 -6982 7054 -7054 7126 -7126 7198 -7198 7270 -7270 7342 -7342 7414 -7414 7486 -7486 7558 -7558 7630 -7630 7702 -7702 7774 -7774 7846 -7846 7918 -7918 7990 -7990 8062 -8062 8134 -8134 8206 -8206 8278 -8278 8350 -8350 8422 -8422 8494 -8494 8566 -8566 8638 -8638 8710 -8710 8782 -8782 8854 -8854 8926 -8926 8998 -8998 9070 -9070 9142 -9142 9214 -9214 
71 -71 143 -143 215 -215 287 -287 359 -359 431 -431 503 -503 575 -575 647 -647 719 -719 791 -791 863 -863 935 -935 1007 -1007 1079 -1079 1151 -1151 1223 -1223 1295 -1295 1367 -1367 1439 -1439 1511 -1511 1583 -1583 1655 -1655 1727 -1727 1799 -1799 1871 -1871 1943 -1943 2015 -2015 2087 -2087 2159 -2159 2231 -2231 2303 -2303 2375 -2375 2447 -2447 2519 -2519 2591 -2591 2663 -2663 2735 -2735 2807 -2807 2879 -2879 2951 -2951 3023 -3023 3095 -3095 3167 -3167 3239 -3239 3311 -3311 3383 -3383 3455 -3455 3527 -3527 3599 -3599 3671 -3671 3743 -3743 3815 -3815 3887 -3887 3959 -3959 4031 -4031 4103 -4103 4175 -4175 4247 -4247 4319 -4319 4391 -4391 4463 -4463 4535 -4535 4607 -4607 4679 -4679 4751 -4751 4823 -4823 4895 -4895 4967 -4967 5039 -5039 5111 -5111 5183 -5183 5255 -5255 5327 -5327 5399 -5399 5471 -5471 5543 -5543 5615 -5615 5687 -5687 5759 -5759 5831 -5831 5903 -5903 5975 -5975 6047 -6047 6119 -6119 6191 -6191 6263 -6263 6335 -6335 6407 -6407 6479 -6479 6551 -6551 6623 -6623 6695 -6695 6767 -6767 6839 -6839 6911 -6911 6983 -6983 7055 -7055 7127 -7127 7199 -7199 7271 -7271 7343 -7343 7415 -7415 7487 -7487 7559 -7559 7631 -7631 7703 -7703 7775 -7775 7847 -7847 7919 -7919 7991 -7991 8063 -8063 8135 -8135 8207 -8207 8279 -8279 8351 -8351 8423 -8423 8495 -8495 8567 -8567 8639 -8639 8711 -8711 8783 -8783 8855 -8855 8927 -8927 8999 -8999 9071 -9071 9143 -9143 9215 -9215 
72 -72 144 -144 216 -216 288 -288 360 -360 432 -432 504 -504 576 -576 648 -648 720 -720 792 -792 864 -864 936 -936 1008 -1008 1080 -1080 1152 -1152 1224 -1224 1296 -1296 1368 -1368 1440 -1440 1512 -1512 1584 -1584 1656 -1656 1728 -1728 1800 -1800 1872 -1872 1944 -1944 2016 -2016 2088 -2088 2160 -2160 2232 -2232 2304 -2304 2376 -2376 2448 -2448 2520 -2520 2592 -2592 2664 -2664 2736 -2736 2808 -2808 2880 -2880 2952 -2952 3024 -3024 3096 -3096 3168 -3168 3240 -3240 3312 -3312 3384 -3384 3456 -3456 3528 -3528 3600 -3600 3672 -3672 3744 -3744 3816 -3816 3888 -3888 3960 -3960 4032 -4032 4104 -4104 4176 -4176 4248 -4248 4320 -4320 4392 -4392 4464 -4464 4536 -4536 4608 -4608 4680 -4680 4752 -4752 4824 -4824 4896 -4896 4968 -4968 5040 -5040 5112 -5112 5184 -5184 5256 -5256 5328 -5328 5400 -5400 5472 -5472 5544 -5544 5616 -5616 5688 -5688 5760 -5760 5832 -5832 5904 -5904 5976 -5976 6048 -6048 6120 -6120 6192 -6192 6264 -6264 6336 -6336 6408 -6408 6480 -6480 6552 -6552 6624 -6624 6696 -6696 6768 -6768 6840 -6840 6912 -6912 6984 -6984 7056 -7056 7128 -7128 7200 -7200 7272 -7272 7344 -7344 7416 -7416 7488 -7488 7560 -7560 7632 -7632 7704 -7704 7776 -7776 7848 -7848 7920 -7920 7992 -7992 8064 -8064 8136 -8136 8208 -8208 8280 -8280 8352 -8352 8424 -8424 8496 -8496 8568 -8568 8640 -8640 8712 -8712 8784 -8784 8856 -8856 8928 -8928 9000 -9000 9072 -9072 9144 -9144 9216 -9216 
