rows 9 columns 200
1 -1 10 -10 19 -19 28 -28 37 -37 46 -46 55 -55 64 -64 73 -73 82 -82 91 -91 100 -100 109 -109 118 -118 127 -127 136 -136 145 -145 154 -154 163 -163 172 -172 181 -181 190 -190 199 -199 208 -208 217 -217 226 -226 235 -235 244 -244 253 -253 262 -262 271 -271 280 -280 289 -289 298 -298 307 -307 316 -316 325 -325 334 -334 343 -343 352 -352 361 -361 370 -370 379 -379 388 -388 397 -397 406 -406 415 -415 424 -424 433 -433 442 -442 451 -451 460 -460 469 -469 478 -478 487 -487 496 -496 505 -505 514 -514 523 -523 532 -532 541 -541 550 -550 559 -559 568 -568 577 -577 586 -586 595 -595 604 -604 613 -613 622 -622 631 -631 640 -640 649 -649 658 -658 667 -667 676 -676 685 -685 694 -694 703 -703 712 -712 721 -721 730 -730 739 -739 748 -748 757 -757 766 -766 775 -775 784 -784 793 -793 802 -802 811 -811 820 -820 829 -829 838 -838 847 -847 856 -856 865 -865 874 -874 883 -883 892 -892 
2 -2 11 -11 20 -20 29 -29 38 -38 47 -47 56 -56 65 -65 74 -74 83 -83 92 -92 101 -101 110 -110 119 -119 128 -128 137 -137 146 -146 155 -155 164 -164 173 -173 182 -182 191 -191 200 -200 209 -209 218 -218 227 -227 236 -236 245 -245 254 -254 263 -263 272 -272 281 -281 290 -290 299 -299 308 -308 317 -317 326 -326 335 -335 344 -344 353 -353 362 -362 371 -371 380 -380 389 -389 398 -398 407 -407 416 -416 425 -425 434 -434 443 -443 452 -452 461 -461 470 -470 479 -479 488 -488 497 -497 506 -506 515 -515 524 -524 533 -533 542 -542 551 -551 560 -560 569 -569 578 -578 587 -587 596 -596 605 -605 614 -614 623 -623 632 -632 641 -641 650 -650 659 -659 668 -668 677 -677 686 -686 695 -695 704 -704 713 -713 722 -722 731 -731 740 -740 749 -749 758 -758 767 -767 776 -776 785 -785 794 -794 803 -803 812 -812 821 -821 830 -830 839 -839 848 -848 857 -857 866 -866 875 -875 884 -884 893 -893 
3 -3 12 -12 21 -21 30 -30 39 -39 48 -48 57 -57 66 -66 75 -75 84 -84 93 -93 102 -102 111 -111 120 -120 129 -129 138 -138 147 -147 156 -156 165 -165 174 -174 183 -183 192 -192 201 -201 210 -210 219 -219 228 -228 237 -237 246 -246 255 -255 264 -264 273 -273 282 -282 291 -291 300 -300 309 -309 318 -318 327 -327 336 -336 345 -345 354 -354 363 -363 372 -372 381 -381 390 -390 399 -399 408 -408 417 -417 426 -426 435 -435 444 -444 453 -453 462 -462 471 -471 480 -480 489 -489 498 -498 507 -507 516 -516 525 -525 534 -534 543 -543 552 -552 561 -561 570 -570 579 -579 588 -588 597 -597 606 -606 615 -615 624 -624 633 -633 642 -642 651 -651 660 -660 669 -669 678 -678 687 -687 696 -696 705 -705 714 -714 723 -723 732 -732 741 -741 750 -750 759 -759 768 -768 777 -777 786 -786 795 -795 804 -804 813 -813 822 -822 831 -831 840 -840 849 -849 858 -858 867 -867 876 -876 885 -885 894 -894 
4 -4 13 -13 22 -22 31 -31 40 -40 49 -49 58 -58 67 -67 76 -76 85 -85 94 -94 103 -103 112 -112 121 -121 130 -130 139 -139 148 -148 157 -157 166 -166 175 -175 184 -184 193 -193 202 -202 211 -211 220 -220 229 -229 238 -238 247 -247 256 -256 265 -265 274 -274 283 -283 292 -292 301 -301 310 -310 319 -319 328 -328 337 -337 346 -346 355 -355 364 -364 373 -373 382 -382 391 -391 400 -400 409 -409 418 -418 427 -427 436 -436 445 -445 454 -454 463 -463 472 -472 481 -481 490 -490 499 -499 508 -508 517 -517 526 -526 535 -535 544 -544 553 -553 562 -562 571 -571 580 -580 589 -589 598 -598 607 -607 616 -616 625 -625 634 -634 643 -643 652 -652 661 -661 670 -670 679 -679 688 -688 697 -697 706 -706 715 -715 724 -724 733 -733 742 -742 751 -751 760 -760 769 -769 778 -778 787 -787 796 -796 805 -805 814 -814 823 -823 832 -832 841 -841 850 -850 859 -859 868 -868 877 -877 886 -886 895 -895 
5 -5 14 -14 23 -23 32 -32 41 -41 50 -50 59 -59 68 -68 77 -77 86 -86 95 -95 104 -104 113 -113 122 -122 131 -131 140 -140 149 -149 158 -158 167 -167 176 -176 185 -185 194 -194 203 -203 212 -212 221 -221 230 -230 239 -239 248 -248 257 -257 266 -266 275 -275 284 -284 293 -293 302 -302 311 -311 320 -320 329 -329 338 -338 347 -347 356 -356 365 -365 374 -374 383 -383 392 -392 401 -401 410 -410 419 -419 428 -428 437 -437 446 -446 455 -455 464 -464 473 -473 482 -482 491 -491 500 -500 509 -509 518 -518 527 -527 536 -536 545 -545 554 -554 563 -563 572 -572 581 -581 590 -590 599 -599 608 -608 617 -617 626 -626 635 -635 644 -644 653 -653 662 -662 671 -671 680 -680 689 -689 698 -698 707 -707 716 -716 725 -725 734 -734 743 -743 752 -752 761 -761 770 -770 779 -779 788 -788 797 -797 806 -806 815 -815 824 -824 833 -833 842 -842 851 -851 860 -860 869 -869 878 -878 887 -887 896 -896 
6 -6 15 -15 24 -24 33 -33 42 -42 51 -51 60 -60 69 -69 78 -78 87 -87 96 -96 105 -105 114 -114 123 -123 132 -132 141 -141 150 -150 159 -159 168 -168 177 -177 186 -186 195 -195 204 -204 213 -213 222 -222 231 -231 240 -240 249 -249 258 -258 267 -267 276 -276 285 -285 294 -294 303 -303 312 -312 321 -321 330 -330 339 -339 348 -348 357 -357 366 -366 375 -375 384 -384 393 -393 402 -402 411 -411 420 -420 429 -429 438 -438 447 -447 456 -456 465 -465 474 -474 483 -483 492 -492 501 -501 510 -510 519 -519 528 -528 537 -537 546 -546 555 -555 564 -564 573 -573 582 -582 591 -591 600 -600 609 -609 618 -618 627 -627 636 -636 645 -645 654 -654 663 -663 672 -672 681 -681 690 -690 699 -699 708 -708 717 -717 726 -726 735 -735 744 -744 753 -753 762 -762 771 -771 780 -780 789 -789 798 -798 807 -807 816 -816 825 -825 834 -834 843 -843 852 -852 861 -861 870 -870 879 -879 888 -888 897 -897 
7 -7 16 -16 25 -25 34 -34 43 -43 52 -52 61 -61 70 -70 79 -79 88 -88 97 -97 106 -106 115 -115 124 -124 133 -133 142 -142 151 -151 160 -160 169 -169 178 -178 187 -187 196 -196 205 -205 214 -214 223 -223 232 -232 241 -241 250 -250 259 -259 268 -268 277 -277 286 -286 295 -295 304 -304 313 -313 322 -322 331 -331 340 -340 349 -349 358 -358 367 -367 376 -376 385 -385 394 -394 403 -403 412 -412 421 -421 430 -430 439 -439 448 -448 457 -457 466 -466 475 -475 484 -484 493 -493 502 -502 511 -511 520 -520 529 -529 538 -538 547 -547 556 -556 565 -565 574 -574 583 -583 592 -592 601 -601 610 -610 619 -619 628 -628 637 -637 646 -646 655 -655 664 -664 673 -673 682 -682 691 -691 700 -700 709 -709 718 -718 727 -727 736 -736 745 -745 754 -754 763 -763 772 -772 781 -781 790 -790 799 -799 808 -808 817 -817 826 -826 835 -835 844 -844 853 -853 862 -862 871 -871 880 -880 889 -889 898 -898 
8 -8 17 -17 26 -26 35 -35 44 -44 53 -53 62 -62 71 -71 80 -80 89 -89 98 -98 107 -107 116 -116 125 -125 134 -134 143 -143 152 -152 161 -161 170 -170 179 -179 188 -188 197 -197 206 -206 215 -215 224 -224 233 -233 242 -242 251 -251 260 -260 269 -269 278 -278 287 -287 296 -296 305 -305 314 -314 323 -323 332 -332 341 -341 350 -350 359 -359 368 -368 377 -377 386 -386 395 -395 404 -404 413 -413 422 -422 431 -431 440 -440 449 -449 458 -458 467 -467 476 -476 485 -485 494 -494 503 -503 512 -512 521 -521 530 -530 539 -539 548 -548 557 -557 566 -566 575 -575 584 -584 593 -593 602 -602 611 -611 620 -620 629 -629 638 -638 647 -647 656 -656 665 -665 674 -674 683 -683 692 -692 701 -701 710 -710 719 -719 728 -728 737 -737 746 -746 755 -755 764 -764 773 -773 782 -782 791 -791 800 -800 809 -809 818 -818 827 -827 836 -836 845 -845 854 -854 863 -863 872 -872 881 -881 890 -890 899 -899 
9 -9 18 -18 27 -27 36 -36 45 -45 54 -54 63 -63 72 -72 81 -81 90 -90 99 -99 108 -108 117 -117 126 -126 135 -135 144 -144 153 -153 162 -162 171 -171 180 -180 189 -189 198 -198 207 -207 216 -216 225 -225 234 -234 243 -243 252 -252 261 -261 270 -270 279 -279 288 -288 297 -297 306 -306 315 -315 324 -324 333 -333 342 -342 351 -351 360 -360 369 -369 378 -378 387 -387 396 -396 405 -405 414 -414 423 -423 432 -432 441 -441 450 -450 459 -459 468 -468 477 -477 486 -486 495 -495 504 -504 513 -513 522 -522 531 -531 540 -540 549 -549 558 -558 567 -567 576 -576 585 -585 594 -594 603 -603 612 -612 621 -621 630 -630 639 -639 648 -648 657 -657 666 -666 675 -675 684 -684 693 -693 702 -702 711 -711 720 -720 729 -729 738 -738 747 -747 756 -756 765 -765 774 -774 783 -783 792 -792 801 -801 810 -810 819 -819 828 -828 837 -837 846 -846 855 -855 864 -864 873 -873 882 -882 891 -891 900 -900 
