rows 11 columns 192
1 -1 12 -12 23 -23 34 -34 45 -45 56 -56 67 -67 78 -78 89 -89 100 -100 111 -111 122 -122 133 -133 144 -144 155 -155 166 -166 177 -177 188 -188 199 -199 210 -210 221 -221 232 -232 243 -243 254 -254 265 -265 276 -276 287 -287 298 -298 309 -309 320 -320 331 -331 342 -342 353 -353 364 -364 375 -375 386 -386 397 -397 408 -408 419 -419 430 -430 441 -441 452 -452 463 -463 474 -474 485 -485 496 -496 507 -507 518 -518 529 -529 540 -540 551 -551 562 -562 573 -573 584 -584 595 -595 606 -606 617 -617 628 -628 639 -639 650 -650 661 -661 672 -672 683 -683 694 -694 705 -705 716 -716 727 -727 738 -738 749 -749 760 -760 771 -771 782 -782 793 -793 804 -804 815 -815 826 -826 837 -837 848 -848 859 -859 870 -870 881 -881 892 -892 903 -903 914 -914 925 -925 936 -936 947 -947 958 -958 969 -969 980 -980 991 -991 1002 -1002 1013 -1013 1024 -1024 1035 -1035 1046 -1046 
2 -2 13 -13 24 -24 35 -35 46 -46 57 -57 68 -68 79 -79 90 -90 101 -101 112 -112 123 -123 134 -134 145 -145 156 -156 167 -167 178 -178 189 -189 200 -200 211 -211 222 -222 233 -233 244 -244 255 -255 266 -266 277 -277 288 -288 299 -299 310 -310 321 -321 332 -332 343 -343 354 -354 365 -365 376 -376 387 -387 398 -398 409 -409 420 -420 431 -431 442 -442 453 -453 464 -464 475 -475 486 -486 497 -497 508 -508 519 -519 530 -530 541 -541 552 -552 563 -563 574 -574 585 -585 596 -596 607 -607 618 -618 629 -629 640 -640 651 -651 662 -662 673 -673 684 -684 695 -695 706 -706 717 -717 728 -728 739 -739 750 -750 761 -761 772 -772 783 -783 794 -794 805 -805 816 -816 827 -827 838 -838 849 -849 860 -860 871 -871 882 -882 893 -893 904 -904 915 -915 926 -926 937 -937 948 -948 959 -959 970 -970 981 -981 992 -992 1003 -1003 1014 -1014 1025 -1025 1036 -1036 1047 -1047 
3 -3 14 -14 25 -25 36 -36 47 -47 58 -58 69 -69 80 -80 91 -91 102 -102 113 -113 124 -124 135 -135 146 -146 157 -157 168 -168 179 -179 190 -190 201 -201 212 -212 223 -223 234 -234 245 -245 256 -256 267 -267 278 -278 289 -289 300 -300 311 -311 322 -322 333 -333 344 -344 355 -355 366 -366 377 -377 388 -388 399 -399 410 -410 421 -421 432 -432 443 -443 454 -454 465 -465 476 -476 487 -487 498 -498 509 -509 520 -520 531 -531 542 -542 553 -553 564 -564 575 -575 586 -586 597 -597 608 -608 619 -619 630 -630 641 -641 652 -652 663 -663 674 -674 685 -685 696 -696 707 -707 718 -718 729 -729 740 -740 751 -751 762 -762 773 -773 784 -784 795 -795 806 -806 817 -817 828 -828 839 -839 850 -850 861 -861 872 -872 883 -883 894 -894 905 -905 916 -916 927 -927 938 -938 949 -949 960 -960 971 -971 982 -982 993 -993 1004 -1004 1015 -1015 1026 -1026 1037 -1037 1048 -1048 
4 -4 15 -15 26 -26 37 -37 48 -48 59 -59 70 -70 81 -81 92 -92 103 -103 114 -114 125 -125 136 -136 147 -147 158 -158 169 -169 180 -180 191 -191 202 -202 213 -213 224 -224 235 -235 246 -246 257 -257 268 -268 279 -279 290 -290 301 -301 312 -312 323 -323 334 -334 345 -345 356 -356 367 -367 378 -378 389 -389 400 -400 411 -411 422 -422 433 -433 444 -444 455 -455 466 -466 477 -477 488 -488 499 -499 510 -510 521 -521 532 -532 543 -543 554 -554 565 -565 576 -576 587 -587 598 -598 609 -609 620 -620 631 -631 642 -642 653 -653 664 -664 675 -675 686 -686 697 -697 708 -708 719 -719 730 -730 741 -741 752 -752 763 -763 774 -774 785 -785 796 -796 807 -807 818 -818 829 -829 840 -840 851 -851 862 -862 873 -873 884 -884 895 -895 906 -906 917 -917 928 -928 939 -939 950 -950 961 -961 972 -972 983 -983 994 -994 1005 -1005 1016 -1016 1027 -1027 1038 -1038 1049 -1049 
5 -5 16 -16 27 -27 38 -38 49 -49 60 -60 71 -71 82 -82 93 -93 104 -104 115 -115 126 -126 137 -137 148 -148 159 -159 170 -170 181 -181 192 -192 203 -203 214 -214 225 -225 236 -236 247 -247 258 -258 269 -269 280 -280 291 -291 302 -302 313 -313 324 -324 335 -335 346 -346 357 -357 368 -368 379 -379 390 -390 401 -401 412 -412 423 -423 434 -434 445 -445 456 -456 467 -467 478 -478 489 -489 500 -500 511 -511 522 -522 533 -533 544 -544 555 -555 566 -566 577 -577 588 -588 599 -599 610 -610 621 -621 632 -632 643 -643 654 -654 665 -665 676 -676 687 -687 698 -698 709 -709 720 -720 731 -731 742 -742 753 -753 764 -764 775 -775 786 -786 797 -797 808 -808 819 -819 830 -830 841 -841 852 -852 863 -863 874 -874 885 -885 896 -896 907 -907 918 -918 929 -929 940 -940 951 -951 962 -962 973 -973 984 -984 995 -995 1006 -1006 1017 -1017 1028 -1028 1039 -1039 1050 -1050 
6 -6 17 -17 28 -28 39 -39 50 -50 61 -61 72 -72 83 -83 94 -94 105 -105 116 -116 127 -127 138 -138 149 -149 160 -160 171 -171 182 -182 193 -193 204 -204 215 -215 226 -226 237 -237 248 -248 259 -259 270 -270 281 -281 292 -292 303 -303 314 -314 325 -325 336 -336 347 -347 358 -358 369 -369 380 -380 391 -391 402 -402 413 -413 424 -424 435 -435 446 -446 457 -457 468 -468 479 -479 490 -490 501 -501 512 -512 523 -523 534 -534 545 -545 556 -556 567 -567 578 -578 589 -589 600 -600 611 -611 622 -622 633 -633 644 -644 655 -655 666 -666 677 -677 688 -688 699 -699 710 -710 721 -721 732 -732 743 -743 754 -754 765 -765 776 -776 787 -787 798 -798 809 -809 820 -820 831 -831 842 -842 853 -853 864 -864 875 -875 886 -886 897 -897 908 -908 919 -919 930 -930 941 -941 952 -952 963 -963 974 -974 985 -985 996 -996 1007 -1007 1018 -1018 1029 -1029 1040 -1040 1051 -1051 
7 -7 18 -18 29 -29 40 -40 51 -51 62 -62 73 -73 84 -84 95 -95 106 -106 117 -117 128 -128 139 -139 150 -150 161 -161 172 -172 183 -183 194 -194 205 -205 216 -216 227 -227 238 -238 249 -249 260 -260 271 -271 282 -282 293 -293 304 -304 315 -315 326 -326 337 -337 348 -348 359 -359 370 -370 381 -381 392 -392 403 -403 414 -414 425 -425 436 -436 447 -447 458 -458 469 -469 480 -480 491 -491 502 -502 513 -513 524 -524 535 -535 546 -546 557 -557 568 -568 579 -579 590 -590 601 -601 612 -612 623 -623 634 -634 645 -645 656 -656 667 -667 678 -678 689 -689 700 -700 711 -711 722 -722 733 -733 744 -744 755 -755 766 -766 777 -777 788 -788 799 -799 810 -810 821 -821 832 -832 843 -843 854 -854 865 -865 876 -876 887 -887 898 -898 909 -909 920 -920 931 -931 942 -942 953 -953 964 -964 975 -975 986 -986 997 -997 1008 -1008 1019 -1019 1030 -1030 1041 -1041 1052 -1052 
8 -8 19 -19 30 -30 41 -41 52 -52 63 -63 74 -74 85 -85 96 -96 107 -107 118 -118 129 -129 140 -140 151 -151 162 -162 173 -173 184 -184 195 -195 206 -206 217 -217 228 -228 239 -239 250 -250 261 -261 272 -272 283 -283 294 -294 305 -305 316 -316 327 -327 338 -338 349 -349 360 -360 371 -371 382 -382 393 -393 404 -404 415 -415 426 -426 437 -437 448 -448 459 -459 470 -470 481 -481 492 -492 503 -503 514 -514 525 -525 536 -536 547 -547 558 -558 569 -569 580 -580 591 -591 602 -602 613 -613 624 -624 635 -635 646 -646 657 -657 668 -668 679 -679 690 -690 701 -701 712 -712 723 -723 734 -734 745 -745 756 -756 767 -767 778 -778 789 -789 800 -800 811 -811 822 -822 833 -833 844 -844 855 -855 866 -866 877 -877 888 -888 899 -899 910 -910 921 -921 932 -932 943 -943 954 -954 965 -965 976 -976 987 -987 998 -998 1009 -1009 1020 -1020 1031 -1031 1042 -1042 1053 -1053 
9 -9 20 -20 31 -31 42 -42 53 -53 64 -64 75 -75 86 -86 97 -97 108 -108 119 -119 130 -130 141 -141 152 -152 163 -163 174 -174 185 -185 196 -196 207 -207 218 -218 229 -229 240 -240 251 -251 262 -262 273 -273 284 -284 295 -295 306 -306 317 -317 328 -328 339 -339 350 -350 361 -361 372 -372 383 -383 394 -394 405 -405 416 -416 427 -427 438 -438 449 -449 460 -460 471 -471 482 -482 493 -493 504 -504 515 -515 526 -526 537 -537 548 -548 559 -559 570 -570 581 -581 592 -592 603 -603 614 -614 625 -625 636 -636 647 -647 658 -658 669 -669 680 -680 691 -691 702 -702 713 -713 724 -724 735 -735 746 -746 757 -757 768 -768 779 -779 790 -790 801 -801 812 -812 823 -823 834 -834 845 -845 856 -856 867 -867 878 -878 889 -889 900 -900 911 -911 922 -922 933 -933 944 -944 955 -955 966 -966 977 -977 988 -988 999 -999 1010 -1010 1021 -1021 1032 -1032 1043 -1043 1054 -1054 
10 -10 21 -21 32 -32 43 -43 54 -54 65 -65 76 -76 87 -87 98 -98 109 -109 120 -120 131 -131 142 -142 153 -153 164 -164 175 -175 186 -186 197 -197 208 -208 219 -219 230 -230 241 -241 252 -252 263 -263 274 -274 285 -285 296 -296 307 -307 318 -318 329 -329 340 -340 351 -351 362 -362 373 -373 384 -384 395 -395 406 -406 417 -417 428 -428 439 -439 450 -450 461 -461 472 -472 483 -483 494 -494 505 -505 516 -516 527 -527 538 -538 549 -549 560 -560 571 -571 582 -582 593 -593 604 -604 615 -615 626 -626 637 -637 648 -648 659 -659 670 -670 681 -681 692 -692 703 -703 714 -714 725 -725 736 -736 747 -747 758 -758 769 -769 780 -780 791 -791 802 -802 813 -813 824 -824 835 -835 846 -846 857 -857 868 -868 879 -879 890 -890 901 -901 912 -912 923 -923 934 -934 945 -945 956 -956 967 -967 978 -978 989 -989 1000 -1000 1011 -1011 1022 -1022 1033 -1033 1044 -1044 1055 -1055 
11 -11 22 -22 33 -33 44 -44 55 -55 66 -66 77 -77 88 -88 99 -99 110 -110 121 -121 132 -132 143 -143 154 -154 165 -165 176 -176 187 -187 198 -198 209 -209 220 -220 231 -231 242 -242 253 -253 264 -264 275 -275 286 -286 297 -297 308 -308 319 -319 330 -330 341 -341 352 -352 363 -363 374 -374 385 -385 396 -396 407 -407 418 -418 429 -429 440 -440 451 -451 462 -462 473 -473 484 -484 495 -495 506 -506 517 -517 528 -528 539 -539 550 -550 561 -561 572 -572 583 -583 594 -594 605 -605 616 -616 627 -627 638 -638 649 -649 660 -660 671 -671 682 -682 693 -693 704 -704 715 -715 726 -726 737 -737 748 -748 759 -759 770 -770 781 -781 792 -792 803 -803 814 -814 825 -825 836 -836 847 -847 858 -858 869 -869 880 -880 891 -891 902 -902 913 -913 924 -924 935 -935 946 -946 957 -957 968 -968 979 -979 990 -990 1001 -1001 1012 -1012 1023 -1023 1034 -1034 1045 -1045 1056 -1056 
