( 1 -1 ) ( 2 -2 ) ( 9 -9 ) ( 10 -10 ) ( 12 -12 ) ( 13 -13 ) ( 14 -14 ) ( 18 -18 ) ( 20 -20 ) ( 22 -22 ) ( 23 -23 ) ( 24 -24 ) ( 28 -28 ) ( 29 -29 ) ( 32 -32 ) ( 34 -34 ) ( 35 -35 ) ( 40 -40 ) ( 41 -41 ) ( 43 -43 ) ( 45 -45 ) ( 47 -47 ) ( 48 -48 ) ( 50 -50 ) ( 51 -51 ) ( 52 -52 ) ( 54 -54 ) ( 55 -55 ) ( 59 -59 ) ( 60 -60 ) ( 63 -63 ) ( 64 -64 ) ( 69 -69 ) ( 71 -71 ) ( 74 -74 ) ( 79 -79 ) ( 88 -88 ) ( 94 -94 ) ( 95 -95 ) ( 97 -97 ) ( 98 -98 ) ( 101 -101 ) ( 103 -103 ) ( 104 -104 ) ( 105 -105 ) ( 106 -106 ) ( 108 -108 ) ( 109 -109 ) ( 110 -110 ) ( 114 -114 ) ( 116 -116 ) ( 117 -117 ) ( 118 -118 ) ( 119 -119 ) ( 121 -121 ) 
( 2 -2 ) ( 5 -5 ) ( 7 -7 ) ( 10 -10 ) ( 12 -12 ) ( 13 -13 ) ( 16 -16 ) ( 18 -18 ) ( 23 -23 ) ( 25 -25 ) ( 29 -29 ) ( 32 -32 ) ( 34 -34 ) ( 36 -36 ) ( 38 -38 ) ( 39 -39 ) ( 41 -41 ) ( 46 -46 ) ( 48 -48 ) ( 49 -49 ) ( 50 -50 ) ( 52 -52 ) ( 54 -54 ) ( 58 -58 ) ( 59 -59 ) ( 62 -62 ) ( 64 -64 ) ( 66 -66 ) ( 67 -67 ) ( 71 -71 ) ( 74 -74 ) ( 78 -78 ) ( 79 -79 ) ( 82 -82 ) ( 83 -83 ) ( 84 -84 ) ( 85 -85 ) ( 87 -87 ) ( 91 -91 ) ( 93 -93 ) ( 94 -94 ) ( 95 -95 ) ( 98 -98 ) ( 100 -100 ) ( 101 -101 ) ( 103 -103 ) ( 105 -105 ) ( 111 -111 ) ( 112 -112 ) ( 114 -114 ) ( 116 -116 ) ( 118 -118 ) ( 119 -119 ) ( 121 -121 ) 
( 5 -5 ) ( 6 -6 ) ( 10 -10 ) ( 12 -12 ) ( 14 -14 ) ( 15 -15 ) ( 16 -16 ) ( 17 -17 ) ( 18 -18 ) ( 22 -22 ) ( 23 -23 ) ( 24 -24 ) ( 25 -25 ) ( 28 -28 ) ( 29 -29 ) ( 31 -31 ) ( 34 -34 ) ( 35 -35 ) ( 37 -37 ) ( 43 -43 ) ( 48 -48 ) ( 50 -50 ) ( 51 -51 ) ( 54 -54 ) ( 55 -55 ) ( 57 -57 ) ( 59 -59 ) ( 60 -60 ) ( 63 -63 ) ( 65 -65 ) ( 67 -67 ) ( 68 -68 ) ( 69 -69 ) ( 72 -72 ) ( 73 -73 ) ( 75 -75 ) ( 76 -76 ) ( 81 -81 ) ( 83 -83 ) ( 84 -84 ) ( 86 -86 ) ( 87 -87 ) ( 89 -89 ) ( 90 -90 ) ( 91 -91 ) ( 92 -92 ) ( 94 -94 ) ( 95 -95 ) ( 97 -97 ) ( 98 -98 ) ( 100 -100 ) ( 101 -101 ) ( 104 -104 ) ( 107 -107 ) ( 110 -110 ) ( 111 -111 ) ( 115 -115 ) ( 116 -116 ) ( 117 -117 ) ( 118 -118 ) ( 119 -119 ) ( 120 -120 ) ( 121 -121 ) 
( 1 -1 ) ( 2 -2 ) ( 3 -3 ) ( 5 -5 ) ( 7 -7 ) ( 9 -9 ) ( 10 -10 ) ( 12 -12 ) ( 13 -13 ) ( 14 -14 ) ( 16 -16 ) ( 17 -17 ) ( 18 -18 ) ( 19 -19 ) ( 21 -21 ) ( 22 -22 ) ( 23 -23 ) ( 24 -24 ) ( 25 -25 ) ( 26 -26 ) ( 28 -28 ) ( 29 -29 ) ( 33 -33 ) ( 34 -34 ) ( 35 -35 ) ( 36 -36 ) ( 41 -41 ) ( 43 -43 ) ( 45 -45 ) ( 46 -46 ) ( 47 -47 ) ( 54 -54 ) ( 55 -55 ) ( 57 -57 ) ( 60 -60 ) ( 61 -61 ) ( 64 -64 ) ( 65 -65 ) ( 67 -67 ) ( 72 -72 ) ( 73 -73 ) ( 75 -75 ) ( 78 -78 ) ( 79 -79 ) ( 80 -80 ) ( 83 -83 ) ( 84 -84 ) ( 85 -85 ) ( 86 -86 ) ( 88 -88 ) ( 89 -89 ) ( 91 -91 ) ( 94 -94 ) ( 99 -99 ) ( 100 -100 ) ( 104 -104 ) ( 106 -106 ) ( 107 -107 ) ( 110 -110 ) ( 111 -111 ) ( 112 -112 ) ( 114 -114 ) ( 117 -117 ) ( 118 -118 ) ( 119 -119 ) ( 121 -121 ) 
( 1 -1 ) ( 3 -3 ) ( 9 -9 ) ( 10 -10 ) ( 13 -13 ) ( 15 -15 ) ( 16 -16 ) ( 17 -17 ) ( 18 -18 ) ( 19 -19 ) ( 20 -20 ) ( 22 -22 ) ( 24 -24 ) ( 25 -25 ) ( 26 -26 ) ( 29 -29 ) ( 31 -31 ) ( 35 -35 ) ( 38 -38 ) ( 39 -39 ) ( 43 -43 ) ( 47 -47 ) ( 48 -48 ) ( 49 -49 ) ( 51 -51 ) ( 53 -53 ) ( 55 -55 ) ( 58 -58 ) ( 59 -59 ) ( 60 -60 ) ( 62 -62 ) ( 63 -63 ) ( 64 -64 ) ( 73 -73 ) ( 75 -75 ) ( 76 -76 ) ( 78 -78 ) ( 79 -79 ) ( 80 -80 ) ( 81 -81 ) ( 87 -87 ) ( 88 -88 ) ( 89 -89 ) ( 91 -91 ) ( 92 -92 ) ( 95 -95 ) ( 97 -97 ) ( 100 -100 ) ( 103 -103 ) ( 104 -104 ) ( 106 -106 ) ( 107 -107 ) ( 109 -109 ) ( 110 -110 ) ( 111 -111 ) ( 114 -114 ) ( 116 -116 ) ( 117 -117 ) ( 118 -118 ) ( 119 -119 ) ( 121 -121 ) 
( 1 -1 ) ( 3 -3 ) ( 8 -8 ) ( 13 -13 ) ( 17 -17 ) ( 19 -19 ) ( 20 -20 ) ( 21 -21 ) ( 22 -22 ) ( 23 -23 ) ( 25 -25 ) ( 26 -26 ) ( 27 -27 ) ( 32 -32 ) ( 35 -35 ) ( 37 -37 ) ( 39 -39 ) ( 41 -41 ) ( 44 -44 ) ( 46 -46 ) ( 48 -48 ) ( 49 -49 ) ( 51 -51 ) ( 52 -52 ) ( 56 -56 ) ( 60 -60 ) ( 62 -62 ) ( 63 -63 ) ( 64 -64 ) ( 66 -66 ) ( 67 -67 ) ( 72 -72 ) ( 73 -73 ) ( 77 -77 ) ( 78 -78 ) ( 79 -79 ) ( 85 -85 ) ( 86 -86 ) ( 87 -87 ) ( 88 -88 ) ( 91 -91 ) ( 92 -92 ) ( 94 -94 ) ( 95 -95 ) ( 96 -96 ) ( 97 -97 ) ( 99 -99 ) ( 100 -100 ) ( 104 -104 ) ( 109 -109 ) ( 111 -111 ) ( 116 -116 ) ( 121 -121 ) 
( 2 -2 ) ( 3 -3 ) ( 4 -4 ) ( 6 -6 ) ( 8 -8 ) ( 12 -12 ) ( 15 -15 ) ( 17 -17 ) ( 18 -18 ) ( 19 -19 ) ( 23 -23 ) ( 25 -25 ) ( 28 -28 ) ( 29 -29 ) ( 33 -33 ) ( 35 -35 ) ( 37 -37 ) ( 38 -38 ) ( 39 -39 ) ( 41 -41 ) ( 42 -42 ) ( 43 -43 ) ( 46 -46 ) ( 47 -47 ) ( 49 -49 ) ( 50 -50 ) ( 53 -53 ) ( 55 -55 ) ( 57 -57 ) ( 59 -59 ) ( 64 -64 ) ( 66 -66 ) ( 67 -67 ) ( 74 -74 ) ( 78 -78 ) ( 79 -79 ) ( 82 -82 ) ( 88 -88 ) ( 91 -91 ) ( 93 -93 ) ( 94 -94 ) ( 95 -95 ) ( 99 -99 ) ( 100 -100 ) ( 101 -101 ) ( 102 -102 ) ( 107 -107 ) ( 110 -110 ) ( 112 -112 ) ( 114 -114 ) ( 117 -117 ) ( 118 -118 ) ( 121 -121 ) 
( 3 -3 ) ( 4 -4 ) ( 8 -8 ) ( 9 -9 ) ( 11 -11 ) ( 13 -13 ) ( 15 -15 ) ( 17 -17 ) ( 18 -18 ) ( 20 -20 ) ( 21 -21 ) ( 23 -23 ) ( 24 -24 ) ( 25 -25 ) ( 30 -30 ) ( 33 -33 ) ( 37 -37 ) ( 38 -38 ) ( 44 -44 ) ( 46 -46 ) ( 47 -47 ) ( 52 -52 ) ( 55 -55 ) ( 56 -56 ) ( 59 -59 ) ( 61 -61 ) ( 63 -63 ) ( 67 -67 ) ( 69 -69 ) ( 73 -73 ) ( 74 -74 ) ( 78 -78 ) ( 79 -79 ) ( 80 -80 ) ( 85 -85 ) ( 87 -87 ) ( 89 -89 ) ( 90 -90 ) ( 91 -91 ) ( 93 -93 ) ( 101 -101 ) ( 104 -104 ) ( 105 -105 ) ( 109 -109 ) ( 111 -111 ) ( 114 -114 ) ( 116 -116 ) ( 119 -119 ) 
( 1 -1 ) ( 3 -3 ) ( 4 -4 ) ( 5 -5 ) ( 7 -7 ) ( 9 -9 ) ( 11 -11 ) ( 13 -13 ) ( 15 -15 ) ( 16 -16 ) ( 17 -17 ) ( 19 -19 ) ( 21 -21 ) ( 23 -23 ) ( 24 -24 ) ( 25 -25 ) ( 26 -26 ) ( 33 -33 ) ( 37 -37 ) ( 38 -38 ) ( 43 -43 ) ( 45 -45 ) ( 48 -48 ) ( 51 -51 ) ( 53 -53 ) ( 55 -55 ) ( 59 -59 ) ( 61 -61 ) ( 62 -62 ) ( 64 -64 ) ( 67 -67 ) ( 72 -72 ) ( 76 -76 ) ( 77 -77 ) ( 78 -78 ) ( 79 -79 ) ( 80 -80 ) ( 84 -84 ) ( 85 -85 ) ( 86 -86 ) ( 87 -87 ) ( 88 -88 ) ( 89 -89 ) ( 90 -90 ) ( 91 -91 ) ( 94 -94 ) ( 97 -97 ) ( 100 -100 ) ( 103 -103 ) ( 110 -110 ) ( 115 -115 ) ( 116 -116 ) ( 117 -117 ) ( 119 -119 ) ( 121 -121 ) 
( 2 -2 ) ( 4 -4 ) ( 6 -6 ) ( 8 -8 ) ( 9 -9 ) ( 11 -11 ) ( 15 -15 ) ( 16 -16 ) ( 17 -17 ) ( 19 -19 ) ( 21 -21 ) ( 23 -23 ) ( 24 -24 ) ( 26 -26 ) ( 31 -31 ) ( 34 -34 ) ( 35 -35 ) ( 37 -37 ) ( 43 -43 ) ( 45 -45 ) ( 49 -49 ) ( 53 -53 ) ( 54 -54 ) ( 56 -56 ) ( 57 -57 ) ( 58 -58 ) ( 60 -60 ) ( 61 -61 ) ( 63 -63 ) ( 64 -64 ) ( 65 -65 ) ( 67 -67 ) ( 68 -68 ) ( 72 -72 ) ( 73 -73 ) ( 76 -76 ) ( 77 -77 ) ( 82 -82 ) ( 83 -83 ) ( 87 -87 ) ( 88 -88 ) ( 89 -89 ) ( 91 -91 ) ( 93 -93 ) ( 96 -96 ) ( 102 -102 ) ( 103 -103 ) ( 106 -106 ) ( 112 -112 ) ( 115 -115 ) ( 116 -116 ) ( 118 -118 ) 
( 1 -1 ) ( 2 -2 ) ( 7 -7 ) ( 9 -9 ) ( 11 -11 ) ( 12 -12 ) ( 15 -15 ) ( 17 -17 ) ( 20 -20 ) ( 21 -21 ) ( 22 -22 ) ( 23 -23 ) ( 26 -26 ) ( 28 -28 ) ( 31 -31 ) ( 33 -33 ) ( 34 -34 ) ( 36 -36 ) ( 37 -37 ) ( 42 -42 ) ( 45 -45 ) ( 46 -46 ) ( 48 -48 ) ( 49 -49 ) ( 50 -50 ) ( 52 -52 ) ( 54 -54 ) ( 57 -57 ) ( 58 -58 ) ( 60 -60 ) ( 66 -66 ) ( 70 -70 ) ( 78 -78 ) ( 79 -79 ) ( 83 -83 ) ( 85 -85 ) ( 86 -86 ) ( 93 -93 ) ( 96 -96 ) ( 105 -105 ) ( 106 -106 ) ( 107 -107 ) ( 110 -110 ) ( 112 -112 ) ( 113 -113 ) ( 115 -115 ) ( 116 -116 ) ( 117 -117 ) ( 118 -118 ) ( 121 -121 ) 
( 3 -3 ) ( 4 -4 ) ( 5 -5 ) ( 9 -9 ) ( 11 -11 ) ( 12 -12 ) ( 13 -13 ) ( 15 -15 ) ( 17 -17 ) ( 19 -19 ) ( 20 -20 ) ( 21 -21 ) ( 23 -23 ) ( 26 -26 ) ( 28 -28 ) ( 31 -31 ) ( 32 -32 ) ( 33 -33 ) ( 34 -34 ) ( 36 -36 ) ( 37 -37 ) ( 38 -38 ) ( 41 -41 ) ( 45 -45 ) ( 46 -46 ) ( 47 -47 ) ( 54 -54 ) ( 58 -58 ) ( 60 -60 ) ( 62 -62 ) ( 63 -63 ) ( 65 -65 ) ( 66 -66 ) ( 69 -69 ) ( 70 -70 ) ( 76 -76 ) ( 77 -77 ) ( 78 -78 ) ( 79 -79 ) ( 82 -82 ) ( 83 -83 ) ( 84 -84 ) ( 86 -86 ) ( 91 -91 ) ( 92 -92 ) ( 95 -95 ) ( 97 -97 ) ( 106 -106 ) ( 109 -109 ) ( 112 -112 ) ( 113 -113 ) ( 115 -115 ) ( 117 -117 ) ( 118 -118 ) 
( 2 -2 ) ( 4 -4 ) ( 23 -23 ) ( 24 -24 ) ( 35 -35 ) ( 42 -42 ) ( 44 -44 ) ( 45 -45 ) ( 48 -48 ) ( 51 -51 ) ( 55 -55 ) ( 64 -64 ) ( 70 -70 ) ( 79 -79 ) ( 88 -88 ) ( 90 -90 ) ( 95 -95 ) ( 101 -101 ) ( 112 -112 ) ( 114 -114 ) 
( 2 -2 ) ( 4 -4 ) ( 5 -5 ) ( 6 -6 ) ( 7 -7 ) ( 9 -9 ) ( 11 -11 ) ( 13 -13 ) ( 15 -15 ) ( 18 -18 ) ( 20 -20 ) ( 22 -22 ) ( 24 -24 ) ( 26 -26 ) ( 29 -29 ) ( 31 -31 ) ( 32 -32 ) ( 33 -33 ) ( 36 -36 ) ( 38 -38 ) ( 42 -42 ) ( 44 -44 ) ( 45 -45 ) ( 47 -47 ) ( 48 -48 ) ( 50 -50 ) ( 54 -54 ) ( 56 -56 ) ( 59 -59 ) ( 60 -60 ) ( 61 -61 ) ( 62 -62 ) ( 65 -65 ) ( 66 -66 ) ( 67 -67 ) ( 69 -69 ) ( 70 -70 ) ( 74 -74 ) ( 78 -78 ) ( 79 -79 ) ( 82 -82 ) ( 83 -83 ) ( 86 -86 ) ( 97 -97 ) ( 101 -101 ) ( 102 -102 ) ( 106 -106 ) ( 109 -109 ) ( 112 -112 ) ( 113 -113 ) ( 114 -114 ) ( 115 -115 ) ( 117 -117 ) 
( 1 -1 ) ( 2 -2 ) ( 3 -3 ) ( 6 -6 ) ( 9 -9 ) ( 11 -11 ) ( 15 -15 ) ( 16 -16 ) ( 19 -19 ) ( 20 -20 ) ( 21 -21 ) ( 22 -22 ) ( 25 -25 ) ( 26 -26 ) ( 37 -37 ) ( 38 -38 ) ( 39 -39 ) ( 45 -45 ) ( 48 -48 ) ( 50 -50 ) ( 55 -55 ) ( 56 -56 ) ( 58 -58 ) ( 59 -59 ) ( 60 -60 ) ( 62 -62 ) ( 63 -63 ) ( 64 -64 ) ( 69 -69 ) ( 74 -74 ) ( 76 -76 ) ( 77 -77 ) ( 82 -82 ) ( 84 -84 ) ( 89 -89 ) ( 91 -91 ) ( 92 -92 ) ( 94 -94 ) ( 95 -95 ) ( 96 -96 ) ( 97 -97 ) ( 100 -100 ) ( 101 -101 ) ( 103 -103 ) ( 113 -113 ) ( 114 -114 ) ( 115 -115 ) ( 117 -117 ) ( 118 -118 ) 
( 1 -1 ) ( 2 -2 ) ( 3 -3 ) ( 4 -4 ) ( 6 -6 ) ( 15 -15 ) ( 16 -16 ) ( 19 -19 ) ( 20 -20 ) ( 21 -21 ) ( 25 -25 ) ( 26 -26 ) ( 30 -30 ) ( 35 -35 ) ( 37 -37 ) ( 38 -38 ) ( 39 -39 ) ( 48 -48 ) ( 50 -50 ) ( 56 -56 ) ( 58 -58 ) ( 60 -60 ) ( 61 -61 ) ( 62 -62 ) ( 63 -63 ) ( 67 -67 ) ( 69 -69 ) ( 70 -70 ) ( 72 -72 ) ( 74 -74 ) ( 77 -77 ) ( 85 -85 ) ( 90 -90 ) ( 91 -91 ) ( 94 -94 ) ( 95 -95 ) ( 97 -97 ) ( 101 -101 ) ( 113 -113 ) ( 114 -114 ) ( 115 -115 ) ( 117 -117 ) 
( 1 -1 ) ( 2 -2 ) ( 4 -4 ) ( 5 -5 ) ( 7 -7 ) ( 8 -8 ) ( 9 -9 ) ( 10 -10 ) ( 12 -12 ) ( 13 -13 ) ( 15 -15 ) ( 16 -16 ) ( 17 -17 ) ( 18 -18 ) ( 20 -20 ) ( 21 -21 ) ( 22 -22 ) ( 24 -24 ) ( 33 -33 ) ( 35 -35 ) ( 41 -41 ) ( 42 -42 ) ( 50 -50 ) ( 51 -51 ) ( 52 -52 ) ( 60 -60 ) ( 61 -61 ) ( 62 -62 ) ( 63 -63 ) ( 64 -64 ) ( 65 -65 ) ( 66 -66 ) ( 67 -67 ) ( 70 -70 ) ( 72 -72 ) ( 76 -76 ) ( 77 -77 ) ( 78 -78 ) ( 79 -79 ) ( 85 -85 ) ( 86 -86 ) ( 88 -88 ) ( 91 -91 ) ( 92 -92 ) ( 94 -94 ) ( 95 -95 ) ( 97 -97 ) ( 101 -101 ) ( 105 -105 ) ( 114 -114 ) ( 121 -121 ) 
( 1 -1 ) ( 2 -2 ) ( 7 -7 ) ( 8 -8 ) ( 10 -10 ) ( 11 -11 ) ( 12 -12 ) ( 17 -17 ) ( 18 -18 ) ( 19 -19 ) ( 20 -20 ) ( 21 -21 ) ( 22 -22 ) ( 24 -24 ) ( 28 -28 ) ( 29 -29 ) ( 30 -30 ) ( 31 -31 ) ( 32 -32 ) ( 33 -33 ) ( 38 -38 ) ( 42 -42 ) ( 50 -50 ) ( 51 -51 ) ( 54 -54 ) ( 57 -57 ) ( 61 -61 ) ( 62 -62 ) ( 63 -63 ) ( 64 -64 ) ( 65 -65 ) ( 66 -66 ) ( 69 -69 ) ( 72 -72 ) ( 76 -76 ) ( 77 -77 ) ( 78 -78 ) ( 81 -81 ) ( 83 -83 ) ( 85 -85 ) ( 87 -87 ) ( 89 -89 ) ( 91 -91 ) ( 92 -92 ) ( 94 -94 ) ( 100 -100 ) ( 101 -101 ) ( 102 -102 ) ( 106 -106 ) ( 107 -107 ) ( 110 -110 ) ( 112 -112 ) ( 114 -114 ) ( 117 -117 ) ( 118 -118 ) 
( 1 -1 ) ( 2 -2 ) ( 4 -4 ) ( 5 -5 ) ( 6 -6 ) ( 12 -12 ) ( 13 -13 ) ( 16 -16 ) ( 18 -18 ) ( 20 -20 ) ( 21 -21 ) ( 25 -25 ) ( 29 -29 ) ( 30 -30 ) ( 34 -34 ) ( 35 -35 ) ( 37 -37 ) ( 42 -42 ) ( 45 -45 ) ( 52 -52 ) ( 54 -54 ) ( 57 -57 ) ( 58 -58 ) ( 59 -59 ) ( 63 -63 ) ( 64 -64 ) ( 65 -65 ) ( 66 -66 ) ( 67 -67 ) ( 68 -68 ) ( 70 -70 ) ( 74 -74 ) ( 77 -77 ) ( 81 -81 ) ( 83 -83 ) ( 84 -84 ) ( 86 -86 ) ( 87 -87 ) ( 90 -90 ) ( 93 -93 ) ( 95 -95 ) ( 102 -102 ) ( 105 -105 ) ( 107 -107 ) ( 112 -112 ) ( 113 -113 ) ( 115 -115 ) ( 117 -117 ) 
( 2 -2 ) ( 6 -6 ) ( 7 -7 ) ( 12 -12 ) ( 13 -13 ) ( 17 -17 ) ( 21 -21 ) ( 26 -26 ) ( 28 -28 ) ( 29 -29 ) ( 32 -32 ) ( 34 -34 ) ( 41 -41 ) ( 44 -44 ) ( 48 -48 ) ( 50 -50 ) ( 54 -54 ) ( 58 -58 ) ( 59 -59 ) ( 62 -62 ) ( 63 -63 ) ( 65 -65 ) ( 66 -66 ) ( 68 -68 ) ( 74 -74 ) ( 76 -76 ) ( 77 -77 ) ( 78 -78 ) ( 83 -83 ) ( 85 -85 ) ( 86 -86 ) ( 87 -87 ) ( 91 -91 ) ( 93 -93 ) ( 94 -94 ) ( 102 -102 ) ( 107 -107 ) ( 112 -112 ) ( 113 -113 ) 
( 4 -4 ) ( 6 -6 ) ( 7 -7 ) ( 11 -11 ) ( 12 -12 ) ( 13 -13 ) ( 15 -15 ) ( 16 -16 ) ( 19 -19 ) ( 20 -20 ) ( 21 -21 ) ( 28 -28 ) ( 30 -30 ) ( 33 -33 ) ( 34 -34 ) ( 38 -38 ) ( 47 -47 ) ( 48 -48 ) ( 52 -52 ) ( 55 -55 ) ( 57 -57 ) ( 58 -58 ) ( 59 -59 ) ( 62 -62 ) ( 63 -63 ) ( 68 -68 ) ( 72 -72 ) ( 73 -73 ) ( 78 -78 ) ( 79 -79 ) ( 81 -81 ) ( 84 -84 ) ( 88 -88 ) ( 89 -89 ) ( 91 -91 ) ( 93 -93 ) ( 100 -100 ) ( 105 -105 ) ( 109 -109 ) ( 110 -110 ) ( 112 -112 ) ( 116 -116 ) ( 117 -117 ) ( 118 -118 ) ( 121 -121 ) 
( 3 -3 ) ( 4 -4 ) ( 5 -5 ) ( 6 -6 ) ( 10 -10 ) ( 13 -13 ) ( 17 -17 ) ( 18 -18 ) ( 19 -19 ) ( 20 -20 ) ( 21 -21 ) ( 22 -22 ) ( 29 -29 ) ( 30 -30 ) ( 32 -32 ) ( 35 -35 ) ( 42 -42 ) ( 44 -44 ) ( 45 -45 ) ( 47 -47 ) ( 50 -50 ) ( 51 -51 ) ( 52 -52 ) ( 55 -55 ) ( 59 -59 ) ( 60 -60 ) ( 62 -62 ) ( 64 -64 ) ( 67 -67 ) ( 68 -68 ) ( 70 -70 ) ( 72 -72 ) ( 73 -73 ) ( 74 -74 ) ( 76 -76 ) ( 79 -79 ) ( 81 -81 ) ( 89 -89 ) ( 90 -90 ) ( 91 -91 ) ( 93 -93 ) ( 100 -100 ) ( 102 -102 ) ( 105 -105 ) ( 109 -109 ) ( 110 -110 ) ( 112 -112 ) ( 113 -113 ) ( 116 -116 ) ( 117 -117 ) ( 118 -118 ) 
( 5 -5 ) ( 6 -6 ) ( 7 -7 ) ( 9 -9 ) ( 12 -12 ) ( 13 -13 ) ( 17 -17 ) ( 18 -18 ) ( 19 -19 ) ( 20 -20 ) ( 24 -24 ) ( 28 -28 ) ( 29 -29 ) ( 30 -30 ) ( 32 -32 ) ( 33 -33 ) ( 34 -34 ) ( 35 -35 ) ( 41 -41 ) ( 42 -42 ) ( 44 -44 ) ( 45 -45 ) ( 51 -51 ) ( 52 -52 ) ( 55 -55 ) ( 59 -59 ) ( 72 -72 ) ( 73 -73 ) ( 76 -76 ) ( 78 -78 ) ( 79 -79 ) ( 81 -81 ) ( 87 -87 ) ( 88 -88 ) ( 91 -91 ) ( 92 -92 ) ( 94 -94 ) ( 100 -100 ) ( 103 -103 ) ( 105 -105 ) ( 107 -107 ) ( 113 -113 ) ( 117 -117 ) 
( 1 -1 ) ( 9 -9 ) ( 11 -11 ) ( 13 -13 ) ( 19 -19 ) ( 20 -20 ) ( 21 -21 ) ( 22 -22 ) ( 24 -24 ) ( 38 -38 ) ( 41 -41 ) ( 44 -44 ) ( 45 -45 ) ( 47 -47 ) ( 48 -48 ) ( 56 -56 ) ( 57 -57 ) ( 60 -60 ) ( 72 -72 ) ( 77 -77 ) ( 78 -78 ) ( 79 -79 ) ( 88 -88 ) ( 89 -89 ) ( 91 -91 ) ( 92 -92 ) ( 95 -95 ) ( 109 -109 ) ( 113 -113 ) ( 118 -118 ) 
( 1 -1 ) ( 4 -4 ) ( 5 -5 ) ( 6 -6 ) ( 8 -8 ) ( 11 -11 ) ( 13 -13 ) ( 15 -15 ) ( 19 -19 ) ( 24 -24 ) ( 26 -26 ) ( 31 -31 ) ( 34 -34 ) ( 38 -38 ) ( 41 -41 ) ( 44 -44 ) ( 47 -47 ) ( 48 -48 ) ( 50 -50 ) ( 56 -56 ) ( 57 -57 ) ( 61 -61 ) ( 62 -62 ) ( 63 -63 ) ( 64 -64 ) ( 69 -69 ) ( 72 -72 ) ( 73 -73 ) ( 78 -78 ) ( 79 -79 ) ( 85 -85 ) ( 86 -86 ) ( 88 -88 ) ( 90 -90 ) ( 92 -92 ) ( 94 -94 ) ( 103 -103 ) ( 106 -106 ) ( 109 -109 ) ( 117 -117 ) ( 118 -118 ) 
( 2 -2 ) ( 3 -3 ) ( 5 -5 ) ( 6 -6 ) ( 8 -8 ) ( 10 -10 ) ( 11 -11 ) ( 13 -13 ) ( 15 -15 ) ( 20 -20 ) ( 21 -21 ) ( 22 -22 ) ( 32 -32 ) ( 34 -34 ) ( 38 -38 ) ( 42 -42 ) ( 48 -48 ) ( 51 -51 ) ( 57 -57 ) ( 62 -62 ) ( 65 -65 ) ( 66 -66 ) ( 68 -68 ) ( 69 -69 ) ( 72 -72 ) ( 73 -73 ) ( 74 -74 ) ( 77 -77 ) ( 78 -78 ) ( 81 -81 ) ( 84 -84 ) ( 86 -86 ) ( 88 -88 ) ( 89 -89 ) ( 90 -90 ) ( 91 -91 ) ( 94 -94 ) ( 102 -102 ) ( 103 -103 ) ( 113 -113 ) ( 117 -117 ) ( 121 -121 ) 
( 6 -6 ) ( 7 -7 ) ( 8 -8 ) ( 10 -10 ) ( 12 -12 ) ( 13 -13 ) ( 15 -15 ) ( 17 -17 ) ( 18 -18 ) ( 21 -21 ) ( 22 -22 ) ( 28 -28 ) ( 29 -29 ) ( 32 -32 ) ( 33 -33 ) ( 34 -34 ) ( 35 -35 ) ( 37 -37 ) ( 45 -45 ) ( 48 -48 ) ( 55 -55 ) ( 56 -56 ) ( 59 -59 ) ( 61 -61 ) ( 64 -64 ) ( 65 -65 ) ( 66 -66 ) ( 68 -68 ) ( 69 -69 ) ( 74 -74 ) ( 76 -76 ) ( 78 -78 ) ( 81 -81 ) ( 86 -86 ) ( 88 -88 ) ( 89 -89 ) ( 91 -91 ) ( 93 -93 ) ( 103 -103 ) ( 110 -110 ) ( 113 -113 ) ( 115 -115 ) ( 117 -117 ) 
( 3 -3 ) ( 6 -6 ) ( 8 -8 ) ( 9 -9 ) ( 15 -15 ) ( 21 -21 ) ( 22 -22 ) ( 24 -24 ) ( 26 -26 ) ( 30 -30 ) ( 31 -31 ) ( 32 -32 ) ( 34 -34 ) ( 35 -35 ) ( 37 -37 ) ( 44 -44 ) ( 45 -45 ) ( 50 -50 ) ( 55 -55 ) ( 58 -58 ) ( 60 -60 ) ( 62 -62 ) ( 63 -63 ) ( 65 -65 ) ( 66 -66 ) ( 68 -68 ) ( 69 -69 ) ( 72 -72 ) ( 76 -76 ) ( 78 -78 ) ( 81 -81 ) ( 88 -88 ) ( 89 -89 ) ( 94 -94 ) ( 100 -100 ) ( 103 -103 ) ( 106 -106 ) ( 110 -110 ) ( 113 -113 ) ( 115 -115 ) ( 117 -117 ) ( 118 -118 ) 
( 2 -2 ) ( 3 -3 ) ( 12 -12 ) ( 13 -13 ) ( 15 -15 ) ( 17 -17 ) ( 20 -20 ) ( 22 -22 ) ( 26 -26 ) ( 30 -30 ) ( 31 -31 ) ( 33 -33 ) ( 35 -35 ) ( 37 -37 ) ( 44 -44 ) ( 48 -48 ) ( 55 -55 ) ( 56 -56 ) ( 58 -58 ) ( 59 -59 ) ( 61 -61 ) ( 62 -62 ) ( 63 -63 ) ( 65 -65 ) ( 66 -66 ) ( 68 -68 ) ( 72 -72 ) ( 73 -73 ) ( 76 -76 ) ( 81 -81 ) ( 88 -88 ) ( 89 -89 ) ( 91 -91 ) ( 92 -92 ) ( 100 -100 ) ( 106 -106 ) ( 113 -113 ) ( 115 -115 ) ( 117 -117 ) ( 121 -121 ) 
( 2 -2 ) ( 3 -3 ) ( 13 -13 ) ( 15 -15 ) ( 21 -21 ) ( 22 -22 ) ( 26 -26 ) ( 29 -29 ) ( 31 -31 ) ( 33 -33 ) ( 34 -34 ) ( 37 -37 ) ( 41 -41 ) ( 51 -51 ) ( 52 -52 ) ( 57 -57 ) ( 58 -58 ) ( 59 -59 ) ( 61 -61 ) ( 62 -62 ) ( 72 -72 ) ( 74 -74 ) ( 76 -76 ) ( 79 -79 ) ( 85 -85 ) ( 88 -88 ) ( 91 -91 ) ( 92 -92 ) ( 93 -93 ) ( 94 -94 ) ( 105 -105 ) ( 106 -106 ) ( 110 -110 ) ( 112 -112 ) ( 113 -113 ) ( 115 -115 ) ( 121 -121 ) 
( 2 -2 ) ( 3 -3 ) ( 5 -5 ) ( 12 -12 ) ( 17 -17 ) ( 19 -19 ) ( 21 -21 ) ( 22 -22 ) ( 26 -26 ) ( 29 -29 ) ( 30 -30 ) ( 35 -35 ) ( 37 -37 ) ( 42 -42 ) ( 47 -47 ) ( 48 -48 ) ( 50 -50 ) ( 52 -52 ) ( 55 -55 ) ( 56 -56 ) ( 60 -60 ) ( 62 -62 ) ( 65 -65 ) ( 66 -66 ) ( 79 -79 ) ( 90 -90 ) ( 92 -92 ) ( 100 -100 ) ( 102 -102 ) ( 105 -105 ) ( 109 -109 ) ( 110 -110 ) ( 113 -113 ) ( 115 -115 ) ( 117 -117 ) 
( 10 -10 ) ( 12 -12 ) ( 13 -13 ) ( 15 -15 ) ( 17 -17 ) ( 18 -18 ) ( 19 -19 ) ( 20 -20 ) ( 22 -22 ) ( 26 -26 ) ( 29 -29 ) ( 30 -30 ) ( 31 -31 ) ( 32 -32 ) ( 37 -37 ) ( 41 -41 ) ( 44 -44 ) ( 45 -45 ) ( 47 -47 ) ( 51 -51 ) ( 62 -62 ) ( 64 -64 ) ( 65 -65 ) ( 66 -66 ) ( 72 -72 ) ( 73 -73 ) ( 76 -76 ) ( 78 -78 ) ( 79 -79 ) ( 84 -84 ) ( 85 -85 ) ( 86 -86 ) ( 88 -88 ) ( 89 -89 ) ( 91 -91 ) ( 94 -94 ) ( 100 -100 ) ( 102 -102 ) ( 103 -103 ) ( 106 -106 ) ( 109 -109 ) ( 110 -110 ) ( 112 -112 ) ( 113 -113 ) ( 115 -115 ) ( 116 -116 ) ( 117 -117 ) 
( 1 -1 ) ( 2 -2 ) ( 5 -5 ) ( 9 -9 ) ( 12 -12 ) ( 17 -17 ) ( 18 -18 ) ( 19 -19 ) ( 20 -20 ) ( 24 -24 ) ( 26 -26 ) ( 29 -29 ) ( 31 -31 ) ( 35 -35 ) ( 45 -45 ) ( 48 -48 ) ( 50 -50 ) ( 51 -51 ) ( 55 -55 ) ( 57 -57 ) ( 62 -62 ) ( 73 -73 ) ( 77 -77 ) ( 89 -89 ) ( 91 -91 ) ( 94 -94 ) ( 106 -106 ) ( 110 -110 ) ( 117 -117 ) ( 118 -118 ) 
( 1 -1 ) ( 2 -2 ) ( 5 -5 ) ( 15 -15 ) ( 18 -18 ) ( 19 -19 ) ( 20 -20 ) ( 22 -22 ) ( 24 -24 ) ( 29 -29 ) ( 31 -31 ) ( 33 -33 ) ( 34 -34 ) ( 35 -35 ) ( 44 -44 ) ( 45 -45 ) ( 55 -55 ) ( 56 -56 ) ( 57 -57 ) ( 59 -59 ) ( 61 -61 ) ( 65 -65 ) ( 66 -66 ) ( 72 -72 ) ( 74 -74 ) ( 76 -76 ) ( 77 -77 ) ( 81 -81 ) ( 84 -84 ) ( 86 -86 ) ( 89 -89 ) ( 92 -92 ) ( 94 -94 ) ( 106 -106 ) ( 110 -110 ) ( 113 -113 ) ( 117 -117 ) ( 118 -118 ) ( 121 -121 ) 
( 2 -2 ) ( 6 -6 ) ( 10 -10 ) ( 12 -12 ) ( 15 -15 ) ( 17 -17 ) ( 21 -21 ) ( 22 -22 ) ( 29 -29 ) ( 33 -33 ) ( 34 -34 ) ( 37 -37 ) ( 45 -45 ) ( 48 -48 ) ( 50 -50 ) ( 56 -56 ) ( 59 -59 ) ( 60 -60 ) ( 61 -61 ) ( 62 -62 ) ( 64 -64 ) ( 65 -65 ) ( 66 -66 ) ( 72 -72 ) ( 73 -73 ) ( 74 -74 ) ( 78 -78 ) ( 81 -81 ) ( 85 -85 ) ( 86 -86 ) ( 88 -88 ) ( 92 -92 ) ( 94 -94 ) ( 112 -112 ) ( 115 -115 ) ( 117 -117 ) 
( 1 -1 ) ( 2 -2 ) ( 5 -5 ) ( 6 -6 ) ( 9 -9 ) ( 12 -12 ) ( 13 -13 ) ( 19 -19 ) ( 21 -21 ) ( 22 -22 ) ( 29 -29 ) ( 32 -32 ) ( 33 -33 ) ( 37 -37 ) ( 41 -41 ) ( 45 -45 ) ( 48 -48 ) ( 50 -50 ) ( 58 -58 ) ( 59 -59 ) ( 60 -60 ) ( 61 -61 ) ( 62 -62 ) ( 64 -64 ) ( 72 -72 ) ( 73 -73 ) ( 74 -74 ) ( 76 -76 ) ( 78 -78 ) ( 81 -81 ) ( 86 -86 ) ( 88 -88 ) ( 92 -92 ) ( 110 -110 ) ( 115 -115 ) ( 117 -117 ) ( 118 -118 ) 
( 2 -2 ) ( 6 -6 ) ( 9 -9 ) ( 13 -13 ) ( 20 -20 ) ( 21 -21 ) ( 24 -24 ) ( 26 -26 ) ( 31 -31 ) ( 32 -32 ) ( 33 -33 ) ( 34 -34 ) ( 44 -44 ) ( 48 -48 ) ( 50 -50 ) ( 57 -57 ) ( 59 -59 ) ( 60 -60 ) ( 62 -62 ) ( 64 -64 ) ( 68 -68 ) ( 72 -72 ) ( 76 -76 ) ( 77 -77 ) ( 78 -78 ) ( 88 -88 ) ( 90 -90 ) ( 94 -94 ) ( 102 -102 ) ( 103 -103 ) ( 106 -106 ) ( 110 -110 ) ( 116 -116 ) ( 121 -121 ) 
( 1 -1 ) ( 6 -6 ) ( 9 -9 ) ( 12 -12 ) ( 13 -13 ) ( 21 -21 ) ( 22 -22 ) ( 24 -24 ) ( 31 -31 ) ( 37 -37 ) ( 42 -42 ) ( 48 -48 ) ( 60 -60 ) ( 61 -61 ) ( 62 -62 ) ( 64 -64 ) ( 68 -68 ) ( 74 -74 ) ( 78 -78 ) ( 81 -81 ) ( 84 -84 ) ( 88 -88 ) ( 90 -90 ) ( 92 -92 ) ( 94 -94 ) ( 102 -102 ) ( 103 -103 ) ( 106 -106 ) ( 110 -110 ) ( 115 -115 ) ( 116 -116 ) 
( 2 -2 ) ( 6 -6 ) ( 12 -12 ) ( 13 -13 ) ( 19 -19 ) ( 20 -20 ) ( 24 -24 ) ( 26 -26 ) ( 29 -29 ) ( 48 -48 ) ( 50 -50 ) ( 57 -57 ) ( 62 -62 ) ( 64 -64 ) ( 68 -68 ) ( 74 -74 ) ( 78 -78 ) ( 79 -79 ) ( 81 -81 ) ( 84 -84 ) ( 85 -85 ) ( 88 -88 ) ( 89 -89 ) ( 90 -90 ) ( 91 -91 ) ( 102 -102 ) ( 110 -110 ) ( 112 -112 ) ( 117 -117 ) 
( 6 -6 ) ( 12 -12 ) ( 13 -13 ) ( 18 -18 ) ( 19 -19 ) ( 20 -20 ) ( 26 -26 ) ( 33 -33 ) ( 37 -37 ) ( 41 -41 ) ( 57 -57 ) ( 58 -58 ) ( 59 -59 ) ( 62 -62 ) ( 72 -72 ) ( 74 -74 ) ( 79 -79 ) ( 84 -84 ) ( 86 -86 ) ( 88 -88 ) ( 89 -89 ) ( 92 -92 ) ( 94 -94 ) ( 103 -103 ) ( 115 -115 ) ( 116 -116 ) ( 117 -117 ) ( 121 -121 ) 
( 3 -3 ) ( 6 -6 ) ( 9 -9 ) ( 13 -13 ) ( 19 -19 ) ( 20 -20 ) ( 31 -31 ) ( 32 -32 ) ( 33 -33 ) ( 34 -34 ) ( 37 -37 ) ( 41 -41 ) ( 44 -44 ) ( 48 -48 ) ( 58 -58 ) ( 59 -59 ) ( 60 -60 ) ( 62 -62 ) ( 72 -72 ) ( 74 -74 ) ( 79 -79 ) ( 84 -84 ) ( 85 -85 ) ( 86 -86 ) ( 89 -89 ) ( 92 -92 ) ( 94 -94 ) ( 103 -103 ) ( 106 -106 ) ( 110 -110 ) ( 112 -112 ) ( 115 -115 ) ( 118 -118 ) ( 121 -121 ) 
( 9 -9 ) ( 18 -18 ) ( 20 -20 ) ( 22 -22 ) ( 29 -29 ) ( 30 -30 ) ( 31 -31 ) ( 33 -33 ) ( 34 -34 ) ( 48 -48 ) ( 56 -56 ) ( 57 -57 ) ( 59 -59 ) ( 62 -62 ) ( 72 -72 ) ( 74 -74 ) ( 78 -78 ) ( 79 -79 ) ( 84 -84 ) ( 85 -85 ) ( 88 -88 ) ( 89 -89 ) ( 92 -92 ) ( 100 -100 ) ( 102 -102 ) ( 103 -103 ) ( 106 -106 ) ( 110 -110 ) ( 112 -112 ) ( 113 -113 ) ( 121 -121 ) 
( 2 -2 ) ( 9 -9 ) ( 19 -19 ) ( 30 -30 ) ( 31 -31 ) ( 34 -34 ) ( 41 -41 ) ( 44 -44 ) ( 45 -45 ) ( 48 -48 ) ( 61 -61 ) ( 64 -64 ) ( 68 -68 ) ( 72 -72 ) ( 73 -73 ) ( 74 -74 ) ( 78 -78 ) ( 79 -79 ) ( 85 -85 ) ( 89 -89 ) ( 90 -90 ) ( 91 -91 ) ( 92 -92 ) ( 100 -100 ) ( 106 -106 ) ( 112 -112 ) ( 117 -117 ) ( 121 -121 ) 
( 3 -3 ) ( 9 -9 ) ( 18 -18 ) ( 19 -19 ) ( 22 -22 ) ( 26 -26 ) ( 30 -30 ) ( 32 -32 ) ( 34 -34 ) ( 37 -37 ) ( 44 -44 ) ( 45 -45 ) ( 56 -56 ) ( 57 -57 ) ( 61 -61 ) ( 62 -62 ) ( 64 -64 ) ( 65 -65 ) ( 66 -66 ) ( 72 -72 ) ( 73 -73 ) ( 74 -74 ) ( 78 -78 ) ( 79 -79 ) ( 85 -85 ) ( 89 -89 ) ( 90 -90 ) ( 92 -92 ) ( 94 -94 ) ( 100 -100 ) ( 112 -112 ) ( 115 -115 ) ( 117 -117 ) 
( 2 -2 ) ( 6 -6 ) ( 9 -9 ) ( 10 -10 ) ( 13 -13 ) ( 17 -17 ) ( 20 -20 ) ( 22 -22 ) ( 29 -29 ) ( 41 -41 ) ( 44 -44 ) ( 61 -61 ) ( 68 -68 ) ( 73 -73 ) ( 74 -74 ) ( 79 -79 ) ( 81 -81 ) ( 84 -84 ) ( 90 -90 ) ( 103 -103 ) ( 121 -121 ) 
( 2 -2 ) ( 3 -3 ) ( 6 -6 ) ( 17 -17 ) ( 19 -19 ) ( 20 -20 ) ( 24 -24 ) ( 29 -29 ) ( 30 -30 ) ( 31 -31 ) ( 33 -33 ) ( 44 -44 ) ( 59 -59 ) ( 60 -60 ) ( 61 -61 ) ( 62 -62 ) ( 64 -64 ) ( 68 -68 ) ( 72 -72 ) ( 73 -73 ) ( 74 -74 ) ( 78 -78 ) ( 79 -79 ) ( 81 -81 ) ( 90 -90 ) ( 92 -92 ) ( 94 -94 ) ( 100 -100 ) ( 106 -106 ) ( 117 -117 ) ( 121 -121 ) 
( 2 -2 ) ( 3 -3 ) ( 6 -6 ) ( 10 -10 ) ( 17 -17 ) ( 18 -18 ) ( 20 -20 ) ( 24 -24 ) ( 31 -31 ) ( 41 -41 ) ( 44 -44 ) ( 58 -58 ) ( 61 -61 ) ( 64 -64 ) ( 68 -68 ) ( 72 -72 ) ( 78 -78 ) ( 79 -79 ) ( 81 -81 ) ( 84 -84 ) ( 85 -85 ) ( 86 -86 ) ( 88 -88 ) ( 89 -89 ) ( 90 -90 ) ( 94 -94 ) ( 106 -106 ) ( 112 -112 ) ( 121 -121 ) 
( 3 -3 ) ( 6 -6 ) ( 10 -10 ) ( 13 -13 ) ( 17 -17 ) ( 18 -18 ) ( 19 -19 ) ( 29 -29 ) ( 37 -37 ) ( 44 -44 ) ( 56 -56 ) ( 58 -58 ) ( 61 -61 ) ( 65 -65 ) ( 66 -66 ) ( 72 -72 ) ( 74 -74 ) ( 78 -78 ) ( 85 -85 ) ( 86 -86 ) ( 89 -89 ) ( 112 -112 ) ( 115 -115 ) ( 117 -117 ) 
( 2 -2 ) ( 13 -13 ) ( 17 -17 ) ( 19 -19 ) ( 24 -24 ) ( 41 -41 ) ( 48 -48 ) ( 58 -58 ) ( 60 -60 ) ( 61 -61 ) ( 64 -64 ) ( 65 -65 ) ( 66 -66 ) ( 68 -68 ) ( 72 -72 ) ( 74 -74 ) ( 78 -78 ) ( 81 -81 ) ( 85 -85 ) ( 86 -86 ) ( 88 -88 ) ( 89 -89 ) ( 90 -90 ) ( 94 -94 ) ( 112 -112 ) ( 117 -117 ) 
( 2 -2 ) ( 10 -10 ) ( 13 -13 ) ( 24 -24 ) ( 41 -41 ) ( 56 -56 ) ( 58 -58 ) ( 60 -60 ) ( 62 -62 ) ( 64 -64 ) ( 68 -68 ) ( 73 -73 ) ( 74 -74 ) ( 81 -81 ) ( 85 -85 ) ( 86 -86 ) ( 88 -88 ) ( 89 -89 ) ( 90 -90 ) ( 92 -92 ) ( 94 -94 ) ( 112 -112 ) ( 117 -117 ) 
( 2 -2 ) ( 13 -13 ) ( 34 -34 ) ( 37 -37 ) ( 41 -41 ) ( 48 -48 ) ( 62 -62 ) ( 68 -68 ) ( 74 -74 ) ( 78 -78 ) ( 81 -81 ) ( 84 -84 ) ( 85 -85 ) ( 88 -88 ) ( 90 -90 ) ( 94 -94 ) ( 112 -112 ) ( 115 -115 ) 
( 1 -1 ) ( 2 -2 ) ( 10 -10 ) ( 17 -17 ) ( 18 -18 ) ( 19 -19 ) ( 24 -24 ) ( 26 -26 ) ( 29 -29 ) ( 33 -33 ) ( 41 -41 ) ( 42 -42 ) ( 48 -48 ) ( 59 -59 ) ( 60 -60 ) ( 64 -64 ) ( 68 -68 ) ( 72 -72 ) ( 74 -74 ) ( 78 -78 ) ( 79 -79 ) ( 81 -81 ) ( 85 -85 ) ( 88 -88 ) ( 89 -89 ) ( 103 -103 ) ( 112 -112 ) ( 113 -113 ) ( 117 -117 ) 
( 2 -2 ) ( 6 -6 ) ( 17 -17 ) ( 20 -20 ) ( 26 -26 ) ( 29 -29 ) ( 34 -34 ) ( 41 -41 ) ( 45 -45 ) ( 56 -56 ) ( 60 -60 ) ( 61 -61 ) ( 62 -62 ) ( 64 -64 ) ( 68 -68 ) ( 73 -73 ) ( 79 -79 ) ( 81 -81 ) ( 85 -85 ) ( 92 -92 ) ( 94 -94 ) ( 103 -103 ) ( 112 -112 ) ( 113 -113 ) ( 121 -121 ) 
( 1 -1 ) ( 10 -10 ) ( 13 -13 ) ( 19 -19 ) ( 26 -26 ) ( 29 -29 ) ( 33 -33 ) ( 34 -34 ) ( 41 -41 ) ( 42 -42 ) ( 48 -48 ) ( 59 -59 ) ( 73 -73 ) ( 74 -74 ) ( 78 -78 ) ( 79 -79 ) ( 81 -81 ) ( 85 -85 ) ( 88 -88 ) ( 94 -94 ) ( 112 -112 ) ( 113 -113 ) 
( 1 -1 ) ( 2 -2 ) ( 6 -6 ) ( 10 -10 ) ( 18 -18 ) ( 19 -19 ) ( 33 -33 ) ( 34 -34 ) ( 41 -41 ) ( 42 -42 ) ( 56 -56 ) ( 59 -59 ) ( 68 -68 ) ( 72 -72 ) ( 74 -74 ) ( 79 -79 ) ( 81 -81 ) ( 88 -88 ) ( 89 -89 ) ( 92 -92 ) ( 103 -103 ) 
( 2 -2 ) ( 17 -17 ) ( 29 -29 ) ( 34 -34 ) ( 44 -44 ) ( 61 -61 ) ( 62 -62 ) ( 68 -68 ) ( 74 -74 ) ( 85 -85 ) ( 94 -94 ) ( 103 -103 ) ( 112 -112 ) 
( 17 -17 ) ( 18 -18 ) ( 19 -19 ) ( 26 -26 ) ( 29 -29 ) ( 34 -34 ) ( 41 -41 ) ( 44 -44 ) ( 56 -56 ) ( 60 -60 ) ( 61 -61 ) ( 62 -62 ) ( 72 -72 ) ( 73 -73 ) ( 74 -74 ) ( 79 -79 ) ( 84 -84 ) ( 89 -89 ) ( 94 -94 ) ( 113 -113 ) ( 117 -117 ) 
( 2 -2 ) ( 17 -17 ) ( 18 -18 ) ( 19 -19 ) ( 34 -34 ) ( 56 -56 ) ( 60 -60 ) ( 61 -61 ) ( 68 -68 ) ( 72 -72 ) ( 74 -74 ) ( 79 -79 ) ( 81 -81 ) ( 88 -88 ) ( 89 -89 ) ( 90 -90 ) ( 92 -92 ) ( 94 -94 ) ( 117 -117 ) 
( 13 -13 ) ( 17 -17 ) ( 18 -18 ) ( 20 -20 ) ( 26 -26 ) ( 29 -29 ) ( 33 -33 ) ( 34 -34 ) ( 41 -41 ) ( 59 -59 ) ( 60 -60 ) ( 61 -61 ) ( 62 -62 ) ( 73 -73 ) ( 74 -74 ) ( 79 -79 ) ( 81 -81 ) ( 88 -88 ) ( 89 -89 ) ( 90 -90 ) ( 94 -94 ) ( 103 -103 ) ( 113 -113 ) ( 117 -117 ) ( 121 -121 ) 
( 20 -20 ) ( 33 -33 ) ( 41 -41 ) ( 59 -59 ) ( 61 -61 ) ( 72 -72 ) ( 73 -73 ) ( 79 -79 ) ( 81 -81 ) ( 84 -84 ) ( 90 -90 ) ( 92 -92 ) ( 121 -121 ) 
( 6 -6 ) ( 20 -20 ) ( 26 -26 ) ( 56 -56 ) ( 60 -60 ) ( 73 -73 ) ( 79 -79 ) ( 113 -113 ) ( 121 -121 ) 
( 20 -20 ) ( 61 -61 ) ( 72 -72 ) ( 73 -73 ) ( 84 -84 ) ( 92 -92 ) ( 121 -121 ) 
( 6 -6 ) ( 10 -10 ) ( 18 -18 ) ( 19 -19 ) ( 34 -34 ) ( 56 -56 ) ( 60 -60 ) ( 61 -61 ) ( 62 -62 ) ( 79 -79 ) ( 81 -81 ) ( 94 -94 ) ( 103 -103 ) ( 117 -117 ) 
( 6 -6 ) ( 10 -10 ) ( 18 -18 ) ( 29 -29 ) ( 34 -34 ) ( 60 -60 ) ( 72 -72 ) ( 73 -73 ) ( 79 -79 ) ( 84 -84 ) ( 94 -94 ) ( 103 -103 ) ( 117 -117 ) 
( 10 -10 ) ( 13 -13 ) ( 18 -18 ) ( 19 -19 ) ( 29 -29 ) ( 34 -34 ) ( 41 -41 ) ( 73 -73 ) ( 79 -79 ) ( 90 -90 ) ( 94 -94 ) ( 117 -117 ) 
( 6 -6 ) ( 10 -10 ) ( 13 -13 ) ( 17 -17 ) ( 18 -18 ) ( 41 -41 ) ( 73 -73 ) ( 79 -79 ) ( 81 -81 ) ( 89 -89 ) ( 90 -90 ) ( 94 -94 ) 
( 10 -10 ) ( 17 -17 ) ( 18 -18 ) ( 56 -56 ) ( 94 -94 ) 
( 13 -13 ) ( 19 -19 ) ( 41 -41 ) ( 56 -56 ) ( 62 -62 ) ( 73 -73 ) ( 92 -92 ) ( 94 -94 ) ( 117 -117 ) 
( 13 -13 ) ( 41 -41 ) ( 60 -60 ) ( 79 -79 ) ( 81 -81 ) ( 89 -89 ) 
( 10 -10 ) ( 13 -13 ) ( 34 -34 ) ( 41 -41 ) ( 56 -56 ) ( 73 -73 ) ( 79 -79 ) ( 81 -81 ) ( 90 -90 ) ( 117 -117 ) 
( 19 -19 ) ( 56 -56 ) ( 73 -73 ) ( 79 -79 ) ( 81 -81 ) ( 90 -90 ) 
( 13 -13 ) ( 18 -18 ) ( 19 -19 ) ( 41 -41 ) ( 56 -56 ) ( 117 -117 ) 
