rows 2 columns 18
1 -1 3 -3 5 -5 7 -7 9 -9 11 -11 13 -13 15 -15 17 -17 
2 -2 4 -4 6 -6 8 -8 10 -10 12 -12 14 -14 16 -16 18 -18 
( 1 17 ) ( -1 -17 ) ( 2 18 ) ( -2 -18 ) ( 3 15 ) ( -3 -15 ) ( 4 16 ) ( -4 -16 ) ( 5 13 ) ( -5 -13 ) ( 6 14 ) ( -6 -14 ) ( 7 11 ) ( -7 -11 ) ( 8 12 ) ( -8 -12 ) 
