( 1 20 ) ( -1 -20 ) ( 2 12 ) ( -2 -12 ) ( 4 31 ) ( -4 -31 ) ( 5 29 ) ( -5 -29 ) ( 6 32 ) ( -6 -32 ) ( 7 28 ) ( -7 -28 ) ( 8 30 ) ( -8 -30 ) ( 9 33 ) ( -9 -33 ) ( 10 34 ) ( -10 -34 ) ( 13 24 ) ( -13 -24 ) ( 14 22 ) ( -14 -22 ) ( 15 25 ) ( -15 -25 ) ( 16 21 ) ( -16 -21 ) ( 17 23 ) ( -17 -23 ) ( 18 26 ) ( -18 -26 ) ( 19 27 ) ( -19 -27 ) ( 35 42 ) ( -35 -42 ) ( 36 50 ) ( -36 -50 ) ( 38 46 ) ( -38 -46 ) ( 39 51 ) ( -39 -51 ) ( 40 52 ) ( -40 -52 ) ( 41 43 ) ( -41 -43 ) ( 48 53 ) ( -48 -53 ) ( 49 54 ) ( -49 -54 ) 
( 1 5 4 3 ) ( -1 -5 -4 -3 ) ( 7 9 8 10 ) ( -7 -9 -8 -10 ) ( 11 22 21 20 ) ( -11 -22 -21 -20 ) ( 12 14 35 28 ) ( -12 -14 -35 -28 ) ( 13 29 ) ( -13 -29 ) ( 15 41 36 30 ) ( -15 -41 -36 -30 ) ( 16 44 38 34 ) ( -16 -44 -38 -34 ) ( 17 45 37 33 ) ( -17 -45 -37 -33 ) ( 18 43 40 31 ) ( -18 -43 -40 -31 ) ( 19 42 39 32 ) ( -19 -42 -39 -32 ) ( 24 26 25 27 ) ( -24 -26 -25 -27 ) ( 46 48 47 49 ) ( -46 -48 -47 -49 ) ( 50 55 ) ( -50 -55 ) ( 51 53 54 52 ) ( -51 -53 -54 -52 ) 
( 1 11 ) ( -1 -11 ) ( 3 25 ) ( -3 -25 ) ( 4 21 ) ( -4 -21 ) ( 5 27 9 24 ) ( -5 -27 -9 -24 ) ( 6 23 ) ( -6 -23 ) ( 7 22 10 26 ) ( -7 -22 -10 -26 ) ( 8 20 ) ( -8 -20 ) ( 12 17 ) ( -12 -17 ) ( 14 19 18 16 ) ( -14 -19 -18 -16 ) ( 28 38 ) ( -28 -38 ) ( 29 54 33 50 ) ( -29 -54 -33 -50 ) ( 30 47 ) ( -30 -47 ) ( 31 43 34 53 ) ( -31 -43 -34 -53 ) ( 35 40 39 37 ) ( -35 -40 -39 -37 ) ( 41 49 48 46 ) ( -41 -49 -48 -46 ) ( 42 45 55 51 ) ( -42 -45 -55 -51 ) ( 44 52 ) ( -44 -52 ) 
( 1 11 ) ( -1 -11 ) ( 3 27 ) ( -3 -27 ) ( 4 21 ) ( -4 -21 ) ( 5 24 ) ( -5 -24 ) ( 6 23 ) ( -6 -23 ) ( 7 22 ) ( -7 -22 ) ( 8 25 ) ( -8 -25 ) ( 9 26 ) ( -9 -26 ) ( 10 20 ) ( -10 -20 ) ( 12 19 ) ( -12 -19 ) ( 14 16 ) ( -14 -16 ) ( 28 40 ) ( -28 -40 ) ( 29 52 ) ( -29 -52 ) ( 30 49 ) ( -30 -49 ) ( 31 45 ) ( -31 -45 ) ( 32 54 ) ( -32 -54 ) ( 33 55 ) ( -33 -55 ) ( 35 37 ) ( -35 -37 ) ( 41 46 ) ( -41 -46 ) ( 43 50 ) ( -43 -50 ) ( 44 51 ) ( -44 -51 ) 
( 3 5 ) ( -3 -5 ) ( 6 8 ) ( -6 -8 ) ( 9 10 ) ( -9 -10 ) ( 12 14 ) ( -12 -14 ) ( 15 17 ) ( -15 -17 ) ( 18 19 ) ( -18 -19 ) ( 20 22 ) ( -20 -22 ) ( 23 25 ) ( -23 -25 ) ( 26 27 ) ( -26 -27 ) ( 28 35 ) ( -28 -35 ) ( 30 43 ) ( -30 -43 ) ( 31 42 ) ( -31 -42 ) ( 32 41 ) ( -32 -41 ) ( 33 45 ) ( -33 -45 ) ( 34 44 ) ( -34 -44 ) ( 36 38 ) ( -36 -38 ) ( 39 40 ) ( -39 -40 ) ( 46 50 ) ( -46 -50 ) ( 48 54 ) ( -48 -54 ) ( 49 53 ) ( -49 -53 ) ( 51 52 ) ( -51 -52 ) 
( 1 11 ) ( -1 -11 ) ( 3 24 ) ( -3 -24 ) ( 4 21 ) ( -4 -21 ) ( 5 22 ) ( -5 -22 ) ( 6 23 ) ( -6 -23 ) ( 7 20 ) ( -7 -20 ) ( 8 25 ) ( -8 -25 ) ( 9 26 ) ( -9 -26 ) ( 10 27 ) ( -10 -27 ) ( 12 16 ) ( -12 -16 ) ( 28 37 ) ( -28 -37 ) ( 29 42 ) ( -29 -42 ) ( 30 46 ) ( -30 -46 ) ( 32 50 ) ( -32 -50 ) ( 33 51 ) ( -33 -51 ) ( 34 52 ) ( -34 -52 ) 
( 1 11 ) ( -1 -11 ) ( 3 20 ) ( -3 -20 ) ( 4 21 ) ( -4 -21 ) ( 5 22 ) ( -5 -22 ) ( 6 25 ) ( -6 -25 ) ( 7 24 ) ( -7 -24 ) ( 8 23 ) ( -8 -23 ) ( 9 26 ) ( -9 -26 ) ( 10 27 ) ( -10 -27 ) ( 15 17 ) ( -15 -17 ) ( 30 32 ) ( -30 -32 ) ( 36 38 ) ( -36 -38 ) ( 41 43 ) ( -41 -43 ) ( 46 50 ) ( -46 -50 ) ( 48 53 ) ( -48 -53 ) ( 49 54 ) ( -49 -54 ) 
( 1 21 ) ( -1 -21 ) ( 3 20 ) ( -3 -20 ) ( 4 11 ) ( -4 -11 ) ( 5 22 ) ( -5 -22 ) ( 6 23 ) ( -6 -23 ) ( 7 24 ) ( -7 -24 ) ( 8 25 ) ( -8 -25 ) ( 9 26 ) ( -9 -26 ) ( 10 27 ) ( -10 -27 ) ( 12 28 ) ( -12 -28 ) ( 14 35 ) ( -14 -35 ) ( 15 36 ) ( -15 -36 ) ( 16 37 ) ( -16 -37 ) ( 17 38 ) ( -17 -38 ) ( 18 39 ) ( -18 -39 ) ( 19 40 ) ( -19 -40 ) 
( 1 11 ) ( -1 -11 ) ( 3 20 ) ( -3 -20 ) ( 4 21 ) ( -4 -21 ) ( 5 22 ) ( -5 -22 ) ( 6 23 ) ( -6 -23 ) ( 7 24 ) ( -7 -24 ) ( 8 25 ) ( -8 -25 ) ( 9 26 ) ( -9 -26 ) ( 10 27 ) ( -10 -27 ) 
