( 1 -1 ) ( 2 -8 7 -3 5 -2 8 -7 3 -5 ) ( 4 -4 ) ( 6 -9 ) ( -6 9 ) ( 10 -16 15 -11 13 -10 16 -15 11 -13 ) ( 12 -12 ) ( 14 -17 ) ( -14 17 ) ( 18 -38 22 -29 37 -18 38 -22 29 -37 ) ( 19 -34 33 -25 31 -19 34 -33 25 -31 ) ( 20 -23 43 -28 26 -20 23 -43 28 -26 ) ( 21 -45 40 -30 36 -24 41 -44 27 -39 ) ( -21 45 -40 30 -36 24 -41 44 -27 39 ) ( 32 -35 ) ( -32 35 ) ( 42 -42 ) 
( 1 18 ) ( -1 -18 ) ( 2 10 11 3 ) ( -2 -10 -11 -3 ) ( 4 19 12 25 ) ( -4 -19 -12 -25 ) ( 5 24 14 28 8 20 17 27 7 23 13 30 6 22 16 26 9 21 15 29 ) ( -5 -24 -14 -28 -8 -20 -17 -27 -7 -23 -13 -30 -6 -22 -16 -26 -9 -21 -15 -29 ) ( 31 35 32 33 34 ) ( -31 -35 -32 -33 -34 ) ( 36 44 41 37 45 ) ( -36 -44 -41 -37 -45 ) ( 38 39 42 40 43 ) ( -38 -39 -42 -40 -43 ) 
( 2 12 ) ( -2 -12 ) ( 3 17 5 11 9 13 ) ( -3 -17 -5 -11 -9 -13 ) ( 4 10 ) ( -4 -10 ) ( 6 15 ) ( -6 -15 ) ( 7 14 ) ( -7 -14 ) ( 8 16 ) ( -8 -16 ) ( 18 35 20 25 24 31 ) ( -18 -35 -20 -25 -24 -31 ) ( 21 33 ) ( -21 -33 ) ( 22 32 ) ( -22 -32 ) ( 23 34 ) ( -23 -34 ) ( 26 30 39 ) ( -26 -30 -39 ) ( 27 44 36 28 42 37 ) ( -27 -44 -36 -28 -42 -37 ) ( 29 45 38 ) ( -29 -45 -38 ) ( 41 43 ) ( -41 -43 ) 
( 2 4 ) ( -2 -4 ) ( 5 8 ) ( -5 -8 ) ( 10 12 ) ( -10 -12 ) ( 13 16 ) ( -13 -16 ) ( 18 25 ) ( -18 -25 ) ( 20 34 ) ( -20 -34 ) ( 21 32 ) ( -21 -32 ) ( 22 33 ) ( -22 -33 ) ( 23 31 ) ( -23 -31 ) ( 24 35 ) ( -24 -35 ) ( 26 29 ) ( -26 -29 ) ( 36 41 ) ( -36 -41 ) ( 37 43 ) ( -37 -43 ) ( 39 45 ) ( -39 -45 ) 
( 2 9 ) ( -2 -9 ) ( 3 5 ) ( -3 -5 ) ( 10 17 ) ( -10 -17 ) ( 11 13 ) ( -11 -13 ) ( 18 39 ) ( -18 -39 ) ( 19 35 ) ( -19 -35 ) ( 20 30 ) ( -20 -30 ) ( 21 42 ) ( -21 -42 ) ( 22 44 ) ( -22 -44 ) ( 23 45 ) ( -23 -45 ) ( 25 31 ) ( -25 -31 ) ( 27 36 ) ( -27 -36 ) ( 28 37 ) ( -28 -37 ) ( 29 38 ) ( -29 -38 ) 
( 2 6 ) ( -2 -6 ) ( 10 14 ) ( -10 -14 ) ( 18 27 ) ( -18 -27 ) ( 19 32 ) ( -19 -32 ) ( 20 36 ) ( -20 -36 ) ( 22 40 ) ( -22 -40 ) ( 23 41 ) ( -23 -41 ) ( 24 42 ) ( -24 -42 ) 
( 2 3 ) ( -2 -3 ) ( 5 8 7 ) ( -5 -8 -7 ) ( 10 11 ) ( -10 -11 ) ( 13 16 15 ) ( -13 -16 -15 ) ( 19 25 ) ( -19 -25 ) ( 20 29 22 26 23 28 ) ( -20 -29 -22 -26 -23 -28 ) ( 21 27 ) ( -21 -27 ) ( 24 30 ) ( -24 -30 ) ( 31 34 33 ) ( -31 -34 -33 ) ( 36 41 40 ) ( -36 -41 -40 ) ( 37 38 43 ) ( -37 -38 -43 ) ( 39 45 44 ) ( -39 -45 -44 ) 
( 3 5 ) ( -3 -5 ) ( 11 13 ) ( -11 -13 ) ( 18 20 ) ( -18 -20 ) ( 25 31 ) ( -25 -31 ) ( 27 36 ) ( -27 -36 ) ( 28 37 ) ( -28 -37 ) ( 29 38 ) ( -29 -38 ) ( 30 39 ) ( -30 -39 ) 
rows 3 columns 16
3 -3 11 -11 18 -18 25 -25 26 -26 27 -27 30 -30 43 -43 
8 -8 16 -16 23 -23 34 -34 38 -38 41 -41 45 -45 28 -28 
7 -7 15 -15 22 -22 33 -33 37 -37 40 -40 44 -44 29 -29 
