Name,OutCode,Time,Mem
cnfdedup_run.sh+001-80-12.cnf+7d889c26,0,1.12,55524
cnfdedup_run.sh+002-23-96.cnf+de555e7a,0,0.31,17488
cnfdedup_run.sh+002-80-12.cnf+126d4ee7,0,1.11,55524
cnfdedup_run.sh+002-80-4.cnf+19879aa8,0,1.12,55520
cnfdedup_run.sh+002-80-8.cnf+19bff8ac,0,1.1,55524
cnfdedup_run.sh+003-23-80.cnf+7130ab96,0,0.32,17488
cnfdedup_run.sh+003-80-8.cnf+e0969cb,0,1.12,55520
cnfdedup_run.sh+004-22-144.cnf+bd160eab,0,0.28,17496
cnfdedup_run.sh+004-22-160.cnf+c04761e5,0,0.29,17496
cnfdedup_run.sh+004-80-8.cnf+252daea,0,1.11,55524
cnfdedup_run.sh+005-22-160.cnf+c7f90744,0,0.29,17496
cnfdedup_run.sh+005-80-12.cnf+d11b672a,0,1.13,55520
cnfdedup_run.sh+006-22-144.cnf+cc795969,0,0.3,17496
cnfdedup_run.sh+006-22-160.cnf+cfaaaca3,0,0.28,17496
cnfdedup_run.sh+006-23-80.cnf+2fdec3d9,0,0.3,17488
cnfdedup_run.sh+006-23-96.cnf+31e8297e,0,0.3,17484
cnfdedup_run.sh+006-80-4.cnf+eaad5f24,0,1.09,55524
cnfdedup_run.sh+007-80-12.cnf+fae4ccac,0,1.14,55524
cnfdedup_run.sh+007-80-8.cnf+df2f2e47,0,1.11,55520
cnfdedup_run.sh+008-80-12.cnf+8fc97f6d,0,1.12,55520
cnfdedup_run.sh+008-80-4.cnf+d3404162,0,1.13,55524
cnfdedup_run.sh+008-80-8.cnf+d3789f66,0,1.11,55524
cnfdedup_run.sh+009-23-64.cnf+eb5b88e2,0,0.3,17484
cnfdedup_run.sh+009-80-4.cnf+c789b281,0,1.1,55524
cnfdedup_run.sh+009-80-8.cnf+c7c21085,0,1.13,55520
cnfdedup_run.sh+010-22-144.cnf+8cd27fb0,0,0.29,17496
cnfdedup_run.sh+010-22-160.cnf+9003d2ea,0,0.29,17496
cnfdedup_run.sh+010-23-80.cnf+ba3438b2,0,0.3,17488
cnfdedup_run.sh+010-80-12.cnf+f0558ec4,0,1.15,55520
cnfdedup_run.sh+10pipe_q0_k.cnf+14980329,0,3.02,220480
cnfdedup_run.sh+11pipe_11_ooo.cnf+f52dd42d,0,5.85,442128
cnfdedup_run.sh+11pipe_k.cnf+a536cd88,0,7.08,614948
cnfdedup_run.sh+11pipe_q0_k.cnf+f675ccc8,0,4.52,327648
cnfdedup_run.sh+12pipe_q0_k.cnf+d8539667,0,6.09,445316
cnfdedup_run.sh+13pipe_q0_k.cnf+ba316006,0,8.69,631016
cnfdedup_run.sh+14pipe_q0_k.cnf+9c0f29a5,0,11.53,819968
cnfdedup_run.sh+15pipe_q0_k.cnf+7decf344,0,15.31,1125092
cnfdedup_run.sh+289-unsat-6x30.cnf+c9844d89,0,0.03,3972
cnfdedup_run.sh+5-SATISFIABLE.cnf+273789bf,0,1.77,99304
cnfdedup_run.sh+6s10.cnf+faeabeaa,0,0.12,11508
cnfdedup_run.sh+6s11-opt.cnf+a02ac791,0,0.11,11244
cnfdedup_run.sh+6s12.cnf+fb06edac,0,0.12,11508
cnfdedup_run.sh+6s123.cnf+6604fdc1,0,4.18,279452
cnfdedup_run.sh+6s126-opt.cnf+8fda812a,0,2.65,180680
cnfdedup_run.sh+6s13-opt.cnf+c8b3a593,0,0.21,17472
cnfdedup_run.sh+6s130-opt.cnf+a895843,0,0.19,16680
cnfdedup_run.sh+6s131-opt.cnf+9ecdc744,0,0.19,16676
cnfdedup_run.sh+6s133.cnf+67b9d660,0,0.21,16416
cnfdedup_run.sh+6s137.cnf+67f23464,0,3.56,252976
cnfdedup_run.sh+6s151.cnf+6b07589c,0,0.14,12296
cnfdedup_run.sh+6s153.cnf+6b23879e,0,0.32,26184
cnfdedup_run.sh+6s16-opt.cnf+8580f296,0,0.11,10448
cnfdedup_run.sh+6s16.cnf+fb3f4bb0,0,0.12,10712
cnfdedup_run.sh+6s165-nonopt.cnf+a403230e,0,0.01,2324
cnfdedup_run.sh+6s167-opt.cnf+f544b4a7,0,0.01,2692
cnfdedup_run.sh+6s168-opt.cnf+898923a8,0,0.01,2916
cnfdedup_run.sh+6s169-opt.cnf+1dcd92a9,0,0.01,3180
cnfdedup_run.sh+6s17-opt.cnf+19c56197,0,0.18,16152
cnfdedup_run.sh+6s184.cnf+705028fc,0,0.13,11244
cnfdedup_run.sh+6s9.cnf+31d304c8,0,0.12,11508
cnfdedup_run.sh+7pipe_k.cnf+f12ec6fd,0,1.05,82628
cnfdedup_run.sh+8pipe_k.cnf+861379be,0,1.83,147912
cnfdedup_run.sh+9dlx_vliw_at_b_iq3.cnf+6496b583,0,1.48,103080
cnfdedup_run.sh+9dlx_vliw_at_b_iq4.cnf+64a4cd04,0,2.43,172740
cnfdedup_run.sh+9dlx_vliw_at_b_iq6.used-as.sat04-347.cnf+d785383f,0,5.71,387680
cnfdedup_run.sh+9dlx_vliw_at_b_iq7.cnf+64cf1387,0,10.15,659604
cnfdedup_run.sh+9dlx_vliw_at_b_iq8.used-as.sat04-718.cnf+3a70e569,0,11.77,766336
cnfdedup_run.sh+9dlx_vliw_at_b_iq9.cnf+64eb4289,0,16.79,1081284
cnfdedup_run.sh+9vliw_m_9stages_iq3_C1_bug1.cnf+27978c41,0,22.74,1426340
cnfdedup_run.sh+9vliw_m_9stages_iq3_C1_bug10.cnf+cb5deb49,0,22.55,1426344
cnfdedup_run.sh+9vliw_m_9stages_iq3_C1_bug3.cnf+27b3bb43,0,23.23,1426080
cnfdedup_run.sh+9vliw_m_9stages_iq3_C1_bug4.cnf+27c1d2c4,0,22.64,1423432
cnfdedup_run.sh+9vliw_m_9stages_iq3_C1_bug7.cnf+27ec1947,0,22.87,1426340
cnfdedup_run.sh+9vliw_m_9stages_iq3_C1_bug8.cnf+27fa30c8,0,22.69,1426344
cnfdedup_run.sh+9vliw_m_9stages_iq3_C1_bug9.cnf+28084849,0,22.69,1426336
cnfdedup_run.sh+ACG-15-10p0.cnf+2f32afac,0,1.7,129596
cnfdedup_run.sh+ACG-15-10p1.cnf+2f40c72d,0,1.73,129476
cnfdedup_run.sh+ACG-20-10p1.cnf+feb64453,0,2.43,168812
cnfdedup_run.sh+ACG-20-5p0.cnf+13f3aa1c,0,2.15,146428
cnfdedup_run.sh+ACG-20-5p1.cnf+1401c19d,0,2.06,148804
cnfdedup_run.sh+AProVE07-01.cnf+9d2326f8,0,0.02,4236
cnfdedup_run.sh+AProVE07-03.cnf+9d3f55fa,0,0.01,2444
cnfdedup_run.sh+AProVE07-08.cnf+9d85cb7f,0,0.01,2916
cnfdedup_run.sh+AProVE07-27.cnf+a0e1653c,0,0.03,4232
cnfdedup_run.sh+AProVE09-06.cnf+6d2bf63b,0,0.39,31132
cnfdedup_run.sh+Chvatal-k5.cnf+43aa0038,0,0.03,4764
cnfdedup_run.sh+Composite-024BitPrimes-1.used-as.sat04-861.cnf+90849ad,0,0.01,2456
cnfdedup_run.sh+Composite-024BitPrimes-1.used-as.sat04-861.cnf+9544a55f,0,0.01,2456
cnfdedup_run.sh+E02F20.cnf+652c32ab,0,0.92,46948
cnfdedup_run.sh+E02F22.cnf+654861ad,0,3.55,161736
cnfdedup_run.sh+EDP3-10000.cnf+eb469a16,0,1.01,66472
cnfdedup_run.sh+EDP3-11000.cnf+5327c6f5,0,1.07,73072
cnfdedup_run.sh+EDP3-12000.cnf+bb08f3d4,0,1.16,79668
cnfdedup_run.sh+EDP3-13000.cnf+22ea20b3,0,1.27,86536
cnfdedup_run.sh+EDP3-14000.cnf+8acb4d92,0,1.46,93136
cnfdedup_run.sh+EDP3-15000.cnf+f2ac7a71,0,1.54,100000
cnfdedup_run.sh+EDP3-16000.cnf+5a8da750,0,1.68,106864
cnfdedup_run.sh+EDP3-17000.cnf+c26ed42f,0,1.95,125208
cnfdedup_run.sh+EDP3-18000.cnf+2a50010e,0,1.98,129200
cnfdedup_run.sh+EDP3-19000.cnf+92312ded,0,2.16,136328
cnfdedup_run.sh+EDP3-20000.cnf+7f8b0917,0,2.29,143188
cnfdedup_run.sh+EDP3-30000.cnf+13cf7818,0,3.47,215792
cnfdedup_run.sh+EDP3-40000.cnf+a813e719,0,5.01,307948
cnfdedup_run.sh+EDP3-50000.cnf+3c58561a,0,6.52,385036
cnfdedup_run.sh+EDP3-60000.cnf+d09cc51b,0,8.23,512680
cnfdedup_run.sh+EDP3-70000.cnf+64e1341c,0,9.72,579080
cnfdedup_run.sh+EDP3-8000.cnf+20cf89ed,0,0.74,49680
cnfdedup_run.sh+EDP3-80000.cnf+f925a31d,0,11.01,660124
cnfdedup_run.sh+EDP3-9000.cnf+88b0b6cc,0,0.93,62160
cnfdedup_run.sh+EDP3-90000.cnf+8d6a121e,0,12.58,742232
cnfdedup_run.sh+FlowerSnark-k6.cnf+8241dfe4,0,0.3,23012
cnfdedup_run.sh+GreenTao_2-3-6_2071.cnf+8490e9a0,0,0.22,18000
cnfdedup_run.sh+GreenTao_2-4-4_511.cnf+b5de44c6,0,0.0,1784
cnfdedup_run.sh+Hidoku_enu_6.cnf+1287066a,0,0.01,2552
cnfdedup_run.sh+Hidoku_enu_7.cnf+12951deb,0,0.02,3452
cnfdedup_run.sh+IBM_FV_2004_rule_batch_1_31_1_SAT_dat.k40.debugged.cnf+a364ef8a,0,0.29,23620
cnfdedup_run.sh+LABS_n038_goal002.cnf+16d987ca,0,0.08,8320
cnfdedup_run.sh+LABS_n044_goal003.cnf+3eb94ee6,0,0.12,10976
cnfdedup_run.sh+LABS_n045_goal003.cnf+2d3c5567,0,0.13,11772
cnfdedup_run.sh+LABS_n051_goal004.cnf+551c1c83,0,0.19,16676
cnfdedup_run.sh+LABS_n052_goal004.cnf+439f2304,0,0.23,17472
cnfdedup_run.sh+LABS_n066_goal005.cnf+df971e28,0,0.48,34100
cnfdedup_run.sh+LABS_n078_goal006.cnf+9e890c4a,0,0.73,52580
cnfdedup_run.sh+LABS_n081_goal007.cnf+fadfbfe3,0,1.03,70428
cnfdedup_run.sh+LABS_n082_goal007.cnf+e962c664,0,1.15,76496
cnfdedup_run.sh+LABS_n088_goal008.cnf+808304eb,0,1.74,106860
cnfdedup_run.sh+MD5-27-4.cnf+7a663269,0,0.09,7264
cnfdedup_run.sh+MD5-28-1.cnf+af222727,0,0.09,8320
cnfdedup_run.sh+MD5-28-2.cnf+af303ea8,0,0.09,8316
cnfdedup_run.sh+MD5-28-3.cnf+af3e5629,0,0.09,8320
cnfdedup_run.sh+MD5-28-4.cnf+af4c6daa,0,0.09,8320
cnfdedup_run.sh+MD5-28-5.cnf+af5a852b,0,0.1,8320
cnfdedup_run.sh+MD5-29-2.cnf+e41679e9,0,0.1,8344
cnfdedup_run.sh+MD5-29-3.cnf+e424916a,0,0.09,8344
cnfdedup_run.sh+MD5-29-4.cnf+e432a8eb,0,0.1,8344
cnfdedup_run.sh+MD5-29-5.cnf+e440c06c,0,0.09,8344
cnfdedup_run.sh+MD5-30-1.cnf+6fd179fe,0,0.1,8608
cnfdedup_run.sh+MD5-30-2.cnf+6fdf917f,0,0.11,8608
cnfdedup_run.sh+MD5-30-4.cnf+6ffbc081,0,0.1,8608
cnfdedup_run.sh+MD5-30-5.cnf+7009d802,0,0.1,8608
cnfdedup_run.sh+MD5-31-4.cnf+a4e1fbc2,0,0.12,8872
cnfdedup_run.sh+MD5-31-5.cnf+a4f01343,0,0.1,8872
cnfdedup_run.sh+MD5-32-1.cnf+d99df080,0,0.11,9136
cnfdedup_run.sh+MD5-32-2.cnf+d9ac0801,0,0.11,9132
cnfdedup_run.sh+MD5-32-3.cnf+d9ba1f82,0,0.11,9136
cnfdedup_run.sh+MD5-32-4.cnf+d9c83703,0,0.11,9136
cnfdedup_run.sh+MD5-32-5.cnf+d9d64e84,0,0.11,9136
cnfdedup_run.sh+Q32inK09.cnf+28d231c8,0,0.02,2424
cnfdedup_run.sh+Q32inK10.cnf+2a0836de,0,0.1,6368
cnfdedup_run.sh+Q32inK11.cnf+2a164e5f,0,0.42,20620
cnfdedup_run.sh+Q3inK10.cnf+7b8e8214,0,0.23,11604
cnfdedup_run.sh+Q3inK11.cnf+67fe0d2e,0,0.87,39992
cnfdedup_run.sh+Robertson-k8.cnf+9dba05da,0,0.27,20912
cnfdedup_run.sh+SAT_dat.k100-24_1_rule_1.cnf+37f19ad0,0,10.37,666888
cnfdedup_run.sh+SAT_dat.k100-24_1_rule_2.cnf+37ffb251,0,10.47,666788
cnfdedup_run.sh+SAT_dat.k100-24_1_rule_3.cnf+380dc9d2,0,10.34,666888
cnfdedup_run.sh+SAT_dat.k30-30_rule.cnf+b23837f5,0,0.44,34584
cnfdedup_run.sh+SAT_dat.k35-31_2_rule_2.cnf+1bd57ef9,0,0.32,24628
cnfdedup_run.sh+SAT_dat.k70-24_1_rule_1.cnf+dec9e72c,0,7.06,451316
cnfdedup_run.sh+SAT_dat.k70-24_1_rule_3.cnf+dee6162e,0,7.02,451312
cnfdedup_run.sh+SAT_dat.k75-24_1_rule_3.cnf+72376c33,0,8.1,520608
cnfdedup_run.sh+SAT_dat.k80-24_1_rule_1.cnf+a35bc94b,0,8.65,546504
cnfdedup_run.sh+SAT_dat.k80-24_1_rule_2.cnf+a369e0cc,0,8.5,546504
cnfdedup_run.sh+SAT_dat.k85-24_1_rule_1.cnf+36ad1f50,0,9.13,576600
cnfdedup_run.sh+SAT_dat.k85-24_1_rule_2.cnf+36bb36d1,0,9.03,576600
cnfdedup_run.sh+SAT_dat.k85-24_1_rule_3.cnf+36c94e52,0,9.11,576600
cnfdedup_run.sh+SAT_dat.k90.debugged.cnf+d08aad5d,0,9.54,606696
cnfdedup_run.sh+SAT_dat.k95-24_1_rule_1.cnf+fb3f016f,0,9.88,636792
cnfdedup_run.sh+SAT_dat.k95-24_1_rule_2.cnf+fb4d18f0,0,9.98,636792
cnfdedup_run.sh+SAT_dat.k95-24_1_rule_3.cnf+fb5b3071,0,10.13,636792
cnfdedup_run.sh+SAT_instance_N=111.cnf+4e8afc21,0,0.5,36216
cnfdedup_run.sh+SAT_instance_N=31.cnf+48023d48,0,0.03,3720
cnfdedup_run.sh+SAT_instance_N=33.cnf+481e6c4a,0,0.02,4236
cnfdedup_run.sh+SAT_instance_N=43.cnf+49d344e9,0,0.05,6204
cnfdedup_run.sh+SAT_instance_N=49.cnf+4a27d1ef,0,0.08,8340
cnfdedup_run.sh+SAT_instance_N=55.cnf+4ba44c8a,0,0.11,9660
cnfdedup_run.sh+SAT_instance_N=63.cnf+4d3cf627,0,0.14,12036
cnfdedup_run.sh+SAT_instance_N=69.cnf+4d91832d,0,0.19,15992
cnfdedup_run.sh+SAT_instance_N=72.cnf+4ee3b745,0,0.19,16152
cnfdedup_run.sh+SAT_instance_N=75.cnf+4f0dfdc8,0,0.22,17472
cnfdedup_run.sh+SAT_instance_N=77.cnf+4f2a2cca,0,0.21,18264
cnfdedup_run.sh+SAT_instance_N=85.cnf+50c2d667,0,0.29,21428
cnfdedup_run.sh+SAT_instance_N=93.cnf+525b8004,0,0.34,24864
cnfdedup_run.sh+SAT_instance_N=99.cnf+52b00d0a,0,0.41,31132
cnfdedup_run.sh+UCG-15-10p0.cnf+3456fcc0,0,1.55,101824
cnfdedup_run.sh+UCG-15-10p1.cnf+34651441,0,1.46,103144
cnfdedup_run.sh+UCG-20-10p0.cnf+3cc79e6,0,2.06,144260
cnfdedup_run.sh+UCG-20-10p1.cnf+3da9167,0,2.08,145844
cnfdedup_run.sh+UCG-20-5p0.cnf+b9476a88,0,1.76,130000
cnfdedup_run.sh+UCG-20-5p1.cnf+b9558209,0,1.81,129904
cnfdedup_run.sh+UR-15-10p0.cnf+f5915d06,0,1.42,101820
cnfdedup_run.sh+UR-15-10p1.cnf+f59f7487,0,1.52,103144
cnfdedup_run.sh+UR-20-10p0.cnf+c506da2c,0,2.11,144260
cnfdedup_run.sh+UR-20-10p1.cnf+c514f1ad,0,2.39,145844
cnfdedup_run.sh+UR-20-5p0.cnf+a6bce982,0,1.81,129900
cnfdedup_run.sh+UTI-20-10p0.cnf+e08cea77,0,2.04,144524
cnfdedup_run.sh+UTI-20-10p1.cnf+e09b01f8,0,2.11,146108
cnfdedup_run.sh+UTI-20-5p1.cnf+9f6c3b58,0,1.98,130100
cnfdedup_run.sh+Urq3_5.cnf+d1ce5fc4,0,0.0,1404
cnfdedup_run.sh+Urq4_5.cnf+6b49b05,0,0.0,1404
cnfdedup_run.sh+Urq5_5.cnf+3b9ad646,0,0.0,1448
cnfdedup_run.sh+Urq6_5.cnf+70811187,0,0.0,1524
cnfdedup_run.sh+Urq7_5.cnf+a5674cc8,0,0.0,1560
cnfdedup_run.sh+Urq8_5.cnf+da4d8809,0,0.0,1668
cnfdedup_run.sh+VanDerWaerden_pd_2-3-20_388.cnf+3b267985,0,0.02,3440
cnfdedup_run.sh+aaai10-planning-ipc5-TPP-21-step11.cnf+81f57465,0,1.13,83208
cnfdedup_run.sh+aaai10-planning-ipc5-TPP-30-step11.cnf+68c6d587,0,4.28,310308
cnfdedup_run.sh+aaai10-planning-ipc5-pathways-13-step17.cnf+cdceda0f,0,0.18,16468
cnfdedup_run.sh+aaai10-planning-ipc5-pathways-17-step20.cnf+ede7a3a3,0,0.38,31824
cnfdedup_run.sh+aaai10-planning-ipc5-pathways-17-step21.cnf+edf5bb24,0,0.4,34212
cnfdedup_run.sh+aes_24_4_keyfind_4.cnf+11ad583,0,0.01,1964
cnfdedup_run.sh+aes_24_4_keyfind_5.cnf+128ed04,0,0.01,1964
cnfdedup_run.sh+aes_32_2_keyfind_1.cnf+7077e09b,0,0.0,1872
cnfdedup_run.sh+aes_32_2_keyfind_3.cnf+70940f9d,0,0.0,1872
cnfdedup_run.sh+aes_32_3_keyfind_1.cnf+ca534adc,0,0.0,1588
cnfdedup_run.sh+aes_64_1_keyfind_1.cnf+577b1729,0,0.0,1596
cnfdedup_run.sh+aes_64_1_keyfind_1.cnf+5a5d8b9,0,0.0,1592
cnfdedup_run.sh+atco_enc1_opt1_03_56.cnf+770113d2,0,0.45,31544
cnfdedup_run.sh+atco_enc1_opt1_04_32.cnf+db40316f,0,1.07,64584
cnfdedup_run.sh+atco_enc1_opt1_05_21.cnf+415e6e2e,0,1.0,62432
cnfdedup_run.sh+atco_enc1_opt1_10_15.cnf+ccc08239,0,0.43,31524
cnfdedup_run.sh+atco_enc1_opt1_10_21.cnf+ce3cfcd4,0,0.43,31528
cnfdedup_run.sh+atco_enc1_opt1_15_240.cnf+e3db41f8,0,1.12,70140
cnfdedup_run.sh+atco_enc1_opt1_18_18.cnf+bf42fb4,0,1.11,70808
cnfdedup_run.sh+atco_enc1_opt2_05_4.cnf+6a1dc47e,0,0.68,41668
cnfdedup_run.sh+atco_enc1_opt2_10_12.cnf+617aee77,0,0.25,17100
cnfdedup_run.sh+atco_enc1_opt2_10_14.cnf+61971d79,0,0.24,17368
cnfdedup_run.sh+atco_enc1_opt2_10_15.cnf+61a534fa,0,0.25,17368
cnfdedup_run.sh+atco_enc1_opt2_10_16.cnf+61b34c7b,0,0.24,17632
cnfdedup_run.sh+atco_enc1_opt2_20_12.cnf+f5bf5d78,0,11.52,691732
cnfdedup_run.sh+atco_enc2_opt1_05_21.cnf+22f04c0d,0,0.96,62588
cnfdedup_run.sh+atco_enc2_opt1_10_21.cnf+afcedab3,0,0.37,25792
cnfdedup_run.sh+atco_enc2_opt1_15_100.cnf+f8cb823c,0,1.0,64400
cnfdedup_run.sh+atco_enc2_opt1_20_11.cnf+425e7115,0,19.12,1068408
cnfdedup_run.sh+atco_enc2_opt2_05_4.cnf+c3f92ebf,0,0.67,41668
cnfdedup_run.sh+atco_enc2_opt2_05_9.cnf+c43fa444,0,0.7,41928
cnfdedup_run.sh+atco_enc2_opt2_10_21.cnf+44b38d74,0,0.25,18424
cnfdedup_run.sh+atco_enc2_opt2_20_11.cnf+d74323d6,0,11.38,689356
cnfdedup_run.sh+atco_enc3_opt1_03_53.cnf+39fa890d,0,8.61,553720
cnfdedup_run.sh+atco_enc3_opt1_04_50.cnf+a1b16f69,0,10.43,673072
cnfdedup_run.sh+atco_enc3_opt1_13_48.cnf+ccd094f4,0,10.37,673604
cnfdedup_run.sh+atco_enc3_opt2_05_21.cnf+9966dcad,0,9.76,626592
cnfdedup_run.sh+atco_enc3_opt2_10_12.cnf+249eaa35,0,8.12,532844
cnfdedup_run.sh+atco_enc3_opt2_10_14.cnf+24bad937,0,8.43,534432
cnfdedup_run.sh+atco_enc3_opt2_18_44.cnf+68e2ca0c,0,8.73,565604
cnfdedup_run.sh+beempgsol2b1.cnf+5f472a61,0,0.09,9396
cnfdedup_run.sh+beempgsol5b1.cnf+fdf9dc24,0,0.09,9396
cnfdedup_run.sh+bjrb07amba10andenv.cnf+283da08d,0,0.93,64624
cnfdedup_run.sh+blocks-blocks-36-0.120-NOTKNOWN.cnf+b1c9ec22,0,11.9,898292
cnfdedup_run.sh+blocks-blocks-36-0.130-NOTKNOWN.cnf+ba55663,0,13.5,1044824
cnfdedup_run.sh+blocks-blocks-37-1.130-NOTKNOWN.cnf+b7d90ee1,0,14.71,1105532
cnfdedup_run.sh+bob12m02-opt.cnf+d85f960d,0,0.1,9400
cnfdedup_run.sh+bob12m02.cnf+8df042a7,0,0.1,9400
cnfdedup_run.sh+bob12m04.cnf+8e0c71a9,0,2.54,175132
cnfdedup_run.sh+bob12m09-opt.cnf+e63e9f14,0,0.2,17468
cnfdedup_run.sh+bob12s02.cnf+cb55a62d,0,0.09,9400
cnfdedup_run.sh+bob12s09-opt.cnf+639acf9a,0,0.22,17472
cnfdedup_run.sh+bvadd_17322.cnf+86b0e65,0,2.09,144508
cnfdedup_run.sh+bvadd_27079.cnf+6e7ab45,0,3.27,216052
cnfdedup_run.sh+bvadd_27966.cnf+e120a16c,0,3.61,253048
cnfdedup_run.sh+bvadd_29740.cnf+43584664,0,3.86,252980
cnfdedup_run.sh+bvashr_0710.cnf+8fc58cbf,0,1.59,106856
cnfdedup_run.sh+bvslt_13916.cnf+f5de0fee,0,2.84,188332
cnfdedup_run.sh+bvslt_19860.cnf+38728ffc,0,5.59,361260
cnfdedup_run.sh+bvsub_06991.cnf+73c7b5c2,0,1.4,93928
cnfdedup_run.sh+bvult_16967.cnf+131df629,0,5.39,355720
cnfdedup_run.sh+c10bi_i.cnf+8c5a3c1f,0,0.57,42548
cnfdedup_run.sh+ccp-s10-facto1.cnf+28b802f6,0,0.0,1868
cnfdedup_run.sh+ccp-s10-facto2.cnf+28c61a77,0,0.02,3444
cnfdedup_run.sh+ccp-s10-facto3.cnf+28d431f8,0,0.05,6204
cnfdedup_run.sh+ccp-s10-facto4.cnf+28e24979,0,0.11,10188
cnfdedup_run.sh+ccp-s5-facto2.cnf+bc39cce7,0,0.0,1448
cnfdedup_run.sh+ccp-s5-facto3.cnf+bc47e468,0,0.0,1628
cnfdedup_run.sh+ccp-s5-facto4.cnf+bc55fbe9,0,0.0,1888
cnfdedup_run.sh+ccp-s6-facto2.cnf+c3eb7246,0,0.0,1604
cnfdedup_run.sh+ccp-s6-facto3.cnf+c3f989c7,0,0.0,1968
cnfdedup_run.sh+ccp-s6-facto4.cnf+c407a148,0,0.0,2496
cnfdedup_run.sh+ccp-s7-facto2.cnf+cb9d17a5,0,0.0,1856
cnfdedup_run.sh+ccp-s7-facto3.cnf+cbab2f26,0,0.01,2528
cnfdedup_run.sh+ccp-s7-facto4.cnf+cbb946a7,0,0.02,3440
cnfdedup_run.sh+ccp-s8-facto1.cnf+d340a583,0,0.0,1540
cnfdedup_run.sh+ccp-s8-facto2.cnf+d34ebd04,0,0.01,2260
cnfdedup_run.sh+ccp-s8-facto3.cnf+d35cd485,0,0.02,3188
cnfdedup_run.sh+ccp-s8-facto4.cnf+d36aec06,0,0.03,4884
cnfdedup_run.sh+ccp-s9-facto1.cnf+daf24ae2,0,0.0,1660
cnfdedup_run.sh+ccp-s9-facto2.cnf+db006263,0,0.01,2748
cnfdedup_run.sh+ccp-s9-facto3.cnf+db0e79e4,0,0.03,4764
cnfdedup_run.sh+ccp-s9-facto4.cnf+db1c9165,0,0.07,6996
cnfdedup_run.sh+chnl10_11.cnf+310e228f,0,0.0,1428
cnfdedup_run.sh+chnl10_12.cnf+311c3a10,0,0.0,1448
cnfdedup_run.sh+chnl10_13.cnf+312a5191,0,0.0,1468
cnfdedup_run.sh+chnl11_12.cnf+98fd66ef,0,0.0,1460
cnfdedup_run.sh+chnl11_13.cnf+990b7e70,0,0.0,1512
cnfdedup_run.sh+chnl11_20.cnf+9a96108c,0,0.0,1764
cnfdedup_run.sh+complete-300-0.1-18-98765432130018.cnf+3baba4f1,0,0.08,4796
cnfdedup_run.sh+complete-300-0.1-4-9876543213004.cnf+ccefe903,0,0.08,4836
cnfdedup_run.sh+complete-300-0.1-7-9876543213007.cnf+361954c9,0,0.08,4936
cnfdedup_run.sh+complete-300-0.1-8-9876543213008.cnf+3d1ce0b,0,0.08,4788
cnfdedup_run.sh+complete-400-0.1-12-98765432140012.cnf+8b206533,0,0.19,8480
cnfdedup_run.sh+complete-400-0.1-16-98765432140016.cnf+29e01cb3,0,0.18,8160
cnfdedup_run.sh+complete-400-0.1-3-9876543214003.cnf+a069ad61,0,0.18,8184
cnfdedup_run.sh+complete-400-0.1-7-9876543214007.cnf+d74b9269,0,0.18,8172
cnfdedup_run.sh+complete-500-0.1-1-9876543215001.cnf+a62af87d,0,0.34,13256
cnfdedup_run.sh+complete-500-0.1-15-98765432150015.cnf+ffc48255,0,0.35,13588
cnfdedup_run.sh+complete-500-0.1-17-98765432150017.cnf+cf245e15,0,0.35,13684
cnfdedup_run.sh+complete-500-0.1-7-9876543215007.cnf+787dd009,0,0.36,13620
cnfdedup_run.sh+complete-500-0.1-8-9876543215008.cnf+4636494b,0,0.34,13620
cnfdedup_run.sh+connm-ue-csp-sat-n1200-d0.02-s1099787414.sat05-542.reshuffled-07.cnf+5e942722,0,0.01,2760
cnfdedup_run.sh+contest02-ezfact64_10.sat05-449.reshuffled-07.cnf+5c157d83,0,0.03,3180
cnfdedup_run.sh+countbitssrl032.cnf+382d9c43,0,0.06,7000
cnfdedup_run.sh+crafted_n10_d6_c2_num13.cnf+66b35bd,0,3.6,309328
cnfdedup_run.sh+crafted_n10_d6_c2_num16.cnf+6957c40,0,3.53,309588
cnfdedup_run.sh+crafted_n10_d6_c2_num17.cnf+6a393c1,0,3.94,309328
cnfdedup_run.sh+crafted_n10_d6_c2_num2.cnf+2149ddb1,0,3.51,309592
cnfdedup_run.sh+crafted_n10_d6_c2_num4.cnf+21660cb3,0,3.57,309588
cnfdedup_run.sh+crafted_n10_d6_c2_num5.cnf+21742434,0,3.44,309328
cnfdedup_run.sh+crafted_n10_d6_c2_num6.cnf+21823bb5,0,3.44,309328
cnfdedup_run.sh+crafted_n10_d6_c2_num9.cnf+21ac8238,0,3.67,309324
cnfdedup_run.sh+crafted_n10_d6_c3_num1.cnf+1585374f,0,8.4,677616
cnfdedup_run.sh+crafted_n10_d6_c3_num18.cnf+9b965e03,0,8.43,677616
cnfdedup_run.sh+crafted_n10_d6_c3_num5.cnf+15bd9553,0,8.57,677616
cnfdedup_run.sh+crafted_n10_d6_c4_num3.cnf+9ead770,0,15.49,1185572
cnfdedup_run.sh+crafted_n10_d6_c4_num8.cnf+a314cf5,0,15.44,1185568
cnfdedup_run.sh+crafted_n10_d6_c4_num9.cnf+a3f6476,0,15.19,1185308
cnfdedup_run.sh+crafted_n11_d6_c3_num17.cnf+ec322483,0,9.44,727528
cnfdedup_run.sh+crafted_n11_d6_c4_num1.cnf+eb60864d,0,16.79,1331852
cnfdedup_run.sh+crafted_n11_d6_c4_num18.cnf+8124eec5,0,16.91,1331852
cnfdedup_run.sh+crafted_n11_d6_c4_num19.cnf+81330646,0,17.7,1331852
cnfdedup_run.sh+crafted_n11_d6_c4_num21.cnf+827722dd,0,17.4,1331852
cnfdedup_run.sh+crafted_n12_d5_c4_num6.cnf+deb5d330,0,3.38,290824
cnfdedup_run.sh+crafted_n12_d6_c3_num10.cnf+3c795dfd,0,11.18,873804
cnfdedup_run.sh+crafted_n12_d6_c3_num16.cnf+3ccdeb03,0,11.51,873804
cnfdedup_run.sh+crafted_n12_d6_c4_num11.cnf+d16c283f,0,22.21,1626244
cnfdedup_run.sh+crafted_n12_d6_c4_num18.cnf+d1ceccc6,0,22.32,1626244
cnfdedup_run.sh+crafted_n12_d6_c4_num20.cnf+d312e95d,0,21.49,1626244
cnfdedup_run.sh+crafted_n12_d6_c4_num22.cnf+d32f185f,0,21.85,1626236
cnfdedup_run.sh+crafted_n12_d6_c4_num23.cnf+d33d2fe0,0,20.97,1626244
cnfdedup_run.sh+crafted_n12_d6_c4_num4.cnf+cd1caaaf,0,20.77,1626240
cnfdedup_run.sh+crafted_n12_d6_c4_num6.cnf+cd38d9b1,0,21.73,1626240
cnfdedup_run.sh+crafted_n12_d6_c4_num9.cnf+cd632034,0,21.13,1626244
cnfdedup_run.sh+crn_20_361_s.cnf+5f7bfeb1,0,0.01,2832
cnfdedup_run.sh+ctl_3082_415_unsat_pre.cnf+a17d464,0,0.14,11244
cnfdedup_run.sh+ctl_3791_556_unsat_pre.cnf+ddda38d7,0,0.14,10716
cnfdedup_run.sh+ctl_4291_567_5_unsat_pre.cnf+a59d88c7,0,0.2,15996
cnfdedup_run.sh+dated-10-11-u.cnf+645dae4b,0,0.9,68456
cnfdedup_run.sh+dated-10-13-u.cnf+ce2a24cd,0,1.2,85920
cnfdedup_run.sh+dated-10-17-u.cnf+a1c311d1,0,1.68,125496
cnfdedup_run.sh+dated-5-13-u.cnf+f49fdea7,0,0.91,68188
cnfdedup_run.sh+dimacs.cnf+d9c8d117,0,0.01,2340
cnfdedup_run.sh+edges-024-4-10183999-1-00.cnf+893470dc,0,0.0,1408
cnfdedup_run.sh+edges-024-4-1208111-1-00.cnf+29ba45bc,0,0.0,1408
cnfdedup_run.sh+edges-024-4-5613555-1-00.cnf+943d3452,0,0.0,1404
cnfdedup_run.sh+edges-024-4-5667555-1-00.cnf+b79e3e71,0,0.0,1404
cnfdedup_run.sh+edges-024-4-7787777-1-00.cnf+ba188a2c,0,0.0,1408
cnfdedup_run.sh+edges-024-4-7880777-1-00.cnf+8e5ec6e6,0,0.0,1408
cnfdedup_run.sh+edges-025-4-10062999-1-00.cnf+89b3625d,0,0.0,1404
cnfdedup_run.sh+edges-025-4-10106999-1-00.cnf+52682ce8,0,0.0,1404
cnfdedup_run.sh+edges-025-4-10169999-1-00.cnf+6923fa25,0,0.0,1408
cnfdedup_run.sh+edges-025-4-1237111-1-00.cnf+c8727277,0,0.0,1408
cnfdedup_run.sh+edges-025-4-3369333-1-00.cnf+89d094d3,0,0.0,1408
cnfdedup_run.sh+edges-025-4-5714555-1-00.cnf+c43d7b73,0,0.0,1408
cnfdedup_run.sh+edges-025-4-7780777-1-00.cnf+1c253304,0,0.0,1404
cnfdedup_run.sh+edges-025-4-7932777-1-00.cnf+438d246d,0,0.0,1404
cnfdedup_run.sh+edges-025-4-7957777-1-00.cnf+afd7d830,0,0.0,1408
cnfdedup_run.sh+edges-070-3-10037999-34.cnf+fdb464df,0,0.0,1404
cnfdedup_run.sh+edges-070-3-10062999-36.cnf+2c6e0639,0,0.0,1408
cnfdedup_run.sh+edges-070-3-10122999-15.cnf+f8b2ae7f,0,0.0,1408
cnfdedup_run.sh+edges-070-3-1226111-26.cnf+6c785b4a,0,0.0,1404
cnfdedup_run.sh+edges-070-3-1250111-33.cnf+7bbacfd,0,0.0,1408
cnfdedup_run.sh+edges-070-3-3470333-15.cnf+95712fbd,0,0.0,1404
cnfdedup_run.sh+edges-070-3-7857777-1.cnf+1dc861cd,0,0.0,1404
cnfdedup_run.sh+edges-072-3-1124111-35.cnf+def674a3,0,0.0,1408
cnfdedup_run.sh+edges-072-3-1131111-37.cnf+281630c1,0,0.0,1408
cnfdedup_run.sh+edges-072-3-1161111-15.cnf+3ba5409e,0,0.0,1404
cnfdedup_run.sh+edges-072-3-5729555-15.cnf+a449c2a8,0,0.0,1408
cnfdedup_run.sh+edges-072-3-5749555-14.cnf+b39ef5e5,0,0.0,1408
cnfdedup_run.sh+edges-072-3-7902777-18.cnf+46f9564,0,0.0,1404
cnfdedup_run.sh+edges-072-3-7923777-13.cnf+a8711d5e,0,0.0,1408
cnfdedup_run.sh+edges-072-3-7925777-19.cnf+d28f0fe6,0,0.0,1404
cnfdedup_run.sh+em_14_7_3_cmp.cnf+a9de2257,0,0.46,33712
cnfdedup_run.sh+em_7_3_6_cmp.cnf+c6559e42,0,0.01,2504
cnfdedup_run.sh+em_7_4_8_cmp.cnf+83c32f05,0,0.01,2780
cnfdedup_run.sh+em_7_4_8_fbc.cnf+ef96066,0,0.02,3732
cnfdedup_run.sh+em_7_4_9_all.cnf+ac4df0e1,0,0.04,5444
cnfdedup_run.sh+em_7_4_9_fbc.cnf+a33dcf67,0,0.03,4004
cnfdedup_run.sh+esawn_uw3.debugged.cnf+f56b00b3,0,100.9,5631324
cnfdedup_run.sh+ezfact64_3.sat05-450.reshuffled-07.cnf+b2fa540a,0,0.02,3180
cnfdedup_run.sh+ezfact64_4.sat05-451.reshuffled-07.cnf+a9f49a4c,0,0.02,3180
cnfdedup_run.sh+ezfact64_5.sat05-452.reshuffled-07.cnf+a0eee08e,0,0.03,3180
cnfdedup_run.sh+fpga10_11_uns_rcr.cnf+d2c5c3cc,0,0.0,1428
cnfdedup_run.sh+fpga10_12_uns_rcr.cnf+c148ca4d,0,0.0,1448
cnfdedup_run.sh+fpga10_13_uns_rcr.cnf+afcbd0ce,0,0.0,1472
cnfdedup_run.sh+fpga10_15_uns_rcr.cnf+8cd1ddd0,0,0.0,1536
cnfdedup_run.sh+fpga10_20_uns_rcr.cnf+c62086ea,0,0.0,1752
cnfdedup_run.sh+fpga10_8_sat.cnf+eae8e9aa,0,0.0,1404
cnfdedup_run.sh+fpga10_9_sat.cnf+7f2d58ab,0,0.0,1404
cnfdedup_run.sh+fpga11_12_uns_rcr.cnf+a2daa82c,0,0.0,1460
cnfdedup_run.sh+fpga11_13_uns_rcr.cnf+915daead,0,0.0,1516
cnfdedup_run.sh+fpga11_14_uns_rcr.cnf+7fe0b52e,0,0.0,1528
cnfdedup_run.sh+fpga11_15_uns_rcr.cnf+6e63bbaf,0,0.0,1556
cnfdedup_run.sh+fpga11_20_uns_rcr.cnf+a7b264c9,0,0.0,1764
cnfdedup_run.sh+fpga12_11_sat.cnf+ad384f54,0,0.0,1408
cnfdedup_run.sh+fpga12_12_sat.cnf+417cbe55,0,0.0,1428
cnfdedup_run.sh+fpga12_8_sat.cnf+14b24f2c,0,0.0,1408
cnfdedup_run.sh+fpga12_9_sat.cnf+a8f6be2d,0,0.0,1408
cnfdedup_run.sh+fpga13_10_sat.cnf+20a585b2,0,0.0,1408
cnfdedup_run.sh+fpga13_12_sat.cnf+492e63b4,0,0.0,1440
cnfdedup_run.sh+fpga13_9_sat.cnf+3ddb70ee,0,0.0,1404
cnfdedup_run.sh+frb45-21-1.used-as.sat04-883.cnf+bdb3a3ff,0,0.07,7292
cnfdedup_run.sh+frb80-14-2.used-as.sat04-880.cnf+839cf7ca,0,0.05,5704
cnfdedup_run.sh+fsf-300-354-2-2-3-2.58.opt.cnf+ac3fd72d,0,0.01,2224
cnfdedup_run.sh+fsf-300-354-2-2-3-2.89.opt.cnf+1d60998b,0,0.01,2224
cnfdedup_run.sh+fsf-300-354-2-2-3-2.94.opt.cnf+2c53dfa5,0,0.0,2224
cnfdedup_run.sh+fsf-300-354-2-2-3-2.95.opt.cnf+c0984ea6,0,0.01,2224
cnfdedup_run.sh+grid-strips-grid-y-3.035-NOTKNOWN.cnf+1da80e62,0,3.08,221452
cnfdedup_run.sh+grid-strips-grid-y-3.055-NOTKNOWN.cnf+d15ee2e4,0,5.06,354976
cnfdedup_run.sh+grid-strips-grid-y-3.065-SAT.cnf+824dffcb,0,5.9,413056
cnfdedup_run.sh+grieu-vmpc-31.cnf+ed3ebd8e,0,0.17,15064
cnfdedup_run.sh+gss-18-s100.cnf+4a7959aa,0,0.12,10980
cnfdedup_run.sh+gss-19-s100.cnf+3ec2cac9,0,0.11,10980
cnfdedup_run.sh+gss-20-s100.cnf+3d128373,0,0.11,10980
cnfdedup_run.sh+gss-22-s100.cnf+25a565b1,0,0.12,10980
cnfdedup_run.sh+gss-23-s100.cnf+19eed6d0,0,0.13,10980
cnfdedup_run.sh+gss-24-s100.cnf+e3847ef,0,0.12,11240
cnfdedup_run.sh+gss-25-s100.cnf+281b90e,0,0.12,11244
cnfdedup_run.sh+gus-md5-04.cnf+5458ee72,0,0.32,24072
cnfdedup_run.sh+gus-md5-05.cnf+546705f3,0,0.33,24332
cnfdedup_run.sh+gus-md5-06.cnf+54751d74,0,0.31,24336
cnfdedup_run.sh+gus-md5-07.cnf+548334f5,0,0.33,24332
cnfdedup_run.sh+gus-md5-09.cnf+549f63f7,0,0.33,24336
cnfdedup_run.sh+gus-md5-10.cnf+55d5690d,0,0.32,24336
cnfdedup_run.sh+gus-md5-11.cnf+55e3808e,0,0.32,24336
cnfdedup_run.sh+gus-md5-12.cnf+55f1980f,0,0.32,24336
cnfdedup_run.sh+gus-md5-14.cnf+560dc711,0,0.34,24336
cnfdedup_run.sh+gus-md5-15.cnf+561bde92,0,0.33,24336
cnfdedup_run.sh+gus-md5-16.cnf+5629f613,0,0.33,24600
cnfdedup_run.sh+hid-uns-enc-6-1-0-0-0-0-19851.cnf+3f9f223f,0,0.0,1972
cnfdedup_run.sh+hid-uns-enc-6-1-0-0-0-0-26462.cnf+ca6a0dbf,0,0.0,1968
cnfdedup_run.sh+hid-uns-enc-6-1-0-0-0-0-26808.cnf+941a740f,0,0.0,1972
cnfdedup_run.sh+hid-uns-enc-6-1-0-0-0-0-2907.cnf+9cec115,0,0.0,1972
cnfdedup_run.sh+hid-uns-enc-6-1-0-0-0-0-31380.cnf+25afe360,0,0.0,1972
cnfdedup_run.sh+hid-uns-enc-6-1-0-0-0-0-3191.cnf+d985247d,0,0.0,1972
cnfdedup_run.sh+hid-uns-enc-6-1-0-0-0-0-3251.cnf+797fd42,0,0.0,1968
cnfdedup_run.sh+hid-uns-enc-7-1-0-0-0-0-11545.cnf+6cff846a,0,0.01,2564
cnfdedup_run.sh+hid-uns-enc-7-1-0-0-0-0-3557.cnf+8e41126a,0,0.01,2564
cnfdedup_run.sh+hid-uns-enc-9-1-0-0-0-0-24642.cnf+86d559c8,0,0.05,4768
cnfdedup_run.sh+hitag2-10-60-0-0x0ffdbe60727f161-57.cnf+f1bb6e68,0,0.05,4500
cnfdedup_run.sh+hitag2-10-60-0-0x8edc44db7837bbf-65.cnf+b2102d5f,0,0.05,4496
cnfdedup_run.sh+hitag2-10-60-0-0xe14721bd199894a-99.cnf+1691afc8,0,0.05,4500
cnfdedup_run.sh+hitag2-10-60-0-0xe6754daf48162bf-46.cnf+22fc2ef0,0,0.05,5028
cnfdedup_run.sh+hitag2-10-60-0-0xfee9637399d85a2-78.cnf+3d6b8ad2,0,0.05,4500
cnfdedup_run.sh+hitag2-7-60-0-0xe8fa35372ed37e2-80.cnf+49a09cf3,0,0.05,4500
cnfdedup_run.sh+hitag2-8-60-0-0x1eb82244d7f1c3c-47.cnf+db2c7d22,0,0.05,4500
cnfdedup_run.sh+hitag2-8-60-0-0xdcdbc8bf368ee73-37.cnf+2517e6f3,0,0.06,4496
cnfdedup_run.sh+hitag2-8-60-0-0xfba1a41b5dfd7f7-52.cnf+1337903c,0,0.06,5028
cnfdedup_run.sh+hole002.cnf+1a6f99d7,0,0.0,1404
cnfdedup_run.sh+hole003.cnf+1a7db158,0,0.0,1404
cnfdedup_run.sh+hole004.cnf+1a8bc8d9,0,0.0,1408
cnfdedup_run.sh+hole005.cnf+1a99e05a,0,0.0,1408
cnfdedup_run.sh+hole006.cnf+1aa7f7db,0,0.0,1408
cnfdedup_run.sh+hole007.cnf+1ab60f5c,0,0.0,1408
cnfdedup_run.sh+hole008.cnf+1ac426dd,0,0.0,1408
cnfdedup_run.sh+hole009.cnf+1ad23e5e,0,0.0,1408
cnfdedup_run.sh+hole010.cnf+1c084374,0,0.0,1408
cnfdedup_run.sh+hole010_shuffled.cnf+67363bf4,0,0.0,1404
cnfdedup_run.sh+hole011.cnf+1c165af5,0,0.0,1404
cnfdedup_run.sh+hole011_shuffled.cnf+49140593,0,0.0,1404
cnfdedup_run.sh+hole012.cnf+1c247276,0,0.0,1412
cnfdedup_run.sh+hole012_shuffled.cnf+2af1cf32,0,0.0,1412
cnfdedup_run.sh+hole013.cnf+1c3289f7,0,0.0,1432
cnfdedup_run.sh+hole013_shuffled.cnf+ccf98d1,0,0.0,1432
cnfdedup_run.sh+hole014.cnf+1c40a178,0,0.0,1460
cnfdedup_run.sh+hole014_shuffled.cnf+eead6270,0,0.0,1456
cnfdedup_run.sh+hole015.cnf+1c4eb8f9,0,0.0,1508
cnfdedup_run.sh+hole015_shuffled.cnf+d08b2c0f,0,0.0,1512
cnfdedup_run.sh+hole016_shuffled.cnf+b268f5ae,0,0.0,1544
cnfdedup_run.sh+hole017_shuffled.cnf+9446bf4d,0,0.0,1584
cnfdedup_run.sh+hole018_shuffled.cnf+762488ec,0,0.0,1628
cnfdedup_run.sh+hole019_shuffled.cnf+5802528b,0,0.0,1676
cnfdedup_run.sh+hole020.cnf+1dbd1c13,0,0.0,1764
cnfdedup_run.sh+hole020_shuffled.cnf+c111a635,0,0.0,1764
cnfdedup_run.sh+hole030.cnf+1f71f4b2,0,0.01,2740
cnfdedup_run.sh+hole030_shuffled.cnf+1aed1076,0,0.01,2740
cnfdedup_run.sh+hwmcc10-timeframe-expansion-k45-pdtpmsgoodbakery-tseitin.cnf+6397dcd6,0,0.42,33048
cnfdedup_run.sh+hwmcc10-timeframe-expansion-k45-pdtvisns3p02-tseitin.cnf+4fbc8727,0,0.68,51000
cnfdedup_run.sh+hwmcc10-timeframe-expansion-k50-pdtpmsns2-tseitin.cnf+4330d4fa,0,0.39,31132
cnfdedup_run.sh+hwmcc10-timeframe-expansion-k50-pdtvisns3p00-tseitin.cnf+a2c8eb4b,0,0.83,62148
cnfdedup_run.sh+instance_n8_i8_pp_ci_ce.cnf+821effeb,0,0.41,27176
cnfdedup_run.sh+instance_n8_i9_pp.cnf+db5d366e,0,0.47,31984
cnfdedup_run.sh+itox_vc1130.cnf+d56f3761,0,0.66,46772
cnfdedup_run.sh+jkkk-one-one-10-34-sat.cnf+769f045e,0,0.1,9220
cnfdedup_run.sh+jkkk-random-132906006148277-10-10-34-SUM-sat.cnf+7cfd072f,0,0.31,24188
cnfdedup_run.sh+jkkk-random-132906006427000-10-10-35-OR-sat.cnf+6b04eea4,0,0.31,23120
cnfdedup_run.sh+jkkk-random-132906006427000-10-10-36-SUM-sat.cnf+d10cea57,0,0.41,31500
cnfdedup_run.sh+jkkk-random-132906006493326-10-10-35-OR-sat.cnf+4f86d036,0,0.29,23116
cnfdedup_run.sh+k2fix_gr_rcs_w9.shuffled.cnf+7a5c85c5,0,0.42,33860
cnfdedup_run.sh+korf-17.cnf+7f3d2267,0,0.15,10916
cnfdedup_run.sh+korf-18.cnf+7f4b39e8,0,0.41,22916
cnfdedup_run.sh+logistics.a.cnf+25d0a8d2,0,0.0,1992
cnfdedup_run.sh+logistics.b.cnf+25dec053,0,0.0,2052
cnfdedup_run.sh+logistics.c.cnf+25ecd7d4,0,0.01,2432
cnfdedup_run.sh+logistics.d.cnf+25faef55,0,0.02,3444
cnfdedup_run.sh+manol-pipe-c10nid_i.cnf+ffdf74c6,0,1.18,79932
cnfdedup_run.sh+manol-pipe-c10nidw.cnf+c768aa15,0,1.98,138964
cnfdedup_run.sh+manol-pipe-c10nidw_s.cnf+e4485209,0,1.91,130780
cnfdedup_run.sh+manol-pipe-c8nidw.cnf+c15fbfd8,0,1.21,84420
cnfdedup_run.sh+manol-pipe-g10bid_i.cnf+2b70d636,0,1.16,83628
cnfdedup_run.sh+maxxor032.cnf+ed915564,0,0.04,5416
cnfdedup_run.sh+minandmaxor128.cnf+7f24b2e3,0,1.11,79408
cnfdedup_run.sh+minxor128.cnf+8db5747a,0,0.21,18264
cnfdedup_run.sh+minxorminand064.cnf+61f3634c,0,0.16,13360
cnfdedup_run.sh+mod2-rand3bip-sat-230-2.sat05-2189.reshuffled-07.cnf+665e0930,0,0.0,1408
cnfdedup_run.sh+mod2-rand3bip-sat-230-2.sat05-2189.reshuffled-07.cnf+d0c4ee3b,0,0.0,1408
cnfdedup_run.sh+mod2-rand3bip-sat-270-1.sat05-2248.reshuffled-07.cnf+fd7787d9,0,0.0,1420
cnfdedup_run.sh+mod2-rand3bip-sat-270-1.shuffled-as.sat05-2248.cnf+e88c654b,0,0.0,1420
cnfdedup_run.sh+mod2-rand3bip-sat-270-2.sat05-2249.reshuffled-07.cnf+cbce9539,0,0.0,1416
cnfdedup_run.sh+mod2-rand3bip-sat-280-1.sat05-2263.reshuffled-07.cnf+463f07d3,0,0.0,1424
cnfdedup_run.sh+mod2c-rand3bip-sat-240-3.shuffled-as.sat05-2520.cnf+1a50c375,0,0.0,1560
cnfdedup_run.sh+mod2c-rand3bip-sat-240-3.shuffled-as.sat05-2520.cnf+65df5e0,0,0.0,1564
cnfdedup_run.sh+mod2c-rand3bip-sat-250-1.shuffled-as.sat05-2533.cnf+3b83ce85,0,0.0,1564
cnfdedup_run.sh+mod2c-rand3bip-sat-250-3.shuffled-as.sat05-2535.cnf+1d420c45,0,0.0,1572
cnfdedup_run.sh+mrpp_4x4#4_24.cnf+bc65f244,0,0.03,3972
cnfdedup_run.sh+mrpp_4x4#6_12.cnf+8a574461,0,0.01,2660
cnfdedup_run.sh+mrpp_4x4#6_20.cnf+8befedfe,0,0.02,3444
cnfdedup_run.sh+mrpp_4x4#6_6.cnf+36483cf0,0,0.0,1944
cnfdedup_run.sh+mrpp_4x4#8_12.cnf+5a199e1f,0,0.01,2916
cnfdedup_run.sh+mrpp_4x4#8_16.cnf+5a51fc23,0,0.02,3460
cnfdedup_run.sh+mrpp_4x4#8_24.cnf+5beaa5c0,0,0.04,4888
cnfdedup_run.sh+mrpp_4x4#8_7.cnf+a022caf3,0,0.0,2324
cnfdedup_run.sh+mrpp_6x6#10_10.cnf+4f610ec6,0,0.04,4764
cnfdedup_run.sh+mrpp_6x6#10_12.cnf+4f7d3dc8,0,0.04,5416
cnfdedup_run.sh+mrpp_6x6#10_20.cnf+5115e765,0,0.08,8344
cnfdedup_run.sh+mrpp_6x6#12_20.cnf+20d84123,0,0.08,8344
cnfdedup_run.sh+mrpp_6x6#12_9.cnf+7d50b7ae,0,0.03,4232
cnfdedup_run.sh+mrpp_6x6#14_12.cnf+ef01f144,0,0.04,5152
cnfdedup_run.sh+mrpp_6x6#16_16.cnf+befca906,0,0.09,8608
cnfdedup_run.sh+mrpp_6x6#18_12.cnf+8e86a4c0,0,0.06,6472
cnfdedup_run.sh+mrpp_8x8#10_9.cnf+b7a6e28,0,0.06,6472
cnfdedup_run.sh+mrpp_8x8#16_10.cnf+c5778e84,0,0.08,9132
cnfdedup_run.sh+mrpp_8x8#16_11.cnf+c585a605,0,0.11,9664
cnfdedup_run.sh+mrpp_8x8#16_12.cnf+c593bd86,0,0.13,10456
cnfdedup_run.sh+mrpp_8x8#16_16.cnf+c5cc1b8a,0,0.17,13360
cnfdedup_run.sh+mrpp_8x8#18_14.cnf+95724646,0,0.15,11776
cnfdedup_run.sh+mrpp_8x8#20_24.cnf+ec6226ee,0,0.25,19324
cnfdedup_run.sh+mrpp_8x8#22_11.cnf+ba45618a,0,0.11,9664
cnfdedup_run.sh+mrpp_8x8#22_20.cnf+bbec22a8,0,0.21,16684
cnfdedup_run.sh+mrpp_8x8#22_24.cnf+bc2480ac,0,0.26,19324
cnfdedup_run.sh+mrpp_8x8#24_11.cnf+8a07bb48,0,0.11,9664
cnfdedup_run.sh+mrpp_8x8#24_12.cnf+8a15d2c9,0,0.13,10192
cnfdedup_run.sh+mrpp_8x8#24_14.cnf+8a3201cb,0,0.13,11512
cnfdedup_run.sh+mrpp_8x8#24_20.cnf+8bae7c66,0,0.21,16416
cnfdedup_run.sh+ndist.b.20499.cnf+feef03ba,0,0.53,39912
cnfdedup_run.sh+ndist.b.20998.cnf+760147e,0,0.54,40704
cnfdedup_run.sh+ndist.b.22495.cnf+ce78ff74,0,0.61,43080
cnfdedup_run.sh+ndist.b.22994.cnf+d6ea1038,0,0.6,44136
cnfdedup_run.sh+ndist.b.23992.cnf+3eaf0e15,0,0.64,45720
cnfdedup_run.sh+ndist.b.24491.cnf+9e02fb2e,0,0.65,46512
cnfdedup_run.sh+ndist.b.25489.cnf+4a00b76,0,0.67,48356
cnfdedup_run.sh+ndist.b.26487.cnf+6c650953,0,0.67,49944
cnfdedup_run.sh+ndist.b.27485.cnf+d42a0730,0,0.72,51528
cnfdedup_run.sh+ndist.b.29481.cnf+a3b402ea,0,0.84,62148
cnfdedup_run.sh+openstacks-p30_3.085-SAT.cnf+f1e6e52f,0,2.51,174252
cnfdedup_run.sh+openstacks-sequencedstrips-nonadl-nonnegated-os-sequencedstrips-p30_1.025-NOTKNOWN.cnf+ccf32b71,0,0.66,50564
cnfdedup_run.sh+openstacks-sequencedstrips-nonadl-nonnegated-os-sequencedstrips-p30_3.025-NOTKNOWN.cnf+5616efaf,0,0.67,51356
cnfdedup_run.sh+openstacks-sequencedstrips-nonadl-nonnegated-os-sequencedstrips-p30_3.085-SAT.cnf+80fd15bb,0,2.4,174248
cnfdedup_run.sh+partial-10-11-s.cnf+20f7d614,0,1.25,88828
cnfdedup_run.sh+partial-10-17-s.cnf+5e5d399a,0,2.11,149808
cnfdedup_run.sh+partial-5-15-s.cnf+435e49fc,0,1.49,104168
cnfdedup_run.sh+partial-5-17-s.cnf+ad2ac07e,0,1.82,129172
cnfdedup_run.sh+pb_300_10_lb_07.cnf+8e6d90b5,0,0.94,67656
cnfdedup_run.sh+pb_300_10_lb_08.cnf+8e7ba836,0,0.9,68204
cnfdedup_run.sh+post-c32s-ss-8.cnf+6b88a948,0,0.19,17208
cnfdedup_run.sh+post-cbmc-aes-d-r2-noholes.cnf+e8efe0c5,0,2.52,171136
cnfdedup_run.sh+post-cbmc-aes-d-r2.cnf+3da02480,0,2.48,171112
cnfdedup_run.sh+post-cbmc-aes-ee-r2-noholes.cnf+725f4535,0,2.42,168232
cnfdedup_run.sh+post-cbmc-zfcp-2.8-u2.cnf+ee627ea3,0,55.72,3351712
cnfdedup_run.sh+prime2209-98.cnf+9a23dd34,0,0.52,38060
cnfdedup_run.sh+q_query_3_L100_coli.sat.cnf+f9d1f9d6,0,2.46,160680
cnfdedup_run.sh+q_query_3_L150_coli.sat.cnf+bb1b0d1b,0,4.18,265524
cnfdedup_run.sh+q_query_3_L200_coli.sat.cnf+db63d7b5,0,5.83,364532
cnfdedup_run.sh+q_query_3_L80_coli.sat.cnf+292a2fb,0,1.99,128740
cnfdedup_run.sh+q_query_3_L90_coli.sat.cnf+5c6e0d3c,0,2.19,144580
cnfdedup_run.sh+q_query_3_l45_lambda.cnf+2d4f7858,0,0.23,18276
cnfdedup_run.sh+q_query_3_l46_lambda.cnf+35011db7,0,0.25,18804
cnfdedup_run.sh+q_query_3_l48_lambda.cnf+44646875,0,0.26,19596
cnfdedup_run.sh+rbcl_xits_08_UNSAT.cnf+2029ee2d,0,0.09,8604
cnfdedup_run.sh+rbcl_xits_14_SAT.cnf+65e36cc1,0,0.21,17204
cnfdedup_run.sh+rbsat-v1150c84314gyes10.cnf+46da007a,0,0.1,10036
cnfdedup_run.sh+rbsat-v1150c84314gyes4.cnf+4cc5d373,0,0.1,10028
cnfdedup_run.sh+rbsat-v1150c84314gyes5.cnf+4cd3eaf4,0,0.09,9928
cnfdedup_run.sh+rbsat-v1150c84314gyes7.cnf+4cf019f6,0,0.09,10036
cnfdedup_run.sh+rbsat-v945c61409g10.cnf+de8976b6,0,0.06,7528
cnfdedup_run.sh+rbsat-v945c61409gyes5.cnf+1e98c5,0,0.06,7532
cnfdedup_run.sh+reg_s_2_unknown.cnf+b9afc1b2,0,2.84,176976
cnfdedup_run.sh+rnd-v25-e13-k3.cnf+5e66b6f7,0,0.66,46772
cnfdedup_run.sh+rnd-v25-e178-k13.cnf+fbdc8356,0,1.38,93948
cnfdedup_run.sh+rnd-v25-e212-k9.cnf+d1e6675e,0,1.47,96320
cnfdedup_run.sh+rnd-v25-e81-k9.cnf+9cd7f346,0,0.92,64908
cnfdedup_run.sh+rook-40-0-0.cnf+6a375c80,0,0.38,31132
cnfdedup_run.sh+rook-40-0-1.cnf+6a457401,0,0.38,31140
cnfdedup_run.sh+rook-42-0-0.cnf+92c03a82,0,0.5,33044
cnfdedup_run.sh+rook-42-0-1.cnf+92ce5203,0,0.43,33052
cnfdedup_run.sh+rook-42-1-1.cnf+c7b48d44,0,0.46,33060
cnfdedup_run.sh+rook-44-0-1.cnf+bb573005,0,0.49,37276
cnfdedup_run.sh+rook-44-1-1.cnf+f03d6b46,0,0.5,37284
cnfdedup_run.sh+rook-46-1-1.cnf+18c64948,0,0.58,42036
cnfdedup_run.sh+rook-47-0-1.cnf+78247d08,0,0.62,44408
cnfdedup_run.sh+rook-47-1-1.cnf+ad0ab849,0,0.59,44416
cnfdedup_run.sh+rook-48-0-1.cnf+c68ec09,0,0.64,46784
cnfdedup_run.sh+rook-49-1-1.cnf+d593964b,0,0.69,49696
cnfdedup_run.sh+rook-50-0-0.cnf+5e80cd9f,0,0.71,52316
cnfdedup_run.sh+rook-51-0-0.cnf+f2c53ca0,0,0.84,62144
cnfdedup_run.sh+rook-52-0-1.cnf+8717c322,0,0.9,62256
cnfdedup_run.sh+rook-54-0-0.cnf+af9289a3,0,0.98,68580
cnfdedup_run.sh+rook-54-1-1.cnf+e486dc65,0,0.99,68868
cnfdedup_run.sh+rook-55-0-1.cnf+43e51025,0,1.03,72024
cnfdedup_run.sh+rook-56-0-0.cnf+d81b67a5,0,1.05,75444
cnfdedup_run.sh+rook-56-1-1.cnf+d0fba67,0,1.06,75468
cnfdedup_run.sh+rook-57-1-1.cnf+a1542968,0,1.1,79164
cnfdedup_run.sh+rook-58-1-1.cnf+35989869,0,1.19,82864
cnfdedup_run.sh+rook-59-1-1.cnf+c9dd076a,0,1.28,86828
cnfdedup_run.sh+rook-60-0-1.cnf+52d8563f,0,1.33,90772
cnfdedup_run.sh+rook-61-1-1.cnf+1c030081,0,1.35,95012
cnfdedup_run.sh+rook-63-1-1.cnf+448bde83,0,1.49,103464
cnfdedup_run.sh+rook-65-1-1.cnf+6d14bc85,0,1.8,125124
cnfdedup_run.sh+rook-68-1-1.cnf+29e20988,0,2.02,136352
cnfdedup_run.sh+rook-72-1-1.cnf+a490e0a1,0,2.43,158272
cnfdedup_run.sh+rook-76-1-1.cnf+f5a29ca5,0,2.71,183092
cnfdedup_run.sh+rpoc_xits_15_SAT.cnf+9a56ffbb,0,0.24,19848
cnfdedup_run.sh+rpoc_xits_15_SAT.cnf+a0491a2b,0,0.26,19848
cnfdedup_run.sh+sat-grid-pbl-0200.sat05-1339.reshuffled-07.cnf+dd2efc7b,0,0.13,9660
cnfdedup_run.sh+sgen1-sat-230-100.cnf+284d3d9d,0,0.0,1408
cnfdedup_run.sh+sgen1-sat-240-100.cnf+1c96aebc,0,0.0,1408
cnfdedup_run.sh+sgen1-sat-250-100.cnf+10e01fdb,0,0.0,1404
cnfdedup_run.sh+sgen1-sat-270-100.cnf+f9730219,0,0.0,1408
cnfdedup_run.sh+sgen3-n200-s39840374-sat.cnf+5589354c,0,0.0,1408
cnfdedup_run.sh+sgen3-n220-s24359701-sat.cnf+35223dcb,0,0.0,1404
cnfdedup_run.sh+sgen3-n240-s78945233-sat.cnf+2e83ba3f,0,0.0,1408
cnfdedup_run.sh+sgen4-sat-160-8.cnf+5e85be83,0,0.0,1408
cnfdedup_run.sh+sgen4-sat-200-8.cnf+8383204a,0,0.0,1404
cnfdedup_run.sh+sgen4-sat-220-8.cnf+53457a08,0,0.0,1408
cnfdedup_run.sh+sgen6-1080-5-1.cnf+69562fc7,0,0.0,1404
cnfdedup_run.sh+sgen6-1200-5-1.cnf+f0d40c51,0,0.0,1404
cnfdedup_run.sh+sgen6-1320-5-1.cnf+6e4ba150,0,0.0,1408
cnfdedup_run.sh+sgen6-1440-5-1.cnf+ebc3364f,0,0.0,1404
cnfdedup_run.sh+sgen6-840-5-1.cnf+a6c867d6,0,0.0,1408
cnfdedup_run.sh+sgen6-960-5-1.cnf+243ffcd5,0,0.0,1404
cnfdedup_run.sh+shift1add.10000.cnf+e4c5611f,0,0.54,41756
cnfdedup_run.sh+shift1add.13988.cnf+6987e05,0,0.88,62144
cnfdedup_run.sh+shift1add.15982.cnf+d6064abd,0,0.99,67788
cnfdedup_run.sh+shift1add.18973.cnf+c03103c,0,1.07,78880
cnfdedup_run.sh+shift1add.21964.cnf+c7788406,0,1.29,89704
cnfdedup_run.sh+shift1add.24955.cnf+fd754985,0,1.45,100792
cnfdedup_run.sh+shift1add.25952.cnf+652c2fe1,0,1.47,104224
cnfdedup_run.sh+shift1add.29940.cnf+2dfdbbc,0,1.88,127348
cnfdedup_run.sh+slp-synthesis-aes-top28.cnf+f11030ba,0,0.43,31784
cnfdedup_run.sh+slp-synthesis-aes-top29.cnf+f11e483b,0,0.44,33632
cnfdedup_run.sh+smtlib-qfbv-aigs-ext_con_032_008_0256-tseitin.cnf+fd416a41,0,0.09,8604
cnfdedup_run.sh+smtlib-qfbv-aigs-lfsr_004_127_112-tseitin.cnf+10d334e4,0,1.26,91816
cnfdedup_run.sh+stable-300-0.1-20-98765432130020.cnf+546422d3,0,0.07,3968
cnfdedup_run.sh+stable-400-0.1-11-98765432140011.cnf+eb5a9615,0,0.15,6372
cnfdedup_run.sh+stable-400-0.1-12-98765432140012.cnf+d30a83f5,0,0.17,6492
cnfdedup_run.sh+stable-400-0.1-2-9876543214002.cnf+80b81b61,0,0.15,6508
cnfdedup_run.sh+stable-400-0.1-4-9876543214004.cnf+1c290de5,0,0.15,6504
cnfdedup_run.sh+stable-400-0.1-5-9876543214005.cnf+e9e18727,0,0.16,6348
cnfdedup_run.sh+stable-400-0.1-7-9876543214007.cnf+855279ab,0,0.16,6344
cnfdedup_run.sh+total-10-13-u.cnf+1b63349b,0,1.44,105132
cnfdedup_run.sh+toughsat_factoring_155s.cnf+f88fe58c,0,0.01,2344
cnfdedup_run.sh+toughsat_factoring_426s.cnf+93359305,0,0.01,2432
cnfdedup_run.sh+toughsat_factoring_958s.cnf+3cb7d661,0,0.01,2344
cnfdedup_run.sh+toughsat_factoring_inf.cnf+9b20fa11,0,0.02,2916
cnfdedup_run.sh+tph17.cnf+932dfa5c,0,0.14,12564
cnfdedup_run.sh+transport-transport-city-sequential-25nodes-1000size-3degree-100mindistance-3trucks-10packages-2008seed.020-NOTKNOWN.cnf+e8510e8,0,2.02,140604
cnfdedup_run.sh+transport-transport-city-sequential-25nodes-1000size-3degree-100mindistance-3trucks-10packages-2008seed.030-NOTKNOWN.cnf+68607b29,0,2.91,201856
cnfdedup_run.sh+transport-transport-city-sequential-25nodes-1000size-3degree-100mindistance-3trucks-10packages-2008seed.040-NOTKNOWN.cnf+c23be56a,0,3.95,280412
cnfdedup_run.sh+transport-transport-city-sequential-25nodes-1000size-3degree-100mindistance-3trucks-10packages-2008seed.050-NOTKNOWN.cnf+1c174fab,0,4.89,341660
cnfdedup_run.sh+transport-transport-city-sequential-35nodes-1000size-4degree-100mindistance-4trucks-14packages-2008seed.040-NOTKNOWN.cnf+444c27ed,0,10.52,714360
cnfdedup_run.sh+velev-vliw-uns-2.0-uq5.cnf+22421f71,0,4.05,274260
cnfdedup_run.sh+velev-vliw-uns-4.0-9-i1.cnf+2844df1c,0,5.19,345008
cnfdedup_run.sh+velev-vliw-uns-4.0-9.cnf+9fac753,0,2.81,191752
cnfdedup_run.sh+vmpc_29.cnf+f31a2428,0,0.15,12756
cnfdedup_run.sh+vmpc_32.renamed-as.sat05-1919.cnf+f114e119,0,0.23,17948
cnfdedup_run.sh+vmpc_33.cnf+f47a6fc1,0,0.24,18716
cnfdedup_run.sh+x1_40.shuffled.cnf+95f6711c,0,0.0,1408
cnfdedup_run.sh+x1_80.shuffled.cnf+fd641a20,0,0.0,1408
cnfdedup_run.sh+zfcp-2.8-u2-nh.cnf+f41ffa73,0,55.62,3351728
